EESchema Schematic File Version 4
LIBS:MainMk1-cache
EELAYER 26 0
EELAYER END
$Descr A4 11693 8268
encoding utf-8
Sheet 2 4
Title ""
Date ""
Rev ""
Comp ""
Comment1 ""
Comment2 ""
Comment3 ""
Comment4 ""
$EndDescr
$Comp
L Connector:Screw_Terminal_01x02 J?
U 1 1 5BC1DFB6
P 4450 2050
F 0 "J?" H 4370 2267 50  0000 C CNN
F 1 "DCIN" H 4370 2176 50  0000 C CNN
F 2 "Connectors_Terminal_Blocks:TerminalBlock_bornier-2_P5.08mm" H 4450 2050 50  0001 C CNN
F 3 "~" H 4450 2050 50  0001 C CNN
	1    4450 2050
	-1   0    0    -1  
$EndComp
$Comp
L Device:Q_PMOS_DGS Q?
U 1 1 5BC1DFCB
P 6350 2150
F 0 "Q?" V 6693 2150 50  0000 C CNN
F 1 "Q_PMOS_DGS" V 6602 2150 50  0000 C CNN
F 2 "Battery_charging_cubesat:SOT-23_AO3407A" H 6550 2250 50  0001 C CNN
F 3 "~" H 6350 2150 50  0001 C CNN
	1    6350 2150
	0    -1   -1   0   
$EndComp
$Comp
L Device:C C?
U 1 1 5BC1DFD2
P 5150 2200
F 0 "C?" H 5265 2246 50  0000 L CNN
F 1 "0.1u" H 5265 2155 50  0000 L CNN
F 2 "Capacitors_SMD:C_0805_HandSoldering" H 5188 2050 50  0001 C CNN
F 3 "~" H 5150 2200 50  0001 C CNN
	1    5150 2200
	1    0    0    -1  
$EndComp
$Comp
L power:GND #PWR?
U 1 1 5BC1DFD9
P 4650 2150
F 0 "#PWR?" H 4650 1900 50  0001 C CNN
F 1 "GND" H 4655 1977 50  0000 C CNN
F 2 "" H 4650 2150 50  0001 C CNN
F 3 "" H 4650 2150 50  0001 C CNN
	1    4650 2150
	1    0    0    -1  
$EndComp
Wire Wire Line
	4650 2050 5150 2050
Connection ~ 5150 2050
Wire Wire Line
	5150 2050 6150 2050
Text Label 4650 2050 0    50   ~ 0
DCIN
Text Label 5000 3050 0    50   ~ 0
DCIN
Wire Wire Line
	5250 3050 5000 3050
$Comp
L Device:R R?
U 1 1 5BC1DFE5
P 3250 1750
F 0 "R?" H 3100 1800 50  0000 C CNN
F 1 "100k" H 3100 1700 50  0000 C CNN
F 2 "Resistors_SMD:R_0805_HandSoldering" V 3180 1750 50  0001 C CNN
F 3 "~" H 3250 1750 50  0001 C CNN
	1    3250 1750
	-1   0    0    1   
$EndComp
$Comp
L Device:R R_NTC?
U 1 1 5BC1DFEC
P 3350 5400
F 0 "R_NTC?" V 3143 5400 50  0000 C CNN
F 1 "301k" V 3234 5400 50  0000 C CNN
F 2 "Resistors_SMD:R_0805_HandSoldering" V 3280 5400 50  0001 C CNN
F 3 "~" H 3350 5400 50  0001 C CNN
	1    3350 5400
	0    1    1    0   
$EndComp
$Comp
L Device:R R?
U 1 1 5BC1DFF3
P 3050 3800
F 0 "R?" V 3250 3800 50  0000 C CNN
F 1 "6k" V 3150 3800 50  0000 C CNN
F 2 "Resistors_SMD:R_0805_HandSoldering" V 2980 3800 50  0001 C CNN
F 3 "~" H 3050 3800 50  0001 C CNN
	1    3050 3800
	0    -1   -1   0   
$EndComp
$Comp
L Device:C C?
U 1 1 5BC1DFFA
P 3500 3800
F 0 "C?" V 3750 3800 50  0000 C CNN
F 1 "0.12u" V 3650 3800 50  0000 C CNN
F 2 "Capacitors_SMD:C_0805_HandSoldering" H 3538 3650 50  0001 C CNN
F 3 "~" H 3500 3800 50  0001 C CNN
	1    3500 3800
	0    -1   -1   0   
$EndComp
$Comp
L Device:C C?
U 1 1 5BC1E001
P 3050 4250
F 0 "C?" V 3300 4250 50  0000 C CNN
F 1 "4.7n" V 3200 4250 50  0000 C CNN
F 2 "Capacitors_SMD:C_0805_HandSoldering" H 3088 4100 50  0001 C CNN
F 3 "~" H 3050 4250 50  0001 C CNN
	1    3050 4250
	0    -1   -1   0   
$EndComp
$Comp
L power:GND #PWR?
U 1 1 5BC1E008
P 3400 3150
F 0 "#PWR?" H 3400 2900 50  0001 C CNN
F 1 "GND" H 3405 2977 50  0000 C CNN
F 2 "" H 3400 3150 50  0001 C CNN
F 3 "" H 3400 3150 50  0001 C CNN
	1    3400 3150
	1    0    0    -1  
$EndComp
$Comp
L power:GND #PWR?
U 1 1 5BC1E00E
P 3850 3800
F 0 "#PWR?" H 3850 3550 50  0001 C CNN
F 1 "GND" H 3855 3627 50  0000 C CNN
F 2 "" H 3850 3800 50  0001 C CNN
F 3 "" H 3850 3800 50  0001 C CNN
	1    3850 3800
	1    0    0    -1  
$EndComp
$Comp
L power:GND #PWR?
U 1 1 5BC1E014
P 2900 4650
F 0 "#PWR?" H 2900 4400 50  0001 C CNN
F 1 "GND" H 2905 4477 50  0000 C CNN
F 2 "" H 2900 4650 50  0001 C CNN
F 3 "" H 2900 4650 50  0001 C CNN
	1    2900 4650
	1    0    0    -1  
$EndComp
$Comp
L power:GND #PWR?
U 1 1 5BC1E01A
P 3400 4250
F 0 "#PWR?" H 3400 4000 50  0001 C CNN
F 1 "GND" H 3405 4077 50  0000 C CNN
F 2 "" H 3400 4250 50  0001 C CNN
F 3 "" H 3400 4250 50  0001 C CNN
	1    3400 4250
	1    0    0    -1  
$EndComp
Wire Wire Line
	5250 3150 5000 3150
Wire Wire Line
	5250 3250 5000 3250
Wire Wire Line
	5250 3350 5000 3350
Wire Wire Line
	5250 3450 5000 3450
Wire Wire Line
	5250 3550 5000 3550
Wire Wire Line
	5250 3650 5000 3650
Wire Wire Line
	5250 3750 5000 3750
Text Label 5000 3150 0    50   ~ 0
CHG
Text Label 5000 3250 0    50   ~ 0
ACP
Text Label 5000 3350 0    50   ~ 0
R_T
Text Label 5000 3450 0    50   ~ 0
GND
Text Label 5000 3550 0    50   ~ 0
NTC
Text Label 5000 3650 0    50   ~ 0
I_TH
Text Label 5000 3750 0    50   ~ 0
I_MON
Text Label 3350 2050 0    50   ~ 0
CHG
Wire Wire Line
	3150 2050 3350 2050
Wire Wire Line
	3150 2150 3350 2150
Wire Wire Line
	3150 2250 3350 2250
Wire Wire Line
	3150 2350 3350 2350
Wire Wire Line
	3250 1900 3250 1950
Wire Wire Line
	3250 1950 3150 1950
Wire Wire Line
	3250 1600 3250 1550
Wire Wire Line
	3250 1550 3450 1550
Text Label 3450 1550 0    50   ~ 0
CHG
Text Label 3350 2150 0    50   ~ 0
ACP
$Comp
L Device:R R_RT?
U 1 1 5BC1E039
P 3050 3150
F 0 "R_RT?" V 3257 3150 50  0000 C CNN
F 1 "385k" V 3166 3150 50  0000 C CNN
F 2 "Resistors_SMD:R_0805_HandSoldering" V 2980 3150 50  0001 C CNN
F 3 "~" H 3050 3150 50  0001 C CNN
	1    3050 3150
	0    -1   -1   0   
$EndComp
Text Label 3350 2350 0    50   ~ 0
I_MON
Text Label 3350 2250 0    50   ~ 0
GND
Wire Wire Line
	2900 3150 2650 3150
Wire Wire Line
	3200 3150 3400 3150
Text Label 2650 3150 0    50   ~ 0
R_T
Wire Wire Line
	2650 4650 2900 4650
Text Label 2650 4650 0    50   ~ 0
GND
Wire Wire Line
	3500 5400 3750 5400
Text Label 3150 5850 0    50   ~ 0
NTC
Text Label 3750 5400 0    50   ~ 0
DCIN
Wire Wire Line
	3650 3800 3850 3800
Wire Wire Line
	3350 3800 3200 3800
Wire Wire Line
	2650 3800 2900 3800
Text Label 2650 3800 0    50   ~ 0
I_TH
Wire Wire Line
	3400 4250 3200 4250
Wire Wire Line
	2900 4250 2650 4250
Text Label 2650 4250 0    50   ~ 0
I_MON
Wire Wire Line
	6250 3150 6500 3150
Wire Wire Line
	6250 3250 6500 3250
Wire Wire Line
	6250 3350 6500 3350
Wire Wire Line
	6250 3450 6500 3450
Wire Wire Line
	6250 3550 6500 3550
Wire Wire Line
	6250 3650 6500 3650
Wire Wire Line
	6250 3750 6500 3750
Text Label 6500 3350 0    50   ~ 0
TGATE
Text Label 6500 3150 0    50   ~ 0
BGATE
Wire Wire Line
	5350 4600 5100 4600
Wire Wire Line
	5350 4800 5100 4800
Text Label 5100 4800 0    50   ~ 0
TGATE
Text Label 5100 4600 0    50   ~ 0
BGATE
Text Label 6500 3250 0    50   ~ 0
PGND
$Comp
L power:GND #PWR?
U 1 1 5BC1E05F
P 9050 3550
F 0 "#PWR?" H 9050 3300 50  0001 C CNN
F 1 "GND" H 9055 3377 50  0000 C CNN
F 2 "" H 9050 3550 50  0001 C CNN
F 3 "" H 9050 3550 50  0001 C CNN
	1    9050 3550
	1    0    0    -1  
$EndComp
Wire Wire Line
	8800 3550 9050 3550
Text Label 8800 3550 0    50   ~ 0
PGND
Text Label 6500 3450 0    50   ~ 0
CLN
Wire Wire Line
	5350 4700 5100 4700
Text Label 5100 4700 0    50   ~ 0
LOAD
$Comp
L power:GND #PWR?
U 1 1 5BC1E06A
P 9500 2150
F 0 "#PWR?" H 9500 1900 50  0001 C CNN
F 1 "GND" H 9505 1977 50  0000 C CNN
F 2 "" H 9500 2150 50  0001 C CNN
F 3 "" H 9500 2150 50  0001 C CNN
	1    9500 2150
	1    0    0    -1  
$EndComp
$Comp
L Device:C C?
U 1 1 5BC1E070
P 9050 2200
F 0 "C?" H 9165 2246 50  0000 L CNN
F 1 "20u" H 9165 2155 50  0000 L CNN
F 2 "Capacitors_SMD:C_0805_HandSoldering" H 9088 2050 50  0001 C CNN
F 3 "~" H 9050 2200 50  0001 C CNN
	1    9050 2200
	1    0    0    -1  
$EndComp
$Comp
L power:GND #PWR?
U 1 1 5BC1E077
P 9050 2350
F 0 "#PWR?" H 9050 2100 50  0001 C CNN
F 1 "GND" H 9055 2177 50  0000 C CNN
F 2 "" H 9050 2350 50  0001 C CNN
F 3 "" H 9050 2350 50  0001 C CNN
	1    9050 2350
	1    0    0    -1  
$EndComp
Wire Wire Line
	9050 2050 8800 2050
Connection ~ 9050 2050
Text Label 8800 2050 0    50   ~ 0
LOAD
Wire Wire Line
	5350 4500 5350 4300
Wire Wire Line
	5350 4300 5200 4300
$Comp
L power:GND #PWR?
U 1 1 5BC1E083
P 5200 4300
F 0 "#PWR?" H 5200 4050 50  0001 C CNN
F 1 "GND" H 5205 4127 50  0000 C CNN
F 2 "" H 5200 4300 50  0001 C CNN
F 3 "" H 5200 4300 50  0001 C CNN
	1    5200 4300
	1    0    0    -1  
$EndComp
$Comp
L Device:R R?
U 1 1 5BC1E089
P 7350 2650
F 0 "R?" V 7143 2650 50  0000 C CNN
F 1 "5k" V 7234 2650 50  0000 C CNN
F 2 "Resistors_SMD:R_0805_HandSoldering" V 7280 2650 50  0001 C CNN
F 3 "~" H 7350 2650 50  0001 C CNN
	1    7350 2650
	0    1    1    0   
$EndComp
$Comp
L Device:R_Shunt R_CL?
U 1 1 5BC1E090
P 7150 2050
F 0 "R_CL?" V 6925 2050 50  0000 C CNN
F 1 "33m" V 7016 2050 50  0000 C CNN
F 2 "Battery_charging_cubesat:LVK12" V 7080 2050 50  0001 C CNN
F 3 "~" H 7150 2050 50  0001 C CNN
	1    7150 2050
	0    -1   1    0   
$EndComp
$Comp
L Device:C C?
U 1 1 5BC1E097
P 7750 2500
F 0 "C?" H 7865 2546 50  0000 L CNN
F 1 "15n" H 7865 2455 50  0000 L CNN
F 2 "Capacitors_SMD:C_0805_HandSoldering" H 7788 2350 50  0001 C CNN
F 3 "~" H 7750 2500 50  0001 C CNN
	1    7750 2500
	1    0    0    -1  
$EndComp
Wire Wire Line
	7750 2650 8100 2650
Text Label 8100 2650 0    50   ~ 0
CLP
Text Label 6500 3550 0    50   ~ 0
CLP
Text Label 7700 2050 0    50   ~ 0
LOAD
Connection ~ 7750 2650
Wire Wire Line
	7500 2650 7750 2650
$Comp
L Device:C C_CLN?
U 1 1 5BC1E0A4
P 9200 3150
F 0 "C_CLN?" V 8948 3150 50  0000 C CNN
F 1 "20u" V 9039 3150 50  0000 C CNN
F 2 "Capacitors_SMD:C_0805_HandSoldering" H 9238 3000 50  0001 C CNN
F 3 "~" H 9200 3150 50  0001 C CNN
	1    9200 3150
	0    1    1    0   
$EndComp
Wire Wire Line
	9050 3150 8800 3150
Wire Wire Line
	9350 3150 9600 3150
$Comp
L power:GND #PWR?
U 1 1 5BC1E0AD
P 9600 3150
F 0 "#PWR?" H 9600 2900 50  0001 C CNN
F 1 "GND" H 9605 2977 50  0000 C CNN
F 2 "" H 9600 3150 50  0001 C CNN
F 3 "" H 9600 3150 50  0001 C CNN
	1    9600 3150
	1    0    0    -1  
$EndComp
Text Label 8800 3150 0    50   ~ 0
CLN
Text Label 6500 3650 0    50   ~ 0
BAT
Text Label 6500 3750 0    50   ~ 0
CSP
$Comp
L Device:L L?
U 1 1 5BC1E0B6
P 6750 4500
F 0 "L?" V 6940 4500 50  0000 C CNN
F 1 "20u" V 6849 4500 50  0000 C CNN
F 2 "Battery_charging_cubesat:SRN1060_inductor" H 6750 4500 50  0001 C CNN
F 3 "~" H 6750 4500 50  0001 C CNN
	1    6750 4500
	0    -1   -1   0   
$EndComp
Wire Wire Line
	6550 2050 6950 2050
Wire Wire Line
	7050 2200 7050 2650
Wire Wire Line
	7050 2650 7200 2650
Wire Wire Line
	7250 2200 7250 2350
Wire Wire Line
	7250 2350 7750 2350
Connection ~ 7750 2350
Wire Wire Line
	7750 2350 8100 2350
Wire Wire Line
	7350 2050 7700 2050
Text Label 8100 2350 0    50   ~ 0
CLN
$Comp
L Device:R_Shunt R_SENSE?
U 1 1 5BC1E0C6
P 7300 4500
F 0 "R_SENSE?" V 7075 4500 50  0000 C CNN
F 1 "33m" V 7166 4500 50  0000 C CNN
F 2 "Battery_charging_cubesat:LVK12" V 7230 4500 50  0001 C CNN
F 3 "~" H 7300 4500 50  0001 C CNN
	1    7300 4500
	0    -1   1    0   
$EndComp
$Comp
L Device:C C?
U 1 1 5BC1E0CD
P 8000 4650
F 0 "C?" H 8115 4696 50  0000 L CNN
F 1 "20u" H 8115 4605 50  0000 L CNN
F 2 "Capacitors_SMD:C_0805_HandSoldering" H 8038 4500 50  0001 C CNN
F 3 "~" H 8000 4650 50  0001 C CNN
	1    8000 4650
	1    0    0    -1  
$EndComp
Wire Wire Line
	6150 4500 6600 4500
Wire Wire Line
	6900 4500 7100 4500
Wire Wire Line
	7500 4500 8000 4500
Connection ~ 8000 4500
$Comp
L power:GND #PWR?
U 1 1 5BC1E0D9
P 8450 4600
F 0 "#PWR?" H 8450 4350 50  0001 C CNN
F 1 "GND" H 8455 4427 50  0000 C CNN
F 2 "" H 8450 4600 50  0001 C CNN
F 3 "" H 8450 4600 50  0001 C CNN
	1    8450 4600
	1    0    0    -1  
$EndComp
$Comp
L power:GND #PWR?
U 1 1 5BC1E0DF
P 8000 4800
F 0 "#PWR?" H 8000 4550 50  0001 C CNN
F 1 "GND" H 8005 4627 50  0000 C CNN
F 2 "" H 8000 4800 50  0001 C CNN
F 3 "" H 8000 4800 50  0001 C CNN
	1    8000 4800
	1    0    0    -1  
$EndComp
Wire Wire Line
	7200 4650 7200 4800
Wire Wire Line
	7200 4800 6900 4800
Wire Wire Line
	7400 4650 7400 5000
Wire Wire Line
	7400 5000 6900 5000
Text Label 6900 4800 0    50   ~ 0
CSP
Text Label 6900 5000 0    50   ~ 0
BAT
Wire Wire Line
	6250 3050 6500 3050
Wire Wire Line
	6350 2350 6350 2500
Wire Wire Line
	6350 2500 6600 2500
Text Label 6500 3050 0    50   ~ 0
INFET
Text Label 6600 2500 0    50   ~ 0
INFET
$Comp
L all_components:AO4629 U?
U 1 1 5BC1E0F0
P 5750 4350
F 0 "U?" H 5750 4465 50  0000 C CNN
F 1 "AO4629" H 5750 4374 50  0000 C CNN
F 2 "Battery_charging_cubesat:SOIC-8_AO4629" H 5750 4350 50  0001 C CNN
F 3 "" H 5750 4350 50  0001 C CNN
	1    5750 4350
	1    0    0    -1  
$EndComp
$Comp
L all_components:LTC4006 U?
U 1 1 5BC1E0F7
P 5750 2800
F 0 "U?" H 5750 2915 50  0000 C CNN
F 1 "LTC4006" H 5750 2824 50  0000 C CNN
F 2 "Battery_charging_cubesat:SSOP-16_LTC4006" H 5750 2800 50  0001 C CNN
F 3 "" H 5750 2800 50  0001 C CNN
	1    5750 2800
	1    0    0    -1  
$EndComp
$Comp
L power:GND #PWR?
U 1 1 5BC1E105
P 5150 2450
F 0 "#PWR?" H 5150 2200 50  0001 C CNN
F 1 "GND" H 5155 2277 50  0000 C CNN
F 2 "" H 5150 2450 50  0001 C CNN
F 3 "" H 5150 2450 50  0001 C CNN
	1    5150 2450
	1    0    0    -1  
$EndComp
Wire Wire Line
	5150 2450 5150 2350
$Comp
L power:PWR_FLAG #FLG?
U 1 1 5BC1E10C
P 4250 4450
F 0 "#FLG?" H 4250 4525 50  0001 C CNN
F 1 "PWR_FLAG" H 4250 4624 50  0000 C CNN
F 2 "" H 4250 4450 50  0001 C CNN
F 3 "~" H 4250 4450 50  0001 C CNN
	1    4250 4450
	1    0    0    -1  
$EndComp
$Comp
L power:GND #PWR?
U 1 1 5BC1E112
P 4250 4550
F 0 "#PWR?" H 4250 4300 50  0001 C CNN
F 1 "GND" H 4255 4377 50  0000 C CNN
F 2 "" H 4250 4550 50  0001 C CNN
F 3 "" H 4250 4550 50  0001 C CNN
	1    4250 4550
	1    0    0    -1  
$EndComp
Wire Wire Line
	4250 4450 4250 4550
$Comp
L Connector:Conn_01x03_Male J?
U 1 1 5BC1E119
P 2650 5850
F 0 "J?" H 2756 6128 50  0000 C CNN
F 1 "Conn_01x03_Male" H 2756 6037 50  0000 C CNN
F 2 "Connectors_Molex:Molex_KK-6410-03_03x2.54mm_Straight" H 2650 5850 50  0001 C CNN
F 3 "~" H 2650 5850 50  0001 C CNN
	1    2650 5850
	1    0    0    -1  
$EndComp
Wire Wire Line
	3150 5850 2850 5850
$Comp
L Device:Thermistor_NTC TH?
U 1 1 5BC1E121
P 3750 6500
F 0 "TH?" H 3598 6454 50  0000 R CNN
F 1 "10k" H 3598 6545 50  0000 R CNN
F 2 "Resistors_SMD:R_0805_HandSoldering" H 3750 6550 50  0001 C CNN
F 3 "~" H 3750 6550 50  0001 C CNN
	1    3750 6500
	-1   0    0    1   
$EndComp
Wire Wire Line
	2850 6250 2850 5950
Wire Wire Line
	2850 5400 2850 5750
Wire Wire Line
	2850 5400 3200 5400
$Comp
L power:GND #PWR?
U 1 1 5BC1E12B
P 3750 6750
F 0 "#PWR?" H 3750 6500 50  0001 C CNN
F 1 "GND" H 3755 6577 50  0000 C CNN
F 2 "" H 3750 6750 50  0001 C CNN
F 3 "" H 3750 6750 50  0001 C CNN
	1    3750 6750
	1    0    0    -1  
$EndComp
$Comp
L Device:R R?
U 1 1 5BC1E131
P 3100 6250
F 0 "R?" V 2893 6250 50  0000 C CNN
F 1 "32.4k" V 2984 6250 50  0000 C CNN
F 2 "Resistors_SMD:R_0805_HandSoldering" V 3030 6250 50  0001 C CNN
F 3 "~" H 3100 6250 50  0001 C CNN
	1    3100 6250
	0    1    1    0   
$EndComp
$Comp
L Device:C C?
U 1 1 5BC1E138
P 3300 6500
F 0 "C?" H 3185 6454 50  0000 R CNN
F 1 "0.47u" H 3185 6545 50  0000 R CNN
F 2 "Capacitors_SMD:C_0805_HandSoldering" H 3338 6350 50  0001 C CNN
F 3 "~" H 3300 6500 50  0001 C CNN
	1    3300 6500
	-1   0    0    1   
$EndComp
Wire Wire Line
	2850 6250 2950 6250
Wire Wire Line
	3250 6250 3300 6250
Wire Wire Line
	3300 6250 3300 6350
Wire Wire Line
	3750 6350 3750 6250
Wire Wire Line
	3750 6250 3300 6250
Connection ~ 3300 6250
Wire Wire Line
	3750 6650 3750 6700
Wire Wire Line
	3300 6650 3300 6700
Wire Wire Line
	3300 6700 3750 6700
Connection ~ 3750 6700
Wire Wire Line
	3750 6700 3750 6750
Wire Wire Line
	9050 2050 9800 2050
Wire Wire Line
	9500 2150 9800 2150
Text HLabel 9800 2050 2    50   Output ~ 0
VL
Text HLabel 9800 2150 2    50   Output ~ 0
GNDL
Wire Wire Line
	8000 4500 8750 4500
Wire Wire Line
	8450 4600 8750 4600
Text HLabel 8750 4500 2    50   Output ~ 0
VBAT
Text HLabel 8750 4600 2    50   Output ~ 0
GNDBAT
Text HLabel 3150 1950 0    50   Output ~ 0
V_LOG
Text HLabel 3150 2050 0    50   Output ~ 0
CHG'
Text HLabel 3150 2150 0    50   Output ~ 0
ACP
Text HLabel 3150 2250 0    50   Output ~ 0
GND
Text HLabel 3150 2350 0    50   Output ~ 0
I_MON
Wire Wire Line
	6150 4500 6150 4800
$EndSCHEMATC
