EESchema Schematic File Version 4
LIBS:MainMk1-cache
EELAYER 26 0
EELAYER END
$Descr A4 11693 8268
encoding utf-8
Sheet 1 4
Title ""
Date ""
Rev ""
Comp ""
Comment1 ""
Comment2 ""
Comment3 ""
Comment4 ""
$EndDescr
$Sheet
S 5700 1600 1050 700 
U 5BC2F0D8
F0 "battery_charger" 50
F1 "ltc4006_battery_charger.sch" 50
F2 "VL" O R 6750 1700 50 
F3 "GNDL" O R 6750 1800 50 
F4 "VBAT" O R 6750 2000 50 
F5 "GNDBAT" O R 6750 2100 50 
F6 "V_LOG" O L 5700 1700 50 
F7 "CHG'" O L 5700 1800 50 
F8 "ACP" O L 5700 1900 50 
F9 "GND" O L 5700 2000 50 
F10 "I_MON" O L 5700 2100 50 
$EndSheet
$Sheet
S 5700 2700 1050 700 
U 5BC34B3F
F0 "5V regulator" 50
F1 "5Vregulator.sch" 50
F2 "EN" I L 5700 3000 50 
F3 "PGOOD" I L 5700 3100 50 
F4 "VIN" I L 5700 2900 50 
F5 "VOUT" O R 6750 2900 50 
F6 "GND" O R 6750 3000 50 
$EndSheet
$Sheet
S 5700 3650 1050 650 
U 5BC34C61
F0 "3V3 regulator" 50
F1 "3V3regulator.sch" 50
F2 "EN" I L 5700 3950 50 
F3 "PGOOD" I L 5700 4050 50 
F4 "VIN" I L 5700 3850 50 
F5 "VOUT" O R 6750 3850 50 
F6 "GND" O R 6750 3950 50 
$EndSheet
$EndSCHEMATC
