Removed Pin From Net: NetName=IOUT_3 Pin=Cout3_3-1
Removed Pin From Net: NetName=GND Pin=Cout3_3-2
Removed Pin From Net: NetName=IOUT_3 Pin=Cout4_3-1
Removed Pin From Net: NetName=GND Pin=Cout4_3-2
Removed Member From Class: ClassName=board_schematic_pour Member=Cout3_3
Removed Member From Class: ClassName=board_schematic_pour Member=Cout4_3
