Change Net Name : Old Net Name=NETLABEL13 New Net Name=EN_5
Change Net Name : Old Net Name=NETLABEL14 New Net Name=SS_5
Change Net Name : Old Net Name=NETLABEL15 New Net Name=RT_CLK_3
Change Net Name : Old Net Name=NETLABEL16 New Net Name=RT_CLK_5
