Removed Pin From Net: NetName=PH_3 Pin=L1_3-1
Removed Pin From Net: NetName=IOUT_3 Pin=L1_3-2
Removed Pin From Net: NetName=PH_5 Pin=L1_5-1
Removed Pin From Net: NetName=IOUT_5 Pin=L1_5-2
Change Component DesignItemId : Designator=L1_3 Old DesignItemId=Inductor New DesignItemId=XAL1010
Change Component DesignItemId : Designator=L1_5 Old DesignItemId=Inductor New DesignItemId=XAL1010
Change Component Footprint: Designator=L1_3 Old Footprint=2029 New Footprint=XAL1010-472
Change Component Footprint: Designator=L1_5 Old Footprint=2029 New Footprint=XAL1010-472
Change Component Comment : Designator=L1_3 Old Comment=Inductor New Comment=XAL1010
Change Component Comment : Designator=L1_5 Old Comment=Inductor New Comment=XAL1010
