Change Component DesignItemId : Designator=Cout1_5 Old DesignItemId=Cap Pol3 New DesignItemId=CAPT_47u_6032_16V
Change Component DesignItemId : Designator=Cout2_5 Old DesignItemId=Cap Pol3 New DesignItemId=CAPT_47u_6032_16V
Change Component DesignItemId : Designator=Cout3_5 Old DesignItemId=Cap Pol3 New DesignItemId=CAPT_47u_6032_16V
Change Component Footprint: Designator=Cout1_5 Old Footprint=C0805 New Footprint=CAPMP6032X280N
Change Component Footprint: Designator=Cout2_5 Old Footprint=C0805 New Footprint=CAPMP6032X280N
Change Component Footprint: Designator=Cout3_5 Old Footprint=C0805 New Footprint=CAPMP6032X280N
