(kicad_pcb (version 20171130) (host pcbnew "(5.0.0-3-g5ebb6b6)")

  (general
    (thickness 1.6)
    (drawings 10)
    (tracks 195)
    (zones 0)
    (modules 26)
    (nets 27)
  )

  (page A4)
  (title_block
    (title "Battery charging board")
    (company BLUEsat)
  )

  (layers
    (0 F.Cu signal)
    (31 B.Cu signal)
    (32 B.Adhes user)
    (33 F.Adhes user)
    (34 B.Paste user)
    (35 F.Paste user)
    (36 B.SilkS user)
    (37 F.SilkS user)
    (38 B.Mask user)
    (39 F.Mask user)
    (40 Dwgs.User user)
    (41 Cmts.User user)
    (42 Eco1.User user)
    (43 Eco2.User user)
    (44 Edge.Cuts user)
    (45 Margin user)
    (46 B.CrtYd user)
    (47 F.CrtYd user hide)
    (48 B.Fab user)
    (49 F.Fab user hide)
  )

  (setup
    (last_trace_width 0.25)
    (user_trace_width 0.75)
    (user_trace_width 1)
    (user_trace_width 1.5)
    (user_trace_width 2)
    (trace_clearance 0.2)
    (zone_clearance 0.508)
    (zone_45_only no)
    (trace_min 0.2)
    (segment_width 0.2)
    (edge_width 0.15)
    (via_size 0.8)
    (via_drill 0.4)
    (via_min_size 0.4)
    (via_min_drill 0.3)
    (uvia_size 0.3)
    (uvia_drill 0.1)
    (uvias_allowed no)
    (uvia_min_size 0.2)
    (uvia_min_drill 0.1)
    (pcb_text_width 0.3)
    (pcb_text_size 1.5 1.5)
    (mod_edge_width 0.15)
    (mod_text_size 1 1)
    (mod_text_width 0.15)
    (pad_size 1.524 1.524)
    (pad_drill 0.762)
    (pad_to_mask_clearance 0.2)
    (aux_axis_origin 0 0)
    (grid_origin 140.335 140.97)
    (visible_elements FFFFFF7F)
    (pcbplotparams
      (layerselection 0x010fc_ffffffff)
      (usegerberextensions false)
      (usegerberattributes false)
      (usegerberadvancedattributes false)
      (creategerberjobfile false)
      (excludeedgelayer true)
      (linewidth 0.100000)
      (plotframeref false)
      (viasonmask false)
      (mode 1)
      (useauxorigin false)
      (hpglpennumber 1)
      (hpglpenspeed 20)
      (hpglpendiameter 15.000000)
      (psnegative false)
      (psa4output false)
      (plotreference true)
      (plotvalue true)
      (plotinvisibletext false)
      (padsonsilk false)
      (subtractmaskfromsilk false)
      (outputformat 1)
      (mirror false)
      (drillshape 1)
      (scaleselection 1)
      (outputdirectory ""))
  )

  (net 0 "")
  (net 1 GND)
  (net 2 /DCIN)
  (net 3 /LOAD)
  (net 4 "Net-(C3-Pad1)")
  (net 5 /CLP)
  (net 6 /CLN)
  (net 7 /I_MON)
  (net 8 "Net-(C6-Pad1)")
  (net 9 "Net-(C7-Pad2)")
  (net 10 /ACP)
  (net 11 /CHG)
  (net 12 "Net-(J1-Pad1)")
  (net 13 "Net-(J5-Pad3)")
  (net 14 /NTC)
  (net 15 "Net-(J5-Pad1)")
  (net 16 "Net-(L1-Pad2)")
  (net 17 "Net-(L1-Pad1)")
  (net 18 /INFET)
  (net 19 "Net-(Q1-Pad3)")
  (net 20 "Net-(R1-Pad2)")
  (net 21 /I_TH)
  (net 22 /R_T)
  (net 23 /BAT)
  (net 24 /CSP)
  (net 25 /BGATE)
  (net 26 /TGATE)

  (net_class Default "This is the default net class."
    (clearance 0.2)
    (trace_width 0.25)
    (via_dia 0.8)
    (via_drill 0.4)
    (uvia_dia 0.3)
    (uvia_drill 0.1)
    (add_net /ACP)
    (add_net /BAT)
    (add_net /BGATE)
    (add_net /CHG)
    (add_net /CLN)
    (add_net /CLP)
    (add_net /CSP)
    (add_net /DCIN)
    (add_net /INFET)
    (add_net /I_MON)
    (add_net /I_TH)
    (add_net /LOAD)
    (add_net /NTC)
    (add_net /R_T)
    (add_net /TGATE)
    (add_net GND)
    (add_net "Net-(C3-Pad1)")
    (add_net "Net-(C6-Pad1)")
    (add_net "Net-(C7-Pad2)")
    (add_net "Net-(J1-Pad1)")
    (add_net "Net-(J5-Pad1)")
    (add_net "Net-(J5-Pad3)")
    (add_net "Net-(L1-Pad1)")
    (add_net "Net-(L1-Pad2)")
    (add_net "Net-(Q1-Pad3)")
    (add_net "Net-(R1-Pad2)")
  )

  (module Capacitors_SMD:C_0805_HandSoldering (layer F.Cu) (tedit 58AA84A8) (tstamp 5BB84A27)
    (at 170.815 68.6 90)
    (descr "Capacitor SMD 0805, hand soldering")
    (tags "capacitor 0805")
    (path /5B80F9B8)
    (attr smd)
    (fp_text reference C1 (at 1.29 -1.905 180) (layer F.SilkS)
      (effects (font (size 1 1) (thickness 0.15)))
    )
    (fp_text value 0.1u (at 0 1.75 90) (layer F.Fab)
      (effects (font (size 1 1) (thickness 0.15)))
    )
    (fp_line (start 2.25 0.87) (end -2.25 0.87) (layer F.CrtYd) (width 0.05))
    (fp_line (start 2.25 0.87) (end 2.25 -0.88) (layer F.CrtYd) (width 0.05))
    (fp_line (start -2.25 -0.88) (end -2.25 0.87) (layer F.CrtYd) (width 0.05))
    (fp_line (start -2.25 -0.88) (end 2.25 -0.88) (layer F.CrtYd) (width 0.05))
    (fp_line (start -0.5 0.85) (end 0.5 0.85) (layer F.SilkS) (width 0.12))
    (fp_line (start 0.5 -0.85) (end -0.5 -0.85) (layer F.SilkS) (width 0.12))
    (fp_line (start -1 -0.62) (end 1 -0.62) (layer F.Fab) (width 0.1))
    (fp_line (start 1 -0.62) (end 1 0.62) (layer F.Fab) (width 0.1))
    (fp_line (start 1 0.62) (end -1 0.62) (layer F.Fab) (width 0.1))
    (fp_line (start -1 0.62) (end -1 -0.62) (layer F.Fab) (width 0.1))
    (fp_text user %R (at 0 -1.75 90) (layer F.Fab)
      (effects (font (size 1 1) (thickness 0.15)))
    )
    (pad 2 smd rect (at 1.25 0 90) (size 1.5 1.25) (layers F.Cu F.Paste F.Mask)
      (net 1 GND))
    (pad 1 smd rect (at -1.25 0 90) (size 1.5 1.25) (layers F.Cu F.Paste F.Mask)
      (net 2 /DCIN))
    (model Capacitors_SMD.3dshapes/C_0805.wrl
      (at (xyz 0 0 0))
      (scale (xyz 1 1 1))
      (rotate (xyz 0 0 0))
    )
  )

  (module Capacitors_SMD:C_0805_HandSoldering (layer F.Cu) (tedit 58AA84A8) (tstamp 5BAFAFFE)
    (at 174.01 88.9)
    (descr "Capacitor SMD 0805, hand soldering")
    (tags "capacitor 0805")
    (path /5B830375)
    (attr smd)
    (fp_text reference C2 (at 3.79 0) (layer F.SilkS)
      (effects (font (size 1 1) (thickness 0.15)))
    )
    (fp_text value 20u (at 0 1.75) (layer F.Fab)
      (effects (font (size 1 1) (thickness 0.15)))
    )
    (fp_text user %R (at 0 -1.75) (layer F.Fab)
      (effects (font (size 1 1) (thickness 0.15)))
    )
    (fp_line (start -1 0.62) (end -1 -0.62) (layer F.Fab) (width 0.1))
    (fp_line (start 1 0.62) (end -1 0.62) (layer F.Fab) (width 0.1))
    (fp_line (start 1 -0.62) (end 1 0.62) (layer F.Fab) (width 0.1))
    (fp_line (start -1 -0.62) (end 1 -0.62) (layer F.Fab) (width 0.1))
    (fp_line (start 0.5 -0.85) (end -0.5 -0.85) (layer F.SilkS) (width 0.12))
    (fp_line (start -0.5 0.85) (end 0.5 0.85) (layer F.SilkS) (width 0.12))
    (fp_line (start -2.25 -0.88) (end 2.25 -0.88) (layer F.CrtYd) (width 0.05))
    (fp_line (start -2.25 -0.88) (end -2.25 0.87) (layer F.CrtYd) (width 0.05))
    (fp_line (start 2.25 0.87) (end 2.25 -0.88) (layer F.CrtYd) (width 0.05))
    (fp_line (start 2.25 0.87) (end -2.25 0.87) (layer F.CrtYd) (width 0.05))
    (pad 1 smd rect (at -1.25 0) (size 1.5 1.25) (layers F.Cu F.Paste F.Mask)
      (net 3 /LOAD))
    (pad 2 smd rect (at 1.25 0) (size 1.5 1.25) (layers F.Cu F.Paste F.Mask)
      (net 1 GND))
    (model Capacitors_SMD.3dshapes/C_0805.wrl
      (at (xyz 0 0 0))
      (scale (xyz 1 1 1))
      (rotate (xyz 0 0 0))
    )
  )

  (module Capacitors_SMD:C_0805_HandSoldering (layer F.Cu) (tedit 58AA84A8) (tstamp 5BB84C57)
    (at 170.795 121.285 180)
    (descr "Capacitor SMD 0805, hand soldering")
    (tags "capacitor 0805")
    (path /5B83D319)
    (attr smd)
    (fp_text reference C3 (at 0 -2.54 180) (layer F.SilkS)
      (effects (font (size 1 1) (thickness 0.15)))
    )
    (fp_text value 20u (at 0 1.75 180) (layer F.Fab)
      (effects (font (size 1 1) (thickness 0.15)))
    )
    (fp_line (start 2.25 0.87) (end -2.25 0.87) (layer F.CrtYd) (width 0.05))
    (fp_line (start 2.25 0.87) (end 2.25 -0.88) (layer F.CrtYd) (width 0.05))
    (fp_line (start -2.25 -0.88) (end -2.25 0.87) (layer F.CrtYd) (width 0.05))
    (fp_line (start -2.25 -0.88) (end 2.25 -0.88) (layer F.CrtYd) (width 0.05))
    (fp_line (start -0.5 0.85) (end 0.5 0.85) (layer F.SilkS) (width 0.12))
    (fp_line (start 0.5 -0.85) (end -0.5 -0.85) (layer F.SilkS) (width 0.12))
    (fp_line (start -1 -0.62) (end 1 -0.62) (layer F.Fab) (width 0.1))
    (fp_line (start 1 -0.62) (end 1 0.62) (layer F.Fab) (width 0.1))
    (fp_line (start 1 0.62) (end -1 0.62) (layer F.Fab) (width 0.1))
    (fp_line (start -1 0.62) (end -1 -0.62) (layer F.Fab) (width 0.1))
    (fp_text user %R (at 0 -1.75 180) (layer F.Fab)
      (effects (font (size 1 1) (thickness 0.15)))
    )
    (pad 2 smd rect (at 1.25 0 180) (size 1.5 1.25) (layers F.Cu F.Paste F.Mask)
      (net 1 GND))
    (pad 1 smd rect (at -1.25 0 180) (size 1.5 1.25) (layers F.Cu F.Paste F.Mask)
      (net 4 "Net-(C3-Pad1)"))
    (model Capacitors_SMD.3dshapes/C_0805.wrl
      (at (xyz 0 0 0))
      (scale (xyz 1 1 1))
      (rotate (xyz 0 0 0))
    )
  )

  (module Capacitors_SMD:C_0805_HandSoldering (layer F.Cu) (tedit 58AA84A8) (tstamp 5BAFAF9E)
    (at 158.115 84.455 180)
    (descr "Capacitor SMD 0805, hand soldering")
    (tags "capacitor 0805")
    (path /5B840B42)
    (attr smd)
    (fp_text reference C4 (at 3.81 0 180) (layer F.SilkS)
      (effects (font (size 1 1) (thickness 0.15)))
    )
    (fp_text value 15n (at 0 1.75 180) (layer F.Fab)
      (effects (font (size 1 1) (thickness 0.15)))
    )
    (fp_line (start 2.25 0.87) (end -2.25 0.87) (layer F.CrtYd) (width 0.05))
    (fp_line (start 2.25 0.87) (end 2.25 -0.88) (layer F.CrtYd) (width 0.05))
    (fp_line (start -2.25 -0.88) (end -2.25 0.87) (layer F.CrtYd) (width 0.05))
    (fp_line (start -2.25 -0.88) (end 2.25 -0.88) (layer F.CrtYd) (width 0.05))
    (fp_line (start -0.5 0.85) (end 0.5 0.85) (layer F.SilkS) (width 0.12))
    (fp_line (start 0.5 -0.85) (end -0.5 -0.85) (layer F.SilkS) (width 0.12))
    (fp_line (start -1 -0.62) (end 1 -0.62) (layer F.Fab) (width 0.1))
    (fp_line (start 1 -0.62) (end 1 0.62) (layer F.Fab) (width 0.1))
    (fp_line (start 1 0.62) (end -1 0.62) (layer F.Fab) (width 0.1))
    (fp_line (start -1 0.62) (end -1 -0.62) (layer F.Fab) (width 0.1))
    (fp_text user %R (at 0 -1.75 180) (layer F.Fab)
      (effects (font (size 1 1) (thickness 0.15)))
    )
    (pad 2 smd rect (at 1.25 0 180) (size 1.5 1.25) (layers F.Cu F.Paste F.Mask)
      (net 5 /CLP))
    (pad 1 smd rect (at -1.25 0 180) (size 1.5 1.25) (layers F.Cu F.Paste F.Mask)
      (net 6 /CLN))
    (model Capacitors_SMD.3dshapes/C_0805.wrl
      (at (xyz 0 0 0))
      (scale (xyz 1 1 1))
      (rotate (xyz 0 0 0))
    )
  )

  (module Capacitors_SMD:C_0805_HandSoldering (layer F.Cu) (tedit 58AA84A8) (tstamp 5BAFAF6E)
    (at 154.94 110.49 270)
    (descr "Capacitor SMD 0805, hand soldering")
    (tags "capacitor 0805")
    (path /5B810BCA)
    (attr smd)
    (fp_text reference C5 (at 0 -1.75 270) (layer F.SilkS)
      (effects (font (size 1 1) (thickness 0.15)))
    )
    (fp_text value 4.7n (at 0 1.75 270) (layer F.Fab)
      (effects (font (size 1 1) (thickness 0.15)))
    )
    (fp_line (start 2.25 0.87) (end -2.25 0.87) (layer F.CrtYd) (width 0.05))
    (fp_line (start 2.25 0.87) (end 2.25 -0.88) (layer F.CrtYd) (width 0.05))
    (fp_line (start -2.25 -0.88) (end -2.25 0.87) (layer F.CrtYd) (width 0.05))
    (fp_line (start -2.25 -0.88) (end 2.25 -0.88) (layer F.CrtYd) (width 0.05))
    (fp_line (start -0.5 0.85) (end 0.5 0.85) (layer F.SilkS) (width 0.12))
    (fp_line (start 0.5 -0.85) (end -0.5 -0.85) (layer F.SilkS) (width 0.12))
    (fp_line (start -1 -0.62) (end 1 -0.62) (layer F.Fab) (width 0.1))
    (fp_line (start 1 -0.62) (end 1 0.62) (layer F.Fab) (width 0.1))
    (fp_line (start 1 0.62) (end -1 0.62) (layer F.Fab) (width 0.1))
    (fp_line (start -1 0.62) (end -1 -0.62) (layer F.Fab) (width 0.1))
    (fp_text user %R (at 0 -1.75 270) (layer F.Fab)
      (effects (font (size 1 1) (thickness 0.15)))
    )
    (pad 2 smd rect (at 1.25 0 270) (size 1.5 1.25) (layers F.Cu F.Paste F.Mask)
      (net 1 GND))
    (pad 1 smd rect (at -1.25 0 270) (size 1.5 1.25) (layers F.Cu F.Paste F.Mask)
      (net 7 /I_MON))
    (model Capacitors_SMD.3dshapes/C_0805.wrl
      (at (xyz 0 0 0))
      (scale (xyz 1 1 1))
      (rotate (xyz 0 0 0))
    )
  )

  (module Capacitors_SMD:C_0805_HandSoldering (layer F.Cu) (tedit 58AA84A8) (tstamp 5BAFAF3E)
    (at 150.495 110.47 270)
    (descr "Capacitor SMD 0805, hand soldering")
    (tags "capacitor 0805")
    (path /5B810A68)
    (attr smd)
    (fp_text reference C6 (at 0 -1.75 270) (layer F.SilkS)
      (effects (font (size 1 1) (thickness 0.15)))
    )
    (fp_text value 0.12u (at 0 1.75 270) (layer F.Fab)
      (effects (font (size 1 1) (thickness 0.15)))
    )
    (fp_text user %R (at 0 -1.75 270) (layer F.Fab)
      (effects (font (size 1 1) (thickness 0.15)))
    )
    (fp_line (start -1 0.62) (end -1 -0.62) (layer F.Fab) (width 0.1))
    (fp_line (start 1 0.62) (end -1 0.62) (layer F.Fab) (width 0.1))
    (fp_line (start 1 -0.62) (end 1 0.62) (layer F.Fab) (width 0.1))
    (fp_line (start -1 -0.62) (end 1 -0.62) (layer F.Fab) (width 0.1))
    (fp_line (start 0.5 -0.85) (end -0.5 -0.85) (layer F.SilkS) (width 0.12))
    (fp_line (start -0.5 0.85) (end 0.5 0.85) (layer F.SilkS) (width 0.12))
    (fp_line (start -2.25 -0.88) (end 2.25 -0.88) (layer F.CrtYd) (width 0.05))
    (fp_line (start -2.25 -0.88) (end -2.25 0.87) (layer F.CrtYd) (width 0.05))
    (fp_line (start 2.25 0.87) (end 2.25 -0.88) (layer F.CrtYd) (width 0.05))
    (fp_line (start 2.25 0.87) (end -2.25 0.87) (layer F.CrtYd) (width 0.05))
    (pad 1 smd rect (at -1.25 0 270) (size 1.5 1.25) (layers F.Cu F.Paste F.Mask)
      (net 8 "Net-(C6-Pad1)"))
    (pad 2 smd rect (at 1.25 0 270) (size 1.5 1.25) (layers F.Cu F.Paste F.Mask)
      (net 1 GND))
    (model Capacitors_SMD.3dshapes/C_0805.wrl
      (at (xyz 0 0 0))
      (scale (xyz 1 1 1))
      (rotate (xyz 0 0 0))
    )
  )

  (module Capacitors_SMD:C_0805_HandSoldering (layer F.Cu) (tedit 58AA84A8) (tstamp 5BAFAF0E)
    (at 147.14 68.62 180)
    (descr "Capacitor SMD 0805, hand soldering")
    (tags "capacitor 0805")
    (path /5BA9778B)
    (attr smd)
    (fp_text reference C7 (at 3.63 0.3575 180) (layer F.SilkS)
      (effects (font (size 1 1) (thickness 0.15)))
    )
    (fp_text value 0.47u (at 0 1.75 180) (layer F.Fab)
      (effects (font (size 1 1) (thickness 0.15)))
    )
    (fp_text user %R (at 0 -1.75 180) (layer F.Fab)
      (effects (font (size 1 1) (thickness 0.15)))
    )
    (fp_line (start -1 0.62) (end -1 -0.62) (layer F.Fab) (width 0.1))
    (fp_line (start 1 0.62) (end -1 0.62) (layer F.Fab) (width 0.1))
    (fp_line (start 1 -0.62) (end 1 0.62) (layer F.Fab) (width 0.1))
    (fp_line (start -1 -0.62) (end 1 -0.62) (layer F.Fab) (width 0.1))
    (fp_line (start 0.5 -0.85) (end -0.5 -0.85) (layer F.SilkS) (width 0.12))
    (fp_line (start -0.5 0.85) (end 0.5 0.85) (layer F.SilkS) (width 0.12))
    (fp_line (start -2.25 -0.88) (end 2.25 -0.88) (layer F.CrtYd) (width 0.05))
    (fp_line (start -2.25 -0.88) (end -2.25 0.87) (layer F.CrtYd) (width 0.05))
    (fp_line (start 2.25 0.87) (end 2.25 -0.88) (layer F.CrtYd) (width 0.05))
    (fp_line (start 2.25 0.87) (end -2.25 0.87) (layer F.CrtYd) (width 0.05))
    (pad 1 smd rect (at -1.25 0 180) (size 1.5 1.25) (layers F.Cu F.Paste F.Mask)
      (net 1 GND))
    (pad 2 smd rect (at 1.25 0 180) (size 1.5 1.25) (layers F.Cu F.Paste F.Mask)
      (net 9 "Net-(C7-Pad2)"))
    (model Capacitors_SMD.3dshapes/C_0805.wrl
      (at (xyz 0 0 0))
      (scale (xyz 1 1 1))
      (rotate (xyz 0 0 0))
    )
  )

  (module Capacitors_SMD:C_0805_HandSoldering (layer F.Cu) (tedit 58AA84A8) (tstamp 5BAFAEDE)
    (at 164.465 85.705 90)
    (descr "Capacitor SMD 0805, hand soldering")
    (tags "capacitor 0805")
    (path /5B85AB13)
    (attr smd)
    (fp_text reference C_CLN1 (at 0 -1.905 90) (layer F.SilkS)
      (effects (font (size 1 1) (thickness 0.15)))
    )
    (fp_text value 20u (at 0 1.75 90) (layer F.Fab)
      (effects (font (size 1 1) (thickness 0.15)))
    )
    (fp_text user %R (at 0 -1.75 90) (layer F.Fab)
      (effects (font (size 1 1) (thickness 0.15)))
    )
    (fp_line (start -1 0.62) (end -1 -0.62) (layer F.Fab) (width 0.1))
    (fp_line (start 1 0.62) (end -1 0.62) (layer F.Fab) (width 0.1))
    (fp_line (start 1 -0.62) (end 1 0.62) (layer F.Fab) (width 0.1))
    (fp_line (start -1 -0.62) (end 1 -0.62) (layer F.Fab) (width 0.1))
    (fp_line (start 0.5 -0.85) (end -0.5 -0.85) (layer F.SilkS) (width 0.12))
    (fp_line (start -0.5 0.85) (end 0.5 0.85) (layer F.SilkS) (width 0.12))
    (fp_line (start -2.25 -0.88) (end 2.25 -0.88) (layer F.CrtYd) (width 0.05))
    (fp_line (start -2.25 -0.88) (end -2.25 0.87) (layer F.CrtYd) (width 0.05))
    (fp_line (start 2.25 0.87) (end 2.25 -0.88) (layer F.CrtYd) (width 0.05))
    (fp_line (start 2.25 0.87) (end -2.25 0.87) (layer F.CrtYd) (width 0.05))
    (pad 1 smd rect (at -1.25 0 90) (size 1.5 1.25) (layers F.Cu F.Paste F.Mask)
      (net 1 GND))
    (pad 2 smd rect (at 1.25 0 90) (size 1.5 1.25) (layers F.Cu F.Paste F.Mask)
      (net 6 /CLN))
    (model Capacitors_SMD.3dshapes/C_0805.wrl
      (at (xyz 0 0 0))
      (scale (xyz 1 1 1))
      (rotate (xyz 0 0 0))
    )
  )

  (module Connectors_Molex:Molex_KK-6410-05_05x2.54mm_Straight (layer F.Cu) (tedit 58EE6EEA) (tstamp 5BAFCC38)
    (at 146.685 116.84 270)
    (descr "Connector Headers with Friction Lock, 22-27-2051, http://www.molex.com/pdm_docs/sd/022272021_sd.pdf")
    (tags "connector molex kk_6410 22-27-2051")
    (path /5B9E3E52)
    (fp_text reference J1 (at -2.54 0 270) (layer F.SilkS)
      (effects (font (size 1 1) (thickness 0.15)))
    )
    (fp_text value Header (at 5.08 4.5 270) (layer F.Fab)
      (effects (font (size 1 1) (thickness 0.15)))
    )
    (fp_text user %R (at 5.08 0 270) (layer F.Fab)
      (effects (font (size 1 1) (thickness 0.15)))
    )
    (fp_line (start 12.05 3.5) (end -1.9 3.5) (layer F.CrtYd) (width 0.05))
    (fp_line (start 12.05 -3.55) (end 12.05 3.5) (layer F.CrtYd) (width 0.05))
    (fp_line (start -1.9 -3.55) (end 12.05 -3.55) (layer F.CrtYd) (width 0.05))
    (fp_line (start -1.9 3.5) (end -1.9 -3.55) (layer F.CrtYd) (width 0.05))
    (fp_line (start 10.96 -2.4) (end 10.96 -3.02) (layer F.SilkS) (width 0.12))
    (fp_line (start 9.36 -2.4) (end 10.96 -2.4) (layer F.SilkS) (width 0.12))
    (fp_line (start 9.36 -3.02) (end 9.36 -2.4) (layer F.SilkS) (width 0.12))
    (fp_line (start 8.42 -2.4) (end 8.42 -3.02) (layer F.SilkS) (width 0.12))
    (fp_line (start 6.82 -2.4) (end 8.42 -2.4) (layer F.SilkS) (width 0.12))
    (fp_line (start 6.82 -3.02) (end 6.82 -2.4) (layer F.SilkS) (width 0.12))
    (fp_line (start 5.88 -2.4) (end 5.88 -3.02) (layer F.SilkS) (width 0.12))
    (fp_line (start 4.28 -2.4) (end 5.88 -2.4) (layer F.SilkS) (width 0.12))
    (fp_line (start 4.28 -3.02) (end 4.28 -2.4) (layer F.SilkS) (width 0.12))
    (fp_line (start 3.34 -2.4) (end 3.34 -3.02) (layer F.SilkS) (width 0.12))
    (fp_line (start 1.74 -2.4) (end 3.34 -2.4) (layer F.SilkS) (width 0.12))
    (fp_line (start 1.74 -3.02) (end 1.74 -2.4) (layer F.SilkS) (width 0.12))
    (fp_line (start 0.8 -2.4) (end 0.8 -3.02) (layer F.SilkS) (width 0.12))
    (fp_line (start -0.8 -2.4) (end 0.8 -2.4) (layer F.SilkS) (width 0.12))
    (fp_line (start -0.8 -3.02) (end -0.8 -2.4) (layer F.SilkS) (width 0.12))
    (fp_line (start 9.91 2.98) (end 9.91 1.98) (layer F.SilkS) (width 0.12))
    (fp_line (start 0.25 2.98) (end 0.25 1.98) (layer F.SilkS) (width 0.12))
    (fp_line (start 9.91 1.55) (end 10.16 1.98) (layer F.SilkS) (width 0.12))
    (fp_line (start 0.25 1.55) (end 9.91 1.55) (layer F.SilkS) (width 0.12))
    (fp_line (start 0 1.98) (end 0.25 1.55) (layer F.SilkS) (width 0.12))
    (fp_line (start 10.16 1.98) (end 10.16 2.98) (layer F.SilkS) (width 0.12))
    (fp_line (start 0 1.98) (end 10.16 1.98) (layer F.SilkS) (width 0.12))
    (fp_line (start 0 2.98) (end 0 1.98) (layer F.SilkS) (width 0.12))
    (fp_line (start 11.53 -3.02) (end -1.37 -3.02) (layer F.SilkS) (width 0.12))
    (fp_line (start 11.53 2.98) (end 11.53 -3.02) (layer F.SilkS) (width 0.12))
    (fp_line (start -1.37 2.98) (end 11.53 2.98) (layer F.SilkS) (width 0.12))
    (fp_line (start -1.37 -3.02) (end -1.37 2.98) (layer F.SilkS) (width 0.12))
    (fp_line (start 11.63 -3.12) (end -1.47 -3.12) (layer F.Fab) (width 0.12))
    (fp_line (start 11.63 3.08) (end 11.63 -3.12) (layer F.Fab) (width 0.12))
    (fp_line (start -1.47 3.08) (end 11.63 3.08) (layer F.Fab) (width 0.12))
    (fp_line (start -1.47 -3.12) (end -1.47 3.08) (layer F.Fab) (width 0.12))
    (pad 5 thru_hole oval (at 10.16 0 270) (size 2 2.6) (drill 1.2) (layers *.Cu *.Mask)
      (net 7 /I_MON))
    (pad 4 thru_hole oval (at 7.62 0 270) (size 2 2.6) (drill 1.2) (layers *.Cu *.Mask)
      (net 1 GND))
    (pad 3 thru_hole oval (at 5.08 0 270) (size 2 2.6) (drill 1.2) (layers *.Cu *.Mask)
      (net 10 /ACP))
    (pad 2 thru_hole oval (at 2.54 0 270) (size 2 2.6) (drill 1.2) (layers *.Cu *.Mask)
      (net 11 /CHG))
    (pad 1 thru_hole rect (at 0 0 270) (size 2 2.6) (drill 1.2) (layers *.Cu *.Mask)
      (net 12 "Net-(J1-Pad1)"))
    (model ${KISYS3DMOD}/Connectors_Molex.3dshapes/Molex_KK-6410-05_05x2.54mm_Straight.wrl
      (at (xyz 0 0 0))
      (scale (xyz 1 1 1))
      (rotate (xyz 0 0 0))
    )
  )

  (module Connectors_Molex:Molex_KK-6410-03_03x2.54mm_Straight (layer F.Cu) (tedit 58EE6EE6) (tstamp 5BAFAD18)
    (at 150.495 83.185 180)
    (descr "Connector Headers with Friction Lock, 22-27-2031, http://www.molex.com/pdm_docs/sd/022272021_sd.pdf")
    (tags "connector molex kk_6410 22-27-2031")
    (path /5BA60462)
    (fp_text reference J5 (at 1 -4.5 180) (layer F.SilkS)
      (effects (font (size 1 1) (thickness 0.15)))
    )
    (fp_text value Conn_01x03_Male (at 2.54 4.5 180) (layer F.Fab)
      (effects (font (size 1 1) (thickness 0.15)))
    )
    (fp_text user %R (at 2.54 0 180) (layer F.Fab)
      (effects (font (size 1 1) (thickness 0.15)))
    )
    (fp_line (start 7 3.5) (end -1.9 3.5) (layer F.CrtYd) (width 0.05))
    (fp_line (start 7 -3.55) (end 7 3.5) (layer F.CrtYd) (width 0.05))
    (fp_line (start -1.9 -3.55) (end 7 -3.55) (layer F.CrtYd) (width 0.05))
    (fp_line (start -1.9 3.5) (end -1.9 -3.55) (layer F.CrtYd) (width 0.05))
    (fp_line (start 5.88 -2.4) (end 5.88 -3.02) (layer F.SilkS) (width 0.12))
    (fp_line (start 4.28 -2.4) (end 5.88 -2.4) (layer F.SilkS) (width 0.12))
    (fp_line (start 4.28 -3.02) (end 4.28 -2.4) (layer F.SilkS) (width 0.12))
    (fp_line (start 3.34 -2.4) (end 3.34 -3.02) (layer F.SilkS) (width 0.12))
    (fp_line (start 1.74 -2.4) (end 3.34 -2.4) (layer F.SilkS) (width 0.12))
    (fp_line (start 1.74 -3.02) (end 1.74 -2.4) (layer F.SilkS) (width 0.12))
    (fp_line (start 0.8 -2.4) (end 0.8 -3.02) (layer F.SilkS) (width 0.12))
    (fp_line (start -0.8 -2.4) (end 0.8 -2.4) (layer F.SilkS) (width 0.12))
    (fp_line (start -0.8 -3.02) (end -0.8 -2.4) (layer F.SilkS) (width 0.12))
    (fp_line (start 4.83 2.98) (end 4.83 1.98) (layer F.SilkS) (width 0.12))
    (fp_line (start 0.25 2.98) (end 0.25 1.98) (layer F.SilkS) (width 0.12))
    (fp_line (start 4.83 1.55) (end 5.08 1.98) (layer F.SilkS) (width 0.12))
    (fp_line (start 0.25 1.55) (end 4.83 1.55) (layer F.SilkS) (width 0.12))
    (fp_line (start 0 1.98) (end 0.25 1.55) (layer F.SilkS) (width 0.12))
    (fp_line (start 5.08 1.98) (end 5.08 2.98) (layer F.SilkS) (width 0.12))
    (fp_line (start 0 1.98) (end 5.08 1.98) (layer F.SilkS) (width 0.12))
    (fp_line (start 0 2.98) (end 0 1.98) (layer F.SilkS) (width 0.12))
    (fp_line (start 6.45 -3.02) (end -1.37 -3.02) (layer F.SilkS) (width 0.12))
    (fp_line (start 6.45 2.98) (end 6.45 -3.02) (layer F.SilkS) (width 0.12))
    (fp_line (start -1.37 2.98) (end 6.45 2.98) (layer F.SilkS) (width 0.12))
    (fp_line (start -1.37 -3.02) (end -1.37 2.98) (layer F.SilkS) (width 0.12))
    (fp_line (start 6.55 -3.12) (end -1.47 -3.12) (layer F.Fab) (width 0.12))
    (fp_line (start 6.55 3.08) (end 6.55 -3.12) (layer F.Fab) (width 0.12))
    (fp_line (start -1.47 3.08) (end 6.55 3.08) (layer F.Fab) (width 0.12))
    (fp_line (start -1.47 -3.12) (end -1.47 3.08) (layer F.Fab) (width 0.12))
    (pad 3 thru_hole oval (at 5.08 0 180) (size 2 2.6) (drill 1.2) (layers *.Cu *.Mask)
      (net 13 "Net-(J5-Pad3)"))
    (pad 2 thru_hole oval (at 2.54 0 180) (size 2 2.6) (drill 1.2) (layers *.Cu *.Mask)
      (net 14 /NTC))
    (pad 1 thru_hole rect (at 0 0 180) (size 2 2.6) (drill 1.2) (layers *.Cu *.Mask)
      (net 15 "Net-(J5-Pad1)"))
    (model ${KISYS3DMOD}/Connectors_Molex.3dshapes/Molex_KK-6410-03_03x2.54mm_Straight.wrl
      (at (xyz 0 0 0))
      (scale (xyz 1 1 1))
      (rotate (xyz 0 0 0))
    )
  )

  (module Battery_charging_cubesat:SRN1060_inductor (layer F.Cu) (tedit 0) (tstamp 5BAFACD8)
    (at 174.5 106.43 90)
    (path /5B872E7B)
    (attr smd)
    (fp_text reference L1 (at -2.79 -6.86 180) (layer F.SilkS)
      (effects (font (size 1 1) (thickness 0.15)))
    )
    (fp_text value 20u (at 0 0 90) (layer F.Fab)
      (effects (font (size 1 1) (thickness 0.15)))
    )
    (fp_line (start -4.8 5.55) (end -5.6 4.75) (layer F.SilkS) (width 0.15))
    (fp_line (start -5.6 4.75) (end -5.6 -5.55) (layer F.SilkS) (width 0.15))
    (fp_line (start -5.6 -5.55) (end 5.6 -5.55) (layer F.SilkS) (width 0.15))
    (fp_line (start 5.6 -5.55) (end 5.6 5.55) (layer F.SilkS) (width 0.15))
    (fp_line (start 5.6 5.55) (end -4.8 5.55) (layer F.SilkS) (width 0.15))
    (fp_line (start -5.75 -5.7) (end 5.75 -5.7) (layer F.CrtYd) (width 0.05))
    (fp_line (start 5.75 -5.7) (end 5.75 5.7) (layer F.CrtYd) (width 0.05))
    (fp_line (start 5.75 5.7) (end -5.75 5.7) (layer F.CrtYd) (width 0.05))
    (fp_line (start -5.75 5.7) (end -5.75 -5.7) (layer F.CrtYd) (width 0.05))
    (pad 2 smd rect (at 0 -3.3 90) (size 10.2 3.5) (layers F.Cu F.Paste F.Mask)
      (net 16 "Net-(L1-Pad2)"))
    (pad 1 smd rect (at 0 3.3 90) (size 10.2 3.5) (layers F.Cu F.Paste F.Mask)
      (net 17 "Net-(L1-Pad1)"))
  )

  (module Battery_charging_cubesat:SOT-23_AO3407A (layer F.Cu) (tedit 5BA5B79F) (tstamp 5BAFACB6)
    (at 165.735 70.625)
    (path /5B80F7A8)
    (fp_text reference Q1 (at 0 -2.54) (layer F.SilkS)
      (effects (font (size 1 1) (thickness 0.15)))
    )
    (fp_text value Q_PMOS_DGS (at 0 -5.08) (layer F.Fab)
      (effects (font (size 1 1) (thickness 0.15)))
    )
    (fp_line (start -2.54 -1.27) (end 2.54 -1.27) (layer F.SilkS) (width 0.15))
    (fp_line (start 2.54 -1.27) (end 2.54 3.81) (layer F.SilkS) (width 0.15))
    (fp_line (start 2.54 3.81) (end -2.54 3.81) (layer F.SilkS) (width 0.15))
    (fp_line (start -2.54 3.81) (end -2.54 -1.27) (layer F.SilkS) (width 0.15))
    (pad 1 smd rect (at 0 0) (size 1 1.8) (layers F.Cu F.Paste F.Mask)
      (net 2 /DCIN))
    (pad 2 smd rect (at -0.95 2.4) (size 1 1.8) (layers F.Cu F.Paste F.Mask)
      (net 18 /INFET))
    (pad 3 smd rect (at 0.95 2.4) (size 1 1.8) (layers F.Cu F.Paste F.Mask)
      (net 19 "Net-(Q1-Pad3)"))
  )

  (module Resistors_SMD:R_0805_HandSoldering (layer F.Cu) (tedit 58E0A804) (tstamp 5BAFAC8C)
    (at 158.195 80.645)
    (descr "Resistor SMD 0805, hand soldering")
    (tags "resistor 0805")
    (path /5B836B5F)
    (attr smd)
    (fp_text reference R1 (at -3.89 0) (layer F.SilkS)
      (effects (font (size 1 1) (thickness 0.15)))
    )
    (fp_text value 5k (at 0 1.75) (layer F.Fab)
      (effects (font (size 1 1) (thickness 0.15)))
    )
    (fp_line (start 2.35 0.9) (end -2.35 0.9) (layer F.CrtYd) (width 0.05))
    (fp_line (start 2.35 0.9) (end 2.35 -0.9) (layer F.CrtYd) (width 0.05))
    (fp_line (start -2.35 -0.9) (end -2.35 0.9) (layer F.CrtYd) (width 0.05))
    (fp_line (start -2.35 -0.9) (end 2.35 -0.9) (layer F.CrtYd) (width 0.05))
    (fp_line (start -0.6 -0.88) (end 0.6 -0.88) (layer F.SilkS) (width 0.12))
    (fp_line (start 0.6 0.88) (end -0.6 0.88) (layer F.SilkS) (width 0.12))
    (fp_line (start -1 -0.62) (end 1 -0.62) (layer F.Fab) (width 0.1))
    (fp_line (start 1 -0.62) (end 1 0.62) (layer F.Fab) (width 0.1))
    (fp_line (start 1 0.62) (end -1 0.62) (layer F.Fab) (width 0.1))
    (fp_line (start -1 0.62) (end -1 -0.62) (layer F.Fab) (width 0.1))
    (fp_text user %R (at 0 0) (layer F.Fab)
      (effects (font (size 0.5 0.5) (thickness 0.075)))
    )
    (pad 2 smd rect (at 1.35 0) (size 1.5 1.3) (layers F.Cu F.Paste F.Mask)
      (net 20 "Net-(R1-Pad2)"))
    (pad 1 smd rect (at -1.35 0) (size 1.5 1.3) (layers F.Cu F.Paste F.Mask)
      (net 5 /CLP))
    (model ${KISYS3DMOD}/Resistors_SMD.3dshapes/R_0805.wrl
      (at (xyz 0 0 0))
      (scale (xyz 1 1 1))
      (rotate (xyz 0 0 0))
    )
  )

  (module Resistors_SMD:R_0805_HandSoldering (layer F.Cu) (tedit 58E0A804) (tstamp 5BAFAC5C)
    (at 147.24 72.39)
    (descr "Resistor SMD 0805, hand soldering")
    (tags "resistor 0805")
    (path /5BA976C4)
    (attr smd)
    (fp_text reference R2 (at -3.73 0) (layer F.SilkS)
      (effects (font (size 1 1) (thickness 0.15)))
    )
    (fp_text value 32.4k (at 0 -1.27) (layer F.Fab)
      (effects (font (size 1 1) (thickness 0.15)))
    )
    (fp_line (start 2.35 0.9) (end -2.35 0.9) (layer F.CrtYd) (width 0.05))
    (fp_line (start 2.35 0.9) (end 2.35 -0.9) (layer F.CrtYd) (width 0.05))
    (fp_line (start -2.35 -0.9) (end -2.35 0.9) (layer F.CrtYd) (width 0.05))
    (fp_line (start -2.35 -0.9) (end 2.35 -0.9) (layer F.CrtYd) (width 0.05))
    (fp_line (start -0.6 -0.88) (end 0.6 -0.88) (layer F.SilkS) (width 0.12))
    (fp_line (start 0.6 0.88) (end -0.6 0.88) (layer F.SilkS) (width 0.12))
    (fp_line (start -1 -0.62) (end 1 -0.62) (layer F.Fab) (width 0.1))
    (fp_line (start 1 -0.62) (end 1 0.62) (layer F.Fab) (width 0.1))
    (fp_line (start 1 0.62) (end -1 0.62) (layer F.Fab) (width 0.1))
    (fp_line (start -1 0.62) (end -1 -0.62) (layer F.Fab) (width 0.1))
    (fp_text user %R (at 0 0) (layer F.Fab)
      (effects (font (size 0.5 0.5) (thickness 0.075)))
    )
    (pad 2 smd rect (at 1.35 0) (size 1.5 1.3) (layers F.Cu F.Paste F.Mask)
      (net 13 "Net-(J5-Pad3)"))
    (pad 1 smd rect (at -1.35 0) (size 1.5 1.3) (layers F.Cu F.Paste F.Mask)
      (net 9 "Net-(C7-Pad2)"))
    (model ${KISYS3DMOD}/Resistors_SMD.3dshapes/R_0805.wrl
      (at (xyz 0 0 0))
      (scale (xyz 1 1 1))
      (rotate (xyz 0 0 0))
    )
  )

  (module Resistors_SMD:R_0805_HandSoldering (layer F.Cu) (tedit 58E0A804) (tstamp 5BAFAC2C)
    (at 144.145 93.9 90)
    (descr "Resistor SMD 0805, hand soldering")
    (tags "resistor 0805")
    (path /5B8103B0)
    (attr smd)
    (fp_text reference R3 (at 0 -1.7 90) (layer F.SilkS)
      (effects (font (size 1 1) (thickness 0.15)))
    )
    (fp_text value 100k (at 0 1.75 90) (layer F.Fab)
      (effects (font (size 1 1) (thickness 0.15)))
    )
    (fp_line (start 2.35 0.9) (end -2.35 0.9) (layer F.CrtYd) (width 0.05))
    (fp_line (start 2.35 0.9) (end 2.35 -0.9) (layer F.CrtYd) (width 0.05))
    (fp_line (start -2.35 -0.9) (end -2.35 0.9) (layer F.CrtYd) (width 0.05))
    (fp_line (start -2.35 -0.9) (end 2.35 -0.9) (layer F.CrtYd) (width 0.05))
    (fp_line (start -0.6 -0.88) (end 0.6 -0.88) (layer F.SilkS) (width 0.12))
    (fp_line (start 0.6 0.88) (end -0.6 0.88) (layer F.SilkS) (width 0.12))
    (fp_line (start -1 -0.62) (end 1 -0.62) (layer F.Fab) (width 0.1))
    (fp_line (start 1 -0.62) (end 1 0.62) (layer F.Fab) (width 0.1))
    (fp_line (start 1 0.62) (end -1 0.62) (layer F.Fab) (width 0.1))
    (fp_line (start -1 0.62) (end -1 -0.62) (layer F.Fab) (width 0.1))
    (fp_text user %R (at 0 0 90) (layer F.Fab)
      (effects (font (size 0.5 0.5) (thickness 0.075)))
    )
    (pad 2 smd rect (at 1.35 0 90) (size 1.5 1.3) (layers F.Cu F.Paste F.Mask)
      (net 11 /CHG))
    (pad 1 smd rect (at -1.35 0 90) (size 1.5 1.3) (layers F.Cu F.Paste F.Mask)
      (net 12 "Net-(J1-Pad1)"))
    (model ${KISYS3DMOD}/Resistors_SMD.3dshapes/R_0805.wrl
      (at (xyz 0 0 0))
      (scale (xyz 1 1 1))
      (rotate (xyz 0 0 0))
    )
  )

  (module Resistors_SMD:R_0805_HandSoldering (layer F.Cu) (tedit 58E0A804) (tstamp 5BAFABFC)
    (at 150.495 103.425 270)
    (descr "Resistor SMD 0805, hand soldering")
    (tags "resistor 0805")
    (path /5B81098D)
    (attr smd)
    (fp_text reference R4 (at 0 -1.7 90) (layer F.SilkS)
      (effects (font (size 1 1) (thickness 0.15)))
    )
    (fp_text value 6k (at 0 1.75 270) (layer F.Fab)
      (effects (font (size 1 1) (thickness 0.15)))
    )
    (fp_line (start 2.35 0.9) (end -2.35 0.9) (layer F.CrtYd) (width 0.05))
    (fp_line (start 2.35 0.9) (end 2.35 -0.9) (layer F.CrtYd) (width 0.05))
    (fp_line (start -2.35 -0.9) (end -2.35 0.9) (layer F.CrtYd) (width 0.05))
    (fp_line (start -2.35 -0.9) (end 2.35 -0.9) (layer F.CrtYd) (width 0.05))
    (fp_line (start -0.6 -0.88) (end 0.6 -0.88) (layer F.SilkS) (width 0.12))
    (fp_line (start 0.6 0.88) (end -0.6 0.88) (layer F.SilkS) (width 0.12))
    (fp_line (start -1 -0.62) (end 1 -0.62) (layer F.Fab) (width 0.1))
    (fp_line (start 1 -0.62) (end 1 0.62) (layer F.Fab) (width 0.1))
    (fp_line (start 1 0.62) (end -1 0.62) (layer F.Fab) (width 0.1))
    (fp_line (start -1 0.62) (end -1 -0.62) (layer F.Fab) (width 0.1))
    (fp_text user %R (at 0 0 270) (layer F.Fab)
      (effects (font (size 0.5 0.5) (thickness 0.075)))
    )
    (pad 2 smd rect (at 1.35 0 270) (size 1.5 1.3) (layers F.Cu F.Paste F.Mask)
      (net 8 "Net-(C6-Pad1)"))
    (pad 1 smd rect (at -1.35 0 270) (size 1.5 1.3) (layers F.Cu F.Paste F.Mask)
      (net 21 /I_TH))
    (model ${KISYS3DMOD}/Resistors_SMD.3dshapes/R_0805.wrl
      (at (xyz 0 0 0))
      (scale (xyz 1 1 1))
      (rotate (xyz 0 0 0))
    )
  )

  (module Battery_charging_cubesat:LVK12 (layer F.Cu) (tedit 5BA5BF4E) (tstamp 5BAFABCC)
    (at 170.115 82.02 270)
    (path /5B836CDB)
    (attr smd)
    (fp_text reference R_CL1 (at -0.105 3.11 90) (layer F.SilkS)
      (effects (font (size 1 1) (thickness 0.15)))
    )
    (fp_text value 33m (at 0 0) (layer F.Fab)
      (effects (font (size 1 1) (thickness 0.15)))
    )
    (fp_line (start -1.925 1.75) (end -2.725 0.95) (layer F.SilkS) (width 0.15))
    (fp_line (start -2.725 0.95) (end -2.725 -1.75) (layer F.SilkS) (width 0.15))
    (fp_line (start -2.725 -1.75) (end 2.725 -1.75) (layer F.SilkS) (width 0.15))
    (fp_line (start 2.725 -1.75) (end 2.725 1.75) (layer F.SilkS) (width 0.15))
    (fp_line (start 2.725 1.75) (end -1.925 1.75) (layer F.SilkS) (width 0.15))
    (fp_line (start -2.9 -1.9) (end 2.9 -1.9) (layer F.CrtYd) (width 0.05))
    (fp_line (start 2.9 -1.9) (end 2.9 1.9) (layer F.CrtYd) (width 0.05))
    (fp_line (start 2.9 1.9) (end -2.9 1.9) (layer F.CrtYd) (width 0.05))
    (fp_line (start -2.9 1.9) (end -2.9 -1.9) (layer F.CrtYd) (width 0.05))
    (pad 1 smd rect (at -1.375 -0.7 270) (size 1.7 1.1) (layers F.Cu F.Paste F.Mask)
      (net 19 "Net-(Q1-Pad3)"))
    (pad 2 smd rect (at -1.375 0.7 270) (size 1.7 1.1) (layers F.Cu F.Paste F.Mask)
      (net 20 "Net-(R1-Pad2)"))
    (pad 4 smd rect (at 1.375 -0.7 270) (size 1.7 1.1) (layers F.Cu F.Paste F.Mask)
      (net 3 /LOAD))
    (pad 3 smd rect (at 1.375 0.7 270) (size 1.7 1.1) (layers F.Cu F.Paste F.Mask)
      (net 6 /CLN))
  )

  (module Resistors_SMD:R_0805_HandSoldering (layer F.Cu) (tedit 58E0A804) (tstamp 5BAFAB9C)
    (at 154.305 71.675 270)
    (descr "Resistor SMD 0805, hand soldering")
    (tags "resistor 0805")
    (path /5B8108B0)
    (attr smd)
    (fp_text reference R_NTC1 (at -3.73 -1.27) (layer F.SilkS)
      (effects (font (size 1 1) (thickness 0.15)))
    )
    (fp_text value 301k (at 0 1.75 270) (layer F.Fab)
      (effects (font (size 1 1) (thickness 0.15)))
    )
    (fp_text user %R (at 0 0 270) (layer F.Fab)
      (effects (font (size 0.5 0.5) (thickness 0.075)))
    )
    (fp_line (start -1 0.62) (end -1 -0.62) (layer F.Fab) (width 0.1))
    (fp_line (start 1 0.62) (end -1 0.62) (layer F.Fab) (width 0.1))
    (fp_line (start 1 -0.62) (end 1 0.62) (layer F.Fab) (width 0.1))
    (fp_line (start -1 -0.62) (end 1 -0.62) (layer F.Fab) (width 0.1))
    (fp_line (start 0.6 0.88) (end -0.6 0.88) (layer F.SilkS) (width 0.12))
    (fp_line (start -0.6 -0.88) (end 0.6 -0.88) (layer F.SilkS) (width 0.12))
    (fp_line (start -2.35 -0.9) (end 2.35 -0.9) (layer F.CrtYd) (width 0.05))
    (fp_line (start -2.35 -0.9) (end -2.35 0.9) (layer F.CrtYd) (width 0.05))
    (fp_line (start 2.35 0.9) (end 2.35 -0.9) (layer F.CrtYd) (width 0.05))
    (fp_line (start 2.35 0.9) (end -2.35 0.9) (layer F.CrtYd) (width 0.05))
    (pad 1 smd rect (at -1.35 0 270) (size 1.5 1.3) (layers F.Cu F.Paste F.Mask)
      (net 2 /DCIN))
    (pad 2 smd rect (at 1.35 0 270) (size 1.5 1.3) (layers F.Cu F.Paste F.Mask)
      (net 15 "Net-(J5-Pad1)"))
    (model ${KISYS3DMOD}/Resistors_SMD.3dshapes/R_0805.wrl
      (at (xyz 0 0 0))
      (scale (xyz 1 1 1))
      (rotate (xyz 0 0 0))
    )
  )

  (module Resistors_SMD:R_0805_HandSoldering (layer F.Cu) (tedit 58E0A804) (tstamp 5BAFAB6C)
    (at 146.05 103.425 270)
    (descr "Resistor SMD 0805, hand soldering")
    (tags "resistor 0805")
    (path /5B81BA16)
    (attr smd)
    (fp_text reference R_RT1 (at 0 -1.7 270) (layer F.SilkS)
      (effects (font (size 1 1) (thickness 0.15)))
    )
    (fp_text value 385k (at 0 1.75 270) (layer F.Fab)
      (effects (font (size 1 1) (thickness 0.15)))
    )
    (fp_text user %R (at 0 0 270) (layer F.Fab)
      (effects (font (size 0.5 0.5) (thickness 0.075)))
    )
    (fp_line (start -1 0.62) (end -1 -0.62) (layer F.Fab) (width 0.1))
    (fp_line (start 1 0.62) (end -1 0.62) (layer F.Fab) (width 0.1))
    (fp_line (start 1 -0.62) (end 1 0.62) (layer F.Fab) (width 0.1))
    (fp_line (start -1 -0.62) (end 1 -0.62) (layer F.Fab) (width 0.1))
    (fp_line (start 0.6 0.88) (end -0.6 0.88) (layer F.SilkS) (width 0.12))
    (fp_line (start -0.6 -0.88) (end 0.6 -0.88) (layer F.SilkS) (width 0.12))
    (fp_line (start -2.35 -0.9) (end 2.35 -0.9) (layer F.CrtYd) (width 0.05))
    (fp_line (start -2.35 -0.9) (end -2.35 0.9) (layer F.CrtYd) (width 0.05))
    (fp_line (start 2.35 0.9) (end 2.35 -0.9) (layer F.CrtYd) (width 0.05))
    (fp_line (start 2.35 0.9) (end -2.35 0.9) (layer F.CrtYd) (width 0.05))
    (pad 1 smd rect (at -1.35 0 270) (size 1.5 1.3) (layers F.Cu F.Paste F.Mask)
      (net 22 /R_T))
    (pad 2 smd rect (at 1.35 0 270) (size 1.5 1.3) (layers F.Cu F.Paste F.Mask)
      (net 1 GND))
    (model ${KISYS3DMOD}/Resistors_SMD.3dshapes/R_0805.wrl
      (at (xyz 0 0 0))
      (scale (xyz 1 1 1))
      (rotate (xyz 0 0 0))
    )
  )

  (module Battery_charging_cubesat:LVK12 (layer F.Cu) (tedit 5BA5BF4E) (tstamp 5BAFAB3C)
    (at 161.225 104.67 270)
    (path /5B83D1BB)
    (attr smd)
    (fp_text reference R_SENSE1 (at -3.705 -0.065) (layer F.SilkS)
      (effects (font (size 1 1) (thickness 0.15)))
    )
    (fp_text value 33m (at 0 0) (layer F.Fab)
      (effects (font (size 1 1) (thickness 0.15)))
    )
    (fp_line (start -2.9 1.9) (end -2.9 -1.9) (layer F.CrtYd) (width 0.05))
    (fp_line (start 2.9 1.9) (end -2.9 1.9) (layer F.CrtYd) (width 0.05))
    (fp_line (start 2.9 -1.9) (end 2.9 1.9) (layer F.CrtYd) (width 0.05))
    (fp_line (start -2.9 -1.9) (end 2.9 -1.9) (layer F.CrtYd) (width 0.05))
    (fp_line (start 2.725 1.75) (end -1.925 1.75) (layer F.SilkS) (width 0.15))
    (fp_line (start 2.725 -1.75) (end 2.725 1.75) (layer F.SilkS) (width 0.15))
    (fp_line (start -2.725 -1.75) (end 2.725 -1.75) (layer F.SilkS) (width 0.15))
    (fp_line (start -2.725 0.95) (end -2.725 -1.75) (layer F.SilkS) (width 0.15))
    (fp_line (start -1.925 1.75) (end -2.725 0.95) (layer F.SilkS) (width 0.15))
    (pad 3 smd rect (at 1.375 0.7 270) (size 1.7 1.1) (layers F.Cu F.Paste F.Mask)
      (net 23 /BAT))
    (pad 4 smd rect (at 1.375 -0.7 270) (size 1.7 1.1) (layers F.Cu F.Paste F.Mask)
      (net 4 "Net-(C3-Pad1)"))
    (pad 2 smd rect (at -1.375 0.7 270) (size 1.7 1.1) (layers F.Cu F.Paste F.Mask)
      (net 24 /CSP))
    (pad 1 smd rect (at -1.375 -0.7 270) (size 1.7 1.1) (layers F.Cu F.Paste F.Mask)
      (net 16 "Net-(L1-Pad2)"))
  )

  (module Resistors_SMD:R_0805_HandSoldering (layer F.Cu) (tedit 58E0A804) (tstamp 5BAFAB0C)
    (at 147.24 64.85 180)
    (descr "Resistor SMD 0805, hand soldering")
    (tags "resistor 0805")
    (path /5BA708FF)
    (attr smd)
    (fp_text reference TH1 (at 4.365 0.08 180) (layer F.SilkS)
      (effects (font (size 1 1) (thickness 0.15)))
    )
    (fp_text value 10k (at 0 1.75 180) (layer F.Fab)
      (effects (font (size 1 1) (thickness 0.15)))
    )
    (fp_text user %R (at 0 0 180) (layer F.Fab)
      (effects (font (size 0.5 0.5) (thickness 0.075)))
    )
    (fp_line (start -1 0.62) (end -1 -0.62) (layer F.Fab) (width 0.1))
    (fp_line (start 1 0.62) (end -1 0.62) (layer F.Fab) (width 0.1))
    (fp_line (start 1 -0.62) (end 1 0.62) (layer F.Fab) (width 0.1))
    (fp_line (start -1 -0.62) (end 1 -0.62) (layer F.Fab) (width 0.1))
    (fp_line (start 0.6 0.88) (end -0.6 0.88) (layer F.SilkS) (width 0.12))
    (fp_line (start -0.6 -0.88) (end 0.6 -0.88) (layer F.SilkS) (width 0.12))
    (fp_line (start -2.35 -0.9) (end 2.35 -0.9) (layer F.CrtYd) (width 0.05))
    (fp_line (start -2.35 -0.9) (end -2.35 0.9) (layer F.CrtYd) (width 0.05))
    (fp_line (start 2.35 0.9) (end 2.35 -0.9) (layer F.CrtYd) (width 0.05))
    (fp_line (start 2.35 0.9) (end -2.35 0.9) (layer F.CrtYd) (width 0.05))
    (pad 1 smd rect (at -1.35 0 180) (size 1.5 1.3) (layers F.Cu F.Paste F.Mask)
      (net 1 GND))
    (pad 2 smd rect (at 1.35 0 180) (size 1.5 1.3) (layers F.Cu F.Paste F.Mask)
      (net 9 "Net-(C7-Pad2)"))
    (model ${KISYS3DMOD}/Resistors_SMD.3dshapes/R_0805.wrl
      (at (xyz 0 0 0))
      (scale (xyz 1 1 1))
      (rotate (xyz 0 0 0))
    )
  )

  (module Battery_charging_cubesat:SSOP-16_LTC4006 (layer F.Cu) (tedit 0) (tstamp 5BAFAAC4)
    (at 154.94 93.98 270)
    (path /5B9DF3E4)
    (attr smd)
    (fp_text reference U1 (at -3.8475 0) (layer F.SilkS)
      (effects (font (size 1 1) (thickness 0.15)))
    )
    (fp_text value LTC4006 (at 0 0 270) (layer F.Fab)
      (effects (font (size 1 1) (thickness 0.15)))
    )
    (fp_line (start -2.0475 5) (end -2.8475 4.2) (layer F.SilkS) (width 0.15))
    (fp_line (start -2.8475 4.2) (end -2.8475 -5) (layer F.SilkS) (width 0.15))
    (fp_line (start -2.8475 -5) (end 2.8475 -5) (layer F.SilkS) (width 0.15))
    (fp_line (start 2.8475 -5) (end 2.8475 5) (layer F.SilkS) (width 0.15))
    (fp_line (start 2.8475 5) (end -2.0475 5) (layer F.SilkS) (width 0.15))
    (fp_line (start -3 -5.15) (end 3 -5.15) (layer F.CrtYd) (width 0.05))
    (fp_line (start 3 -5.15) (end 3 5.15) (layer F.CrtYd) (width 0.05))
    (fp_line (start 3 5.15) (end -3 5.15) (layer F.CrtYd) (width 0.05))
    (fp_line (start -3 5.15) (end -3 -5.15) (layer F.CrtYd) (width 0.05))
    (pad 16 smd rect (at -2.2225 -3.5 270) (size 0.25 2) (layers F.Cu F.Paste F.Mask)
      (net 18 /INFET))
    (pad 1 smd rect (at -2.2225 3.5 270) (size 0.25 2) (layers F.Cu F.Paste F.Mask)
      (net 2 /DCIN))
    (pad 15 smd rect (at -1.5875 -3.5 270) (size 0.25 2) (layers F.Cu F.Paste F.Mask)
      (net 25 /BGATE))
    (pad 2 smd rect (at -1.5875 3.5 270) (size 0.25 2) (layers F.Cu F.Paste F.Mask)
      (net 11 /CHG))
    (pad 14 smd rect (at -0.9525 -3.5 270) (size 0.25 2) (layers F.Cu F.Paste F.Mask)
      (net 1 GND))
    (pad 3 smd rect (at -0.9525 3.5 270) (size 0.25 2) (layers F.Cu F.Paste F.Mask)
      (net 10 /ACP))
    (pad 13 smd rect (at -0.3175 -3.5 270) (size 0.25 2) (layers F.Cu F.Paste F.Mask)
      (net 26 /TGATE))
    (pad 4 smd rect (at -0.3175 3.5 270) (size 0.25 2) (layers F.Cu F.Paste F.Mask)
      (net 22 /R_T))
    (pad 12 smd rect (at 0.3175 -3.5 270) (size 0.25 2) (layers F.Cu F.Paste F.Mask)
      (net 6 /CLN))
    (pad 5 smd rect (at 0.3175 3.5 270) (size 0.25 2) (layers F.Cu F.Paste F.Mask)
      (net 1 GND))
    (pad 11 smd rect (at 0.9525 -3.5 270) (size 0.25 2) (layers F.Cu F.Paste F.Mask)
      (net 5 /CLP))
    (pad 6 smd rect (at 0.9525 3.5 270) (size 0.25 2) (layers F.Cu F.Paste F.Mask)
      (net 14 /NTC))
    (pad 10 smd rect (at 1.5875 -3.5 270) (size 0.25 2) (layers F.Cu F.Paste F.Mask)
      (net 23 /BAT))
    (pad 7 smd rect (at 1.5875 3.5 270) (size 0.25 2) (layers F.Cu F.Paste F.Mask)
      (net 21 /I_TH))
    (pad 9 smd rect (at 2.2225 -3.5 270) (size 0.25 2) (layers F.Cu F.Paste F.Mask)
      (net 24 /CSP))
    (pad 8 smd rect (at 2.2225 3.5 270) (size 0.25 2) (layers F.Cu F.Paste F.Mask)
      (net 7 /I_MON))
  )

  (module Battery_charging_cubesat:SOIC-8_AO4629 (layer F.Cu) (tedit 0) (tstamp 5BAFAA7D)
    (at 174.93 95.885 270)
    (path /5B9DA57F)
    (attr smd)
    (fp_text reference U2 (at -3.805 0) (layer F.SilkS)
      (effects (font (size 1 1) (thickness 0.15)))
    )
    (fp_text value AO4629 (at 0 0 180) (layer F.Fab)
      (effects (font (size 1 1) (thickness 0.15)))
    )
    (fp_line (start -2.95 4.85) (end -2.95 -4.85) (layer F.CrtYd) (width 0.05))
    (fp_line (start 2.95 4.85) (end -2.95 4.85) (layer F.CrtYd) (width 0.05))
    (fp_line (start 2.95 -4.85) (end 2.95 4.85) (layer F.CrtYd) (width 0.05))
    (fp_line (start -2.95 -4.85) (end 2.95 -4.85) (layer F.CrtYd) (width 0.05))
    (fp_line (start 2.805 4.72) (end -2.005 4.72) (layer F.SilkS) (width 0.15))
    (fp_line (start 2.805 -4.72) (end 2.805 4.72) (layer F.SilkS) (width 0.15))
    (fp_line (start -2.805 -4.72) (end 2.805 -4.72) (layer F.SilkS) (width 0.15))
    (fp_line (start -2.805 3.92) (end -2.805 -4.72) (layer F.SilkS) (width 0.15))
    (fp_line (start -2.005 4.72) (end -2.805 3.92) (layer F.SilkS) (width 0.15))
    (pad 4 smd rect (at 1.905 2.87 270) (size 0.8 2.7) (layers F.Cu F.Paste F.Mask)
      (net 26 /TGATE))
    (pad 5 smd rect (at 1.905 -2.87 270) (size 0.8 2.7) (layers F.Cu F.Paste F.Mask)
      (net 17 "Net-(L1-Pad1)"))
    (pad 3 smd rect (at 0.635 2.87 270) (size 0.8 2.7) (layers F.Cu F.Paste F.Mask)
      (net 3 /LOAD))
    (pad 6 smd rect (at 0.635 -2.87 270) (size 0.8 2.7) (layers F.Cu F.Paste F.Mask)
      (net 17 "Net-(L1-Pad1)"))
    (pad 2 smd rect (at -0.635 2.87 270) (size 0.8 2.7) (layers F.Cu F.Paste F.Mask)
      (net 25 /BGATE))
    (pad 7 smd rect (at -0.635 -2.87 270) (size 0.8 2.7) (layers F.Cu F.Paste F.Mask)
      (net 17 "Net-(L1-Pad1)"))
    (pad 1 smd rect (at -1.905 2.87 270) (size 0.8 2.7) (layers F.Cu F.Paste F.Mask)
      (net 1 GND))
    (pad 8 smd rect (at -1.905 -2.87 270) (size 0.8 2.7) (layers F.Cu F.Paste F.Mask)
      (net 17 "Net-(L1-Pad1)"))
  )

  (module Connectors_Terminal_Blocks:TerminalBlock_bornier-2_P5.08mm (layer F.Cu) (tedit 59FF03AB) (tstamp 5BB84F40)
    (at 178.435 70.485 90)
    (descr "simple 2-pin terminal block, pitch 5.08mm, revamped version of bornier2")
    (tags "terminal block bornier2")
    (path /5B80F18A)
    (fp_text reference J2 (at 2.54 -2.54 90) (layer F.SilkS)
      (effects (font (size 1 1) (thickness 0.15)))
    )
    (fp_text value DCIN (at 2.54 5.08 90) (layer F.Fab)
      (effects (font (size 1 1) (thickness 0.15)))
    )
    (fp_line (start 7.79 4) (end -2.71 4) (layer F.CrtYd) (width 0.05))
    (fp_line (start 7.79 4) (end 7.79 -4) (layer F.CrtYd) (width 0.05))
    (fp_line (start -2.71 -4) (end -2.71 4) (layer F.CrtYd) (width 0.05))
    (fp_line (start -2.71 -4) (end 7.79 -4) (layer F.CrtYd) (width 0.05))
    (fp_line (start -2.54 3.81) (end 7.62 3.81) (layer F.SilkS) (width 0.12))
    (fp_line (start -2.54 -3.81) (end -2.54 3.81) (layer F.SilkS) (width 0.12))
    (fp_line (start 7.62 -3.81) (end -2.54 -3.81) (layer F.SilkS) (width 0.12))
    (fp_line (start 7.62 3.81) (end 7.62 -3.81) (layer F.SilkS) (width 0.12))
    (fp_line (start 7.62 2.54) (end -2.54 2.54) (layer F.SilkS) (width 0.12))
    (fp_line (start 7.54 -3.75) (end -2.46 -3.75) (layer F.Fab) (width 0.1))
    (fp_line (start 7.54 3.75) (end 7.54 -3.75) (layer F.Fab) (width 0.1))
    (fp_line (start -2.46 3.75) (end 7.54 3.75) (layer F.Fab) (width 0.1))
    (fp_line (start -2.46 -3.75) (end -2.46 3.75) (layer F.Fab) (width 0.1))
    (fp_line (start -2.41 2.55) (end 7.49 2.55) (layer F.Fab) (width 0.1))
    (fp_text user %R (at 2.54 0 90) (layer F.Fab)
      (effects (font (size 1 1) (thickness 0.15)))
    )
    (pad 2 thru_hole circle (at 5.08 0 90) (size 3 3) (drill 1.52) (layers *.Cu *.Mask)
      (net 1 GND))
    (pad 1 thru_hole rect (at 0 0 90) (size 3 3) (drill 1.52) (layers *.Cu *.Mask)
      (net 2 /DCIN))
    (model ${KISYS3DMOD}/Terminal_Blocks.3dshapes/TerminalBlock_bornier-2_P5.08mm.wrl
      (offset (xyz 2.539999961853027 0 0))
      (scale (xyz 1 1 1))
      (rotate (xyz 0 0 0))
    )
  )

  (module Connectors_Terminal_Blocks:TerminalBlock_bornier-2_P5.08mm (layer F.Cu) (tedit 5BB84DF1) (tstamp 5BB84F54)
    (at 178.435 83.185 90)
    (descr "simple 2-pin terminal block, pitch 5.08mm, revamped version of bornier2")
    (tags "terminal block bornier2")
    (path /5B80F1FE)
    (fp_text reference J3 (at 2.54 -2.54 90) (layer F.SilkS)
      (effects (font (size 1 1) (thickness 0.15)))
    )
    (fp_text value LOAD (at 2.54 5.08 90) (layer F.Fab)
      (effects (font (size 1 1) (thickness 0.15)))
    )
    (fp_text user %R (at 2.54 0 90) (layer F.Fab)
      (effects (font (size 1 1) (thickness 0.15)))
    )
    (fp_line (start -2.41 2.55) (end 7.49 2.55) (layer F.Fab) (width 0.1))
    (fp_line (start -2.46 -3.75) (end -2.46 3.75) (layer F.Fab) (width 0.1))
    (fp_line (start -2.46 3.75) (end 7.54 3.75) (layer F.Fab) (width 0.1))
    (fp_line (start 7.54 3.75) (end 7.54 -3.75) (layer F.Fab) (width 0.1))
    (fp_line (start 7.54 -3.75) (end -2.46 -3.75) (layer F.Fab) (width 0.1))
    (fp_line (start 7.62 2.54) (end -2.54 2.54) (layer F.SilkS) (width 0.12))
    (fp_line (start 7.62 3.81) (end 7.62 -3.81) (layer F.SilkS) (width 0.12))
    (fp_line (start 7.62 -3.81) (end -2.54 -3.81) (layer F.SilkS) (width 0.12))
    (fp_line (start -2.54 -3.81) (end -2.54 3.81) (layer F.SilkS) (width 0.12))
    (fp_line (start -2.54 3.81) (end 7.62 3.81) (layer F.SilkS) (width 0.12))
    (fp_line (start -2.71 -4) (end 7.79 -4) (layer F.CrtYd) (width 0.05))
    (fp_line (start -2.71 -4) (end -2.71 4) (layer F.CrtYd) (width 0.05))
    (fp_line (start 7.79 4) (end 7.79 -4) (layer F.CrtYd) (width 0.05))
    (fp_line (start 7.79 4) (end -2.71 4) (layer F.CrtYd) (width 0.05))
    (pad 1 thru_hole rect (at 0 0 90) (size 3 3) (drill 1.52) (layers *.Cu *.Mask)
      (net 3 /LOAD))
    (pad 2 thru_hole circle (at 5.08 0 90) (size 3 3) (drill 1.52) (layers *.Cu *.Mask)
      (net 1 GND))
    (model ${KISYS3DMOD}/Terminal_Blocks.3dshapes/TerminalBlock_bornier-2_P5.08mm.wrl
      (offset (xyz 2.539999961853027 0 0))
      (scale (xyz 1 1 1))
      (rotate (xyz 0 0 0))
    )
  )

  (module Connectors_Terminal_Blocks:TerminalBlock_bornier-2_P5.08mm (layer F.Cu) (tedit 59FF03AB) (tstamp 5BB84F68)
    (at 178.435 121.92 90)
    (descr "simple 2-pin terminal block, pitch 5.08mm, revamped version of bornier2")
    (tags "terminal block bornier2")
    (path /5B80F343)
    (fp_text reference J4 (at 3.175 -1.905 90) (layer F.SilkS)
      (effects (font (size 1 1) (thickness 0.15)))
    )
    (fp_text value BAT (at 2.54 5.08 90) (layer F.Fab)
      (effects (font (size 1 1) (thickness 0.15)))
    )
    (fp_line (start 7.79 4) (end -2.71 4) (layer F.CrtYd) (width 0.05))
    (fp_line (start 7.79 4) (end 7.79 -4) (layer F.CrtYd) (width 0.05))
    (fp_line (start -2.71 -4) (end -2.71 4) (layer F.CrtYd) (width 0.05))
    (fp_line (start -2.71 -4) (end 7.79 -4) (layer F.CrtYd) (width 0.05))
    (fp_line (start -2.54 3.81) (end 7.62 3.81) (layer F.SilkS) (width 0.12))
    (fp_line (start -2.54 -3.81) (end -2.54 3.81) (layer F.SilkS) (width 0.12))
    (fp_line (start 7.62 -3.81) (end -2.54 -3.81) (layer F.SilkS) (width 0.12))
    (fp_line (start 7.62 3.81) (end 7.62 -3.81) (layer F.SilkS) (width 0.12))
    (fp_line (start 7.62 2.54) (end -2.54 2.54) (layer F.SilkS) (width 0.12))
    (fp_line (start 7.54 -3.75) (end -2.46 -3.75) (layer F.Fab) (width 0.1))
    (fp_line (start 7.54 3.75) (end 7.54 -3.75) (layer F.Fab) (width 0.1))
    (fp_line (start -2.46 3.75) (end 7.54 3.75) (layer F.Fab) (width 0.1))
    (fp_line (start -2.46 -3.75) (end -2.46 3.75) (layer F.Fab) (width 0.1))
    (fp_line (start -2.41 2.55) (end 7.49 2.55) (layer F.Fab) (width 0.1))
    (fp_text user %R (at 2.54 0 90) (layer F.Fab)
      (effects (font (size 1 1) (thickness 0.15)))
    )
    (pad 2 thru_hole circle (at 5.08 0 90) (size 3 3) (drill 1.52) (layers *.Cu *.Mask)
      (net 1 GND))
    (pad 1 thru_hole rect (at 0 0 90) (size 3 3) (drill 1.52) (layers *.Cu *.Mask)
      (net 4 "Net-(C3-Pad1)"))
    (model ${KISYS3DMOD}/Terminal_Blocks.3dshapes/TerminalBlock_bornier-2_P5.08mm.wrl
      (offset (xyz 2.539999961853027 0 0))
      (scale (xyz 1 1 1))
      (rotate (xyz 0 0 0))
    )
  )

  (gr_line (start 187.325 130.175) (end 140.97 130.175) (layer Edge.Cuts) (width 0.15))
  (gr_line (start 187.325 51.435) (end 187.325 130.175) (layer Edge.Cuts) (width 0.15))
  (gr_line (start 140.97 51.435) (end 187.325 51.435) (layer Edge.Cuts) (width 0.15))
  (gr_line (start 140.97 130.175) (end 140.97 51.435) (layer Edge.Cuts) (width 0.15))
  (gr_text "BLUEsat: Battery Charging Board\nEsther Chong 2018 (Rev. 2)\nDCIN: 6-28V" (at 142.24 57.15) (layer F.SilkS) (tstamp 5BB848BA)
    (effects (font (size 1.5 1.5) (thickness 0.3)) (justify left))
  )
  (gr_text "TEMP.\nON|OFF" (at 147.955 76.835) (layer F.SilkS)
    (effects (font (size 1.5 1.5) (thickness 0.3)))
  )
  (gr_text "V LOG\n~CHG\nACP/~SHDN\nGND\nI MON" (at 152.4 121.92) (layer F.SilkS) (tstamp 5BAFDCEF)
    (effects (font (size 1.5 1.5) (thickness 0.3)) (justify left))
  )
  (gr_text "BAT  G\n" (at 185.42 120.015 90) (layer F.SilkS)
    (effects (font (size 1.5 1.5) (thickness 0.3)))
  )
  (gr_text "LOAD G" (at 185.42 81.28 90) (layer F.SilkS)
    (effects (font (size 1.5 1.5) (thickness 0.3)))
  )
  (gr_text "DCIN G" (at 185.42 68.58 90) (layer F.SilkS) (tstamp 5BB848C0)
    (effects (font (size 1.5 1.5) (thickness 0.3)))
  )

  (via (at 158.75 88.265) (size 0.8) (drill 0.4) (layers F.Cu B.Cu) (net 1))
  (via (at 167.005 121.285) (size 0.8) (drill 0.4) (layers F.Cu B.Cu) (net 1))
  (via (at 151.765 64.77) (size 0.8) (drill 0.4) (layers F.Cu B.Cu) (net 1))
  (via (at 170.815 64.77) (size 0.8) (drill 0.4) (layers F.Cu B.Cu) (net 1) (tstamp 5BAFAA10))
  (via (at 167.005 86.995) (size 0.8) (drill 0.4) (layers F.Cu B.Cu) (net 1) (tstamp 5BAFA971))
  (via (at 173.99 91.44) (size 0.8) (drill 0.4) (layers F.Cu B.Cu) (net 1) (tstamp 5BAFA98F))
  (segment (start 166.965 86.955) (end 167.005 86.995) (width 0.25) (layer F.Cu) (net 1) (tstamp 5BAFAA37))
  (segment (start 164.465 86.955) (end 166.965 86.955) (width 0.25) (layer F.Cu) (net 1) (tstamp 5BAFAA4C))
  (segment (start 170.815 67.35) (end 170.815 64.77) (width 0.75) (layer F.Cu) (net 1) (tstamp 5BAFA9A7))
  (segment (start 172.06 93.98) (end 172.085 93.98) (width 0.75) (layer F.Cu) (net 1))
  (segment (start 172.06 93.37) (end 173.99 91.44) (width 0.75) (layer F.Cu) (net 1))
  (segment (start 172.06 93.98) (end 172.06 93.37) (width 0.75) (layer F.Cu) (net 1))
  (segment (start 148.59 96.072498) (end 148.59 113.665) (width 0.25) (layer F.Cu) (net 1))
  (segment (start 150.364998 94.2975) (end 148.59 96.072498) (width 0.25) (layer F.Cu) (net 1))
  (segment (start 147.955 124.46) (end 146.685 124.46) (width 0.25) (layer F.Cu) (net 1))
  (segment (start 151.44 94.2975) (end 150.364998 94.2975) (width 0.25) (layer F.Cu) (net 1))
  (segment (start 146.05 111.125) (end 148.59 113.665) (width 0.25) (layer F.Cu) (net 1))
  (segment (start 146.05 104.775) (end 146.05 111.125) (width 0.25) (layer F.Cu) (net 1))
  (segment (start 154.94 111.74) (end 154.94 111.865) (width 0.25) (layer F.Cu) (net 1))
  (segment (start 146.985 124.46) (end 146.685 124.46) (width 0.25) (layer F.Cu) (net 1))
  (segment (start 150.495 111.72) (end 150.495 115.57) (width 0.25) (layer F.Cu) (net 1))
  (segment (start 154.94 111.74) (end 154.94 112.74) (width 0.25) (layer F.Cu) (net 1))
  (segment (start 150.495 117.185) (end 150.495 117.475) (width 0.25) (layer F.Cu) (net 1))
  (segment (start 154.94 112.74) (end 150.495 117.185) (width 0.25) (layer F.Cu) (net 1))
  (segment (start 150.495 115.57) (end 150.495 117.475) (width 0.25) (layer F.Cu) (net 1))
  (segment (start 150.495 122.7) (end 150.495 115.57) (width 0.75) (layer F.Cu) (net 1))
  (segment (start 148.735 124.46) (end 150.495 122.7) (width 0.75) (layer F.Cu) (net 1))
  (segment (start 146.685 124.46) (end 148.735 124.46) (width 0.75) (layer F.Cu) (net 1))
  (segment (start 148.59 113.665) (end 150.495 115.57) (width 0.25) (layer F.Cu) (net 1))
  (segment (start 169.545 121.285) (end 167.005 121.285) (width 0.75) (layer F.Cu) (net 1))
  (segment (start 157.19 93.0275) (end 158.44 93.0275) (width 0.25) (layer F.Cu) (net 1))
  (segment (start 156.66001 92.49751) (end 157.19 93.0275) (width 0.25) (layer F.Cu) (net 1))
  (segment (start 156.66001 90.35499) (end 156.66001 92.49751) (width 0.25) (layer F.Cu) (net 1))
  (segment (start 158.75 88.265) (end 156.66001 90.35499) (width 0.25) (layer F.Cu) (net 1))
  (segment (start 175.26 90.17) (end 173.99 91.44) (width 0.75) (layer F.Cu) (net 1))
  (segment (start 175.26 88.9) (end 175.26 90.17) (width 0.75) (layer F.Cu) (net 1))
  (segment (start 148.59 68.42) (end 148.39 68.62) (width 0.25) (layer F.Cu) (net 1))
  (segment (start 148.59 64.85) (end 148.59 68.42) (width 0.25) (layer F.Cu) (net 1))
  (segment (start 151.685 64.85) (end 151.765 64.77) (width 0.25) (layer F.Cu) (net 1))
  (segment (start 148.59 64.85) (end 151.685 64.85) (width 0.25) (layer F.Cu) (net 1))
  (via (at 161.29 70.485) (size 0.8) (drill 0.4) (layers F.Cu B.Cu) (net 2))
  (via (at 151.765 89.535) (size 0.8) (drill 0.4) (layers F.Cu B.Cu) (net 2))
  (segment (start 151.765 91.4325) (end 151.44 91.7575) (width 0.25) (layer F.Cu) (net 2))
  (segment (start 151.765 89.535) (end 151.765 91.4325) (width 0.25) (layer F.Cu) (net 2))
  (segment (start 165.595 70.485) (end 165.735 70.625) (width 0.25) (layer F.Cu) (net 2))
  (segment (start 161.29 70.485) (end 165.595 70.485) (width 0.25) (layer F.Cu) (net 2))
  (segment (start 161.29 70.485) (end 156.845 74.93) (width 0.25) (layer B.Cu) (net 2))
  (segment (start 156.845 84.455) (end 151.765 89.535) (width 0.25) (layer B.Cu) (net 2))
  (segment (start 156.845 74.93) (end 156.845 84.455) (width 0.25) (layer B.Cu) (net 2))
  (segment (start 154.465 70.485) (end 154.305 70.325) (width 0.25) (layer F.Cu) (net 2))
  (segment (start 161.29 70.485) (end 154.465 70.485) (width 0.25) (layer F.Cu) (net 2))
  (segment (start 178.435 70.485) (end 177.535 70.485) (width 2) (layer F.Cu) (net 2) (tstamp 5BB848C3))
  (segment (start 165.735 70.625) (end 165.735 70.225) (width 1.5) (layer F.Cu) (net 2))
  (segment (start 178.295 70.625) (end 178.435 70.485) (width 2) (layer F.Cu) (net 2))
  (segment (start 165.735 70.225) (end 178.295 70.225) (width 2) (layer F.Cu) (net 2))
  (via (at 165.1 96.52) (size 0.8) (drill 0.4) (layers F.Cu B.Cu) (net 3))
  (via (at 165.1 90.805) (size 0.8) (drill 0.4) (layers F.Cu B.Cu) (net 3))
  (via (at 163.83 90.805) (size 0.8) (drill 0.4) (layers F.Cu B.Cu) (net 3))
  (via (at 163.83 96.52) (size 0.8) (drill 0.4) (layers F.Cu B.Cu) (net 3))
  (via (at 168.91 90.805) (size 0.8) (drill 0.4) (layers F.Cu B.Cu) (net 3))
  (via (at 167.64 90.805) (size 0.8) (drill 0.4) (layers F.Cu B.Cu) (net 3) (tstamp 5BAFA998))
  (via (at 167.64 96.52) (size 0.8) (drill 0.4) (layers F.Cu B.Cu) (net 3) (tstamp 5BAFA980))
  (via (at 166.37 96.52) (size 0.8) (drill 0.4) (layers F.Cu B.Cu) (net 3) (tstamp 5BAFA992))
  (via (at 166.37 90.805) (size 0.8) (drill 0.4) (layers F.Cu B.Cu) (net 3) (tstamp 5BAFAA0A))
  (segment (start 178.435 83.185) (end 177.535 83.185) (width 0.25) (layer F.Cu) (net 3) (tstamp 5BAFAA4F))
  (segment (start 178.435 82.035) (end 178.435 83.185) (width 0.25) (layer F.Cu) (net 3) (tstamp 5BAFAA16))
  (segment (start 166.37 96.52) (end 168.91 96.52) (width 0.75) (layer F.Cu) (net 3) (tstamp 5BAFA9FE))
  (segment (start 168.91 96.52) (end 172.06 96.52) (width 0.75) (layer F.Cu) (net 3) (tstamp 5BAFCB47))
  (via (at 168.91 96.52) (size 0.8) (drill 0.4) (layers F.Cu B.Cu) (net 3))
  (segment (start 166.37 96.52) (end 163.83 96.52) (width 0.75) (layer F.Cu) (net 3))
  (segment (start 163.83 90.805) (end 168.549998 90.805) (width 2) (layer F.Cu) (net 3))
  (segment (start 163.83 90.805) (end 163.83 96.52) (width 1.5) (layer B.Cu) (net 3))
  (segment (start 165.1 90.805) (end 165.1 96.52) (width 1.5) (layer B.Cu) (net 3))
  (segment (start 166.37 90.805) (end 166.37 96.52) (width 1.5) (layer B.Cu) (net 3))
  (segment (start 167.64 90.805) (end 167.64 96.52) (width 1.5) (layer B.Cu) (net 3))
  (segment (start 168.91 90.805) (end 168.91 96.52) (width 1.5) (layer B.Cu) (net 3))
  (segment (start 169.545 90.805) (end 168.91 90.805) (width 2) (layer F.Cu) (net 3))
  (segment (start 178.435 83.185) (end 177.165 83.185) (width 2) (layer F.Cu) (net 3))
  (segment (start 170.815 83.695) (end 173.48 86.36) (width 1) (layer F.Cu) (net 3))
  (segment (start 170.815 83.395) (end 170.815 83.695) (width 1) (layer F.Cu) (net 3))
  (segment (start 173.99 86.36) (end 169.545 90.805) (width 2) (layer F.Cu) (net 3))
  (segment (start 173.48 86.36) (end 173.99 86.36) (width 1) (layer F.Cu) (net 3))
  (segment (start 177.165 83.185) (end 173.99 86.36) (width 2) (layer F.Cu) (net 3))
  (segment (start 161.925 106.045) (end 161.925 108.585) (width 1) (layer F.Cu) (net 4) (tstamp 5BAFA9D7))
  (segment (start 161.925 108.585) (end 161.925 109.855) (width 2) (layer F.Cu) (net 4))
  (segment (start 173.99 121.92) (end 178.435 121.92) (width 2) (layer F.Cu) (net 4))
  (segment (start 161.925 109.855) (end 173.99 121.92) (width 2) (layer F.Cu) (net 4))
  (segment (start 156.845 84.435) (end 156.865 84.455) (width 0.25) (layer F.Cu) (net 5) (tstamp 5BAFA9EC))
  (segment (start 156.845 80.645) (end 156.845 84.435) (width 0.25) (layer F.Cu) (net 5) (tstamp 5BAFA9EF))
  (segment (start 156.865 85.33) (end 155.575 86.62) (width 0.25) (layer F.Cu) (net 5) (tstamp 5BAFA9F2))
  (segment (start 156.865 84.455) (end 156.865 85.33) (width 0.25) (layer F.Cu) (net 5) (tstamp 5BAFA9F5))
  (segment (start 157.19 94.9325) (end 158.44 94.9325) (width 0.25) (layer F.Cu) (net 5) (tstamp 5BAFAA19))
  (segment (start 155.575 93.3175) (end 157.19 94.9325) (width 0.25) (layer F.Cu) (net 5) (tstamp 5BAFA98C))
  (segment (start 155.575 86.62) (end 155.575 93.3175) (width 0.25) (layer F.Cu) (net 5) (tstamp 5BAFAA67))
  (segment (start 168.615 84.495) (end 169.415 83.695) (width 0.25) (layer F.Cu) (net 6) (tstamp 5BAFA99E))
  (segment (start 168.395 84.495) (end 168.615 84.495) (width 0.25) (layer F.Cu) (net 6) (tstamp 5BAFAA40))
  (segment (start 168.355 84.455) (end 168.395 84.495) (width 0.25) (layer F.Cu) (net 6) (tstamp 5BAFAA3D))
  (segment (start 169.415 83.695) (end 169.415 83.395) (width 0.25) (layer F.Cu) (net 6) (tstamp 5BAFAA3A))
  (segment (start 159.365 84.455) (end 168.355 84.455) (width 0.25) (layer F.Cu) (net 6) (tstamp 5BAFAA46))
  (segment (start 159.24 84.455) (end 156.21 87.485) (width 0.25) (layer F.Cu) (net 6) (tstamp 5BAFA989))
  (segment (start 159.365 84.455) (end 159.24 84.455) (width 0.25) (layer F.Cu) (net 6) (tstamp 5BAFA977))
  (segment (start 157.364998 94.2975) (end 158.44 94.2975) (width 0.25) (layer F.Cu) (net 6) (tstamp 5BAFA9A1))
  (segment (start 156.21 93.142502) (end 157.364998 94.2975) (width 0.25) (layer F.Cu) (net 6) (tstamp 5BAFA99B))
  (segment (start 156.21 87.485) (end 156.21 93.142502) (width 0.25) (layer F.Cu) (net 6) (tstamp 5BAFA9F8))
  (segment (start 151.44 96.2025) (end 151.44 99.37) (width 0.25) (layer F.Cu) (net 7))
  (segment (start 154.94 102.87) (end 154.94 109.24) (width 0.25) (layer F.Cu) (net 7))
  (segment (start 151.44 99.37) (end 154.94 102.87) (width 0.25) (layer F.Cu) (net 7))
  (segment (start 156.845 110.27) (end 155.815 109.24) (width 0.25) (layer F.Cu) (net 7))
  (segment (start 156.845 118.39) (end 156.845 110.27) (width 0.25) (layer F.Cu) (net 7))
  (segment (start 155.815 109.24) (end 154.94 109.24) (width 0.25) (layer F.Cu) (net 7))
  (segment (start 148.235 127) (end 156.845 118.39) (width 0.25) (layer F.Cu) (net 7))
  (segment (start 146.685 127) (end 148.235 127) (width 0.25) (layer F.Cu) (net 7))
  (segment (start 150.495 104.775) (end 150.495 109.22) (width 0.25) (layer F.Cu) (net 8))
  (segment (start 145.89 72.39) (end 145.89 68.62) (width 0.25) (layer F.Cu) (net 9))
  (segment (start 145.89 64.85) (end 145.89 68.62) (width 0.25) (layer F.Cu) (net 9))
  (via (at 146.685 93.345) (size 0.8) (drill 0.4) (layers F.Cu B.Cu) (net 10))
  (segment (start 147.0025 93.0275) (end 146.685 93.345) (width 0.25) (layer F.Cu) (net 10))
  (segment (start 151.44 93.0275) (end 147.0025 93.0275) (width 0.25) (layer F.Cu) (net 10))
  (segment (start 146.385 121.92) (end 146.685 121.92) (width 0.25) (layer B.Cu) (net 10) (tstamp 5BAFCC91))
  (segment (start 144.78 121.92) (end 146.685 121.92) (width 0.25) (layer B.Cu) (net 10))
  (segment (start 142.875 95.885) (end 142.875 120.015) (width 0.25) (layer B.Cu) (net 10))
  (segment (start 145.415 93.345) (end 142.875 95.885) (width 0.25) (layer B.Cu) (net 10))
  (segment (start 142.875 120.015) (end 144.78 121.92) (width 0.25) (layer B.Cu) (net 10))
  (segment (start 146.685 93.345) (end 145.415 93.345) (width 0.25) (layer B.Cu) (net 10))
  (segment (start 144.3025 92.3925) (end 144.145 92.55) (width 0.25) (layer F.Cu) (net 11))
  (segment (start 151.44 92.3925) (end 144.3025 92.3925) (width 0.25) (layer F.Cu) (net 11))
  (segment (start 146.685 119.38) (end 146.385 119.38) (width 0.25) (layer F.Cu) (net 11) (tstamp 5BAFCBFB))
  (segment (start 144.145 92.65) (end 144.145 92.55) (width 0.25) (layer F.Cu) (net 11))
  (segment (start 142.24 94.555) (end 144.145 92.65) (width 0.25) (layer F.Cu) (net 11))
  (segment (start 142.24 116.485) (end 142.24 114.935) (width 0.25) (layer F.Cu) (net 11) (tstamp 5BAFCBF5))
  (segment (start 142.24 115.235) (end 142.24 114.935) (width 0.25) (layer F.Cu) (net 11) (tstamp 5BAFCBE0))
  (segment (start 145.135 119.38) (end 146.685 119.38) (width 0.25) (layer F.Cu) (net 11))
  (segment (start 142.24 116.485) (end 145.135 119.38) (width 0.25) (layer F.Cu) (net 11))
  (segment (start 142.24 94.555) (end 142.24 116.485) (width 0.25) (layer F.Cu) (net 11))
  (segment (start 146.385 116.84) (end 146.685 116.84) (width 0.25) (layer F.Cu) (net 12))
  (segment (start 144.145 114.6) (end 146.385 116.84) (width 0.25) (layer F.Cu) (net 12))
  (segment (start 144.145 95.25) (end 144.145 114.6) (width 0.25) (layer F.Cu) (net 12))
  (segment (start 145.415 83.185) (end 145.415 77.47) (width 0.25) (layer F.Cu) (net 13))
  (segment (start 148.59 74.295) (end 148.59 72.39) (width 0.25) (layer F.Cu) (net 13))
  (segment (start 145.415 77.47) (end 148.59 74.295) (width 0.25) (layer F.Cu) (net 13))
  (segment (start 147.955 83.185) (end 147.955 83.485) (width 0.25) (layer F.Cu) (net 14))
  (segment (start 147.955 83.485) (end 147.955 83.82) (width 0.25) (layer F.Cu) (net 14))
  (segment (start 152.69 94.9325) (end 151.44 94.9325) (width 0.25) (layer F.Cu) (net 14))
  (segment (start 153.6425 89.5075) (end 153.6425 93.98) (width 0.25) (layer F.Cu) (net 14))
  (segment (start 151.13 86.995) (end 153.6425 89.5075) (width 0.25) (layer F.Cu) (net 14))
  (segment (start 150.215 86.995) (end 151.13 86.995) (width 0.25) (layer F.Cu) (net 14))
  (segment (start 147.955 84.735) (end 150.215 86.995) (width 0.25) (layer F.Cu) (net 14))
  (segment (start 153.6425 93.98) (end 152.69 94.9325) (width 0.25) (layer F.Cu) (net 14))
  (segment (start 147.955 83.185) (end 147.955 84.735) (width 0.25) (layer F.Cu) (net 14))
  (segment (start 151.745 83.185) (end 150.495 83.185) (width 0.25) (layer F.Cu) (net 15))
  (segment (start 154.305 80.625) (end 151.745 83.185) (width 0.25) (layer F.Cu) (net 15))
  (segment (start 154.305 73.025) (end 154.305 80.625) (width 0.25) (layer F.Cu) (net 15))
  (segment (start 171.2 107.315) (end 171.2 106.43) (width 2) (layer F.Cu) (net 16) (tstamp 5BAFAA25))
  (segment (start 161.925 103.295) (end 162.56 103.295) (width 1) (layer F.Cu) (net 16))
  (segment (start 171.2 105.795) (end 171.2 106.43) (width 2) (layer F.Cu) (net 16))
  (segment (start 168.7 103.295) (end 171.2 105.795) (width 2) (layer F.Cu) (net 16))
  (segment (start 162.56 103.295) (end 168.7 103.295) (width 2) (layer F.Cu) (net 16))
  (segment (start 177.8 93.98) (end 177.8 106.43) (width 1.5) (layer F.Cu) (net 17))
  (via (at 161.29 73.025) (size 0.8) (drill 0.4) (layers F.Cu B.Cu) (net 18) (tstamp 5BAFAA58))
  (segment (start 161.29 73.025) (end 164.785 73.025) (width 0.25) (layer F.Cu) (net 18) (tstamp 5BAFAA1F))
  (via (at 161.29 88.265) (size 0.8) (drill 0.4) (layers F.Cu B.Cu) (net 18))
  (segment (start 158.44 91.115) (end 161.29 88.265) (width 0.25) (layer F.Cu) (net 18))
  (segment (start 158.44 91.7575) (end 158.44 91.115) (width 0.25) (layer F.Cu) (net 18))
  (segment (start 161.29 73.025) (end 161.29 88.265) (width 0.25) (layer B.Cu) (net 18))
  (segment (start 170.815 78.105) (end 170.815 80.645) (width 1) (layer F.Cu) (net 19) (tstamp 5BAFA9E0))
  (segment (start 167.64 74.93) (end 170.815 78.105) (width 2) (layer F.Cu) (net 19) (tstamp 5BAFA9D1))
  (segment (start 166.685 73.34) (end 167.64 74.295) (width 1.5) (layer F.Cu) (net 19) (tstamp 5BAFA9B3))
  (segment (start 168.615 80.645) (end 169.415 80.645) (width 0.25) (layer F.Cu) (net 20) (tstamp 5BAFAA5B))
  (segment (start 169.415 80.645) (end 159.545 80.645) (width 0.25) (layer F.Cu) (net 20) (tstamp 5BAFB061))
  (segment (start 149.595 101.075) (end 150.495 101.975) (width 0.25) (layer F.Cu) (net 21))
  (segment (start 150.495 101.975) (end 150.495 102.075) (width 0.25) (layer F.Cu) (net 21))
  (segment (start 149.595 96.1625) (end 149.595 101.075) (width 0.25) (layer F.Cu) (net 21))
  (segment (start 150.19 95.5675) (end 149.595 96.1625) (width 0.25) (layer F.Cu) (net 21))
  (segment (start 151.44 95.5675) (end 150.19 95.5675) (width 0.25) (layer F.Cu) (net 21))
  (segment (start 146.05 101.075) (end 146.05 102.075) (width 0.25) (layer F.Cu) (net 22))
  (segment (start 146.05 97.8025) (end 146.05 101.075) (width 0.25) (layer F.Cu) (net 22))
  (segment (start 150.19 93.6625) (end 146.05 97.8025) (width 0.25) (layer F.Cu) (net 22))
  (segment (start 151.44 93.6625) (end 150.19 93.6625) (width 0.25) (layer F.Cu) (net 22))
  (segment (start 160.525 105.745) (end 155.575 100.795) (width 0.25) (layer F.Cu) (net 23) (tstamp 5BAFA9C5))
  (segment (start 160.525 106.045) (end 160.525 105.745) (width 0.25) (layer F.Cu) (net 23) (tstamp 5BAFA9E6))
  (segment (start 157.19 95.5675) (end 158.44 95.5675) (width 0.25) (layer F.Cu) (net 23) (tstamp 5BAFA9E3))
  (segment (start 155.575 97.155) (end 157.1625 95.5675) (width 0.25) (layer F.Cu) (net 23) (tstamp 5BAFAA1C))
  (segment (start 157.1625 95.5675) (end 157.19 95.5675) (width 0.25) (layer F.Cu) (net 23) (tstamp 5BAFA9C2))
  (segment (start 155.575 100.795) (end 155.575 97.155) (width 0.25) (layer F.Cu) (net 23) (tstamp 5BAFA9BF))
  (segment (start 158.71141 103.295) (end 160.525 103.295) (width 0.25) (layer F.Cu) (net 24))
  (segment (start 156.21 100.79359) (end 158.71141 103.295) (width 0.25) (layer F.Cu) (net 24))
  (segment (start 157.565 96.2025) (end 156.21 97.5575) (width 0.25) (layer F.Cu) (net 24))
  (segment (start 156.21 97.5575) (end 156.21 100.79359) (width 0.25) (layer F.Cu) (net 24))
  (segment (start 158.44 96.2025) (end 157.565 96.2025) (width 0.25) (layer F.Cu) (net 24))
  (segment (start 162.372502 95.25) (end 159.515002 92.3925) (width 0.25) (layer F.Cu) (net 25) (tstamp 5BAFAA2B))
  (segment (start 159.515002 92.3925) (end 158.44 92.3925) (width 0.25) (layer F.Cu) (net 25) (tstamp 5BAFA96E))
  (segment (start 172.06 95.25) (end 162.372502 95.25) (width 0.25) (layer F.Cu) (net 25) (tstamp 5BAFAA01))
  (segment (start 159.515002 93.6625) (end 158.44 93.6625) (width 0.25) (layer F.Cu) (net 26) (tstamp 5BAFAA5E))
  (segment (start 163.642502 97.79) (end 159.515002 93.6625) (width 0.25) (layer F.Cu) (net 26) (tstamp 5BAFA995))
  (segment (start 172.06 97.79) (end 163.642502 97.79) (width 0.25) (layer F.Cu) (net 26) (tstamp 5BAFAA0D))

  (zone (net 1) (net_name GND) (layer B.Cu) (tstamp 5BB855B6) (hatch edge 0.508)
    (connect_pads (clearance 0.508))
    (min_thickness 0.254)
    (fill yes (arc_segments 16) (thermal_gap 0.508) (thermal_bridge_width 0.508))
    (polygon
      (pts
        (xy 144.145 128.905) (xy 181.61 128.905) (xy 181.61 113.03) (xy 158.115 113.03) (xy 158.115 99.695)
        (xy 181.61 99.695) (xy 181.61 62.23) (xy 144.145 62.23)
      )
    )
    (filled_polygon
      (pts
        (xy 181.483 99.568) (xy 158.115 99.568) (xy 158.066399 99.577667) (xy 158.025197 99.605197) (xy 157.997667 99.646399)
        (xy 157.988 99.695) (xy 157.988 113.03) (xy 157.997667 113.078601) (xy 158.025197 113.119803) (xy 158.066399 113.147333)
        (xy 158.115 113.157) (xy 181.483 113.157) (xy 181.483 128.778) (xy 144.272 128.778) (xy 144.272 127)
        (xy 144.717969 127) (xy 144.844864 127.637945) (xy 145.206231 128.178769) (xy 145.747055 128.540136) (xy 146.223969 128.635)
        (xy 147.146031 128.635) (xy 147.622945 128.540136) (xy 148.163769 128.178769) (xy 148.525136 127.637945) (xy 148.652031 127)
        (xy 148.525136 126.362055) (xy 148.163769 125.821231) (xy 147.997371 125.710048) (xy 148.230922 125.526317) (xy 148.544144 124.968355)
        (xy 148.575124 124.840434) (xy 148.455777 124.587) (xy 146.812 124.587) (xy 146.812 124.607) (xy 146.558 124.607)
        (xy 146.558 124.587) (xy 144.914223 124.587) (xy 144.794876 124.840434) (xy 144.825856 124.968355) (xy 145.139078 125.526317)
        (xy 145.372629 125.710048) (xy 145.206231 125.821231) (xy 144.844864 126.362055) (xy 144.717969 127) (xy 144.272 127)
        (xy 144.272 122.494609) (xy 144.295527 122.510329) (xy 144.483462 122.635904) (xy 144.531605 122.64548) (xy 144.705148 122.68)
        (xy 144.705152 122.68) (xy 144.78 122.694888) (xy 144.854848 122.68) (xy 144.926419 122.68) (xy 145.206231 123.098769)
        (xy 145.372629 123.209952) (xy 145.139078 123.393683) (xy 144.825856 123.951645) (xy 144.794876 124.079566) (xy 144.914223 124.333)
        (xy 146.558 124.333) (xy 146.558 124.313) (xy 146.812 124.313) (xy 146.812 124.333) (xy 148.455777 124.333)
        (xy 148.575124 124.079566) (xy 148.544144 123.951645) (xy 148.230922 123.393683) (xy 147.997371 123.209952) (xy 148.163769 123.098769)
        (xy 148.525136 122.557945) (xy 148.652031 121.92) (xy 148.525136 121.282055) (xy 148.163769 120.741231) (xy 148.027232 120.65)
        (xy 148.163769 120.558769) (xy 148.256491 120.42) (xy 176.28756 120.42) (xy 176.28756 123.42) (xy 176.336843 123.667765)
        (xy 176.477191 123.877809) (xy 176.687235 124.018157) (xy 176.935 124.06744) (xy 179.935 124.06744) (xy 180.182765 124.018157)
        (xy 180.392809 123.877809) (xy 180.533157 123.667765) (xy 180.58244 123.42) (xy 180.58244 120.42) (xy 180.533157 120.172235)
        (xy 180.392809 119.962191) (xy 180.182765 119.821843) (xy 179.935 119.77256) (xy 176.935 119.77256) (xy 176.687235 119.821843)
        (xy 176.477191 119.962191) (xy 176.336843 120.172235) (xy 176.28756 120.42) (xy 148.256491 120.42) (xy 148.525136 120.017945)
        (xy 148.652031 119.38) (xy 148.525136 118.742055) (xy 148.294511 118.3969) (xy 148.358759 118.35397) (xy 177.100635 118.35397)
        (xy 177.260418 118.672739) (xy 178.051187 118.982723) (xy 178.900387 118.966497) (xy 179.609582 118.672739) (xy 179.769365 118.35397)
        (xy 178.435 117.019605) (xy 177.100635 118.35397) (xy 148.358759 118.35397) (xy 148.442809 118.297809) (xy 148.583157 118.087765)
        (xy 148.63244 117.84) (xy 148.63244 116.456187) (xy 176.292277 116.456187) (xy 176.308503 117.305387) (xy 176.602261 118.014582)
        (xy 176.92103 118.174365) (xy 178.255395 116.84) (xy 178.614605 116.84) (xy 179.94897 118.174365) (xy 180.267739 118.014582)
        (xy 180.577723 117.223813) (xy 180.561497 116.374613) (xy 180.267739 115.665418) (xy 179.94897 115.505635) (xy 178.614605 116.84)
        (xy 178.255395 116.84) (xy 176.92103 115.505635) (xy 176.602261 115.665418) (xy 176.292277 116.456187) (xy 148.63244 116.456187)
        (xy 148.63244 115.84) (xy 148.583157 115.592235) (xy 148.442809 115.382191) (xy 148.358759 115.32603) (xy 177.100635 115.32603)
        (xy 178.435 116.660395) (xy 179.769365 115.32603) (xy 179.609582 115.007261) (xy 178.818813 114.697277) (xy 177.969613 114.713503)
        (xy 177.260418 115.007261) (xy 177.100635 115.32603) (xy 148.358759 115.32603) (xy 148.232765 115.241843) (xy 147.985 115.19256)
        (xy 145.385 115.19256) (xy 145.137235 115.241843) (xy 144.927191 115.382191) (xy 144.786843 115.592235) (xy 144.73756 115.84)
        (xy 144.73756 117.84) (xy 144.786843 118.087765) (xy 144.927191 118.297809) (xy 145.075489 118.3969) (xy 144.844864 118.742055)
        (xy 144.717969 119.38) (xy 144.844864 120.017945) (xy 145.206231 120.558769) (xy 145.342768 120.65) (xy 145.206231 120.741231)
        (xy 144.993863 121.059062) (xy 144.272 120.337199) (xy 144.272 95.562802) (xy 145.729803 94.105) (xy 145.981289 94.105)
        (xy 146.09872 94.222431) (xy 146.479126 94.38) (xy 146.890874 94.38) (xy 147.27128 94.222431) (xy 147.562431 93.93128)
        (xy 147.72 93.550874) (xy 147.72 93.139126) (xy 147.562431 92.75872) (xy 147.27128 92.467569) (xy 146.890874 92.31)
        (xy 146.479126 92.31) (xy 146.09872 92.467569) (xy 145.981289 92.585) (xy 145.489846 92.585) (xy 145.414999 92.570112)
        (xy 145.340152 92.585) (xy 145.340148 92.585) (xy 145.118463 92.629096) (xy 145.118461 92.629097) (xy 145.118462 92.629097)
        (xy 144.930526 92.754671) (xy 144.930524 92.754673) (xy 144.867071 92.797071) (xy 144.824673 92.860524) (xy 144.272 93.413197)
        (xy 144.272 90.668594) (xy 162.445 90.668594) (xy 162.445001 96.656407) (xy 162.52536 97.0604) (xy 162.831472 97.518529)
        (xy 163.289601 97.824641) (xy 163.83 97.932133) (xy 164.3704 97.824641) (xy 164.465 97.761431) (xy 164.559601 97.824641)
        (xy 165.1 97.932133) (xy 165.6404 97.824641) (xy 165.735 97.761431) (xy 165.829601 97.824641) (xy 166.37 97.932133)
        (xy 166.9104 97.824641) (xy 167.005 97.761431) (xy 167.099601 97.824641) (xy 167.64 97.932133) (xy 168.1804 97.824641)
        (xy 168.275 97.761431) (xy 168.369601 97.824641) (xy 168.91 97.932133) (xy 169.4504 97.824641) (xy 169.908529 97.518529)
        (xy 170.214641 97.0604) (xy 170.295 96.656407) (xy 170.295 90.668593) (xy 170.214641 90.2646) (xy 169.908528 89.806471)
        (xy 169.450399 89.500359) (xy 168.91 89.392867) (xy 168.3696 89.500359) (xy 168.275 89.563569) (xy 168.180399 89.500359)
        (xy 167.64 89.392867) (xy 167.0996 89.500359) (xy 167.005 89.563569) (xy 166.910399 89.500359) (xy 166.37 89.392867)
        (xy 165.8296 89.500359) (xy 165.735 89.563569) (xy 165.640399 89.500359) (xy 165.1 89.392867) (xy 164.5596 89.500359)
        (xy 164.465 89.563569) (xy 164.370399 89.500359) (xy 163.83 89.392867) (xy 163.2896 89.500359) (xy 162.831471 89.806472)
        (xy 162.525359 90.264601) (xy 162.445 90.668594) (xy 144.272 90.668594) (xy 144.272 89.329126) (xy 150.73 89.329126)
        (xy 150.73 89.740874) (xy 150.887569 90.12128) (xy 151.17872 90.412431) (xy 151.559126 90.57) (xy 151.970874 90.57)
        (xy 152.35128 90.412431) (xy 152.642431 90.12128) (xy 152.8 89.740874) (xy 152.8 89.574801) (xy 157.329473 85.045329)
        (xy 157.392929 85.002929) (xy 157.560904 84.751537) (xy 157.605 84.529852) (xy 157.605 84.529847) (xy 157.619888 84.455)
        (xy 157.605 84.380153) (xy 157.605 75.244801) (xy 160.030675 72.819126) (xy 160.255 72.819126) (xy 160.255 73.230874)
        (xy 160.412569 73.61128) (xy 160.53 73.728711) (xy 160.530001 87.561288) (xy 160.412569 87.67872) (xy 160.255 88.059126)
        (xy 160.255 88.470874) (xy 160.412569 88.85128) (xy 160.70372 89.142431) (xy 161.084126 89.3) (xy 161.495874 89.3)
        (xy 161.87628 89.142431) (xy 162.167431 88.85128) (xy 162.325 88.470874) (xy 162.325 88.059126) (xy 162.167431 87.67872)
        (xy 162.05 87.561289) (xy 162.05 81.685) (xy 176.28756 81.685) (xy 176.28756 84.685) (xy 176.336843 84.932765)
        (xy 176.477191 85.142809) (xy 176.687235 85.283157) (xy 176.935 85.33244) (xy 179.935 85.33244) (xy 180.182765 85.283157)
        (xy 180.392809 85.142809) (xy 180.533157 84.932765) (xy 180.58244 84.685) (xy 180.58244 81.685) (xy 180.533157 81.437235)
        (xy 180.392809 81.227191) (xy 180.182765 81.086843) (xy 179.935 81.03756) (xy 176.935 81.03756) (xy 176.687235 81.086843)
        (xy 176.477191 81.227191) (xy 176.336843 81.437235) (xy 176.28756 81.685) (xy 162.05 81.685) (xy 162.05 79.61897)
        (xy 177.100635 79.61897) (xy 177.260418 79.937739) (xy 178.051187 80.247723) (xy 178.900387 80.231497) (xy 179.609582 79.937739)
        (xy 179.769365 79.61897) (xy 178.435 78.284605) (xy 177.100635 79.61897) (xy 162.05 79.61897) (xy 162.05 77.721187)
        (xy 176.292277 77.721187) (xy 176.308503 78.570387) (xy 176.602261 79.279582) (xy 176.92103 79.439365) (xy 178.255395 78.105)
        (xy 178.614605 78.105) (xy 179.94897 79.439365) (xy 180.267739 79.279582) (xy 180.577723 78.488813) (xy 180.561497 77.639613)
        (xy 180.267739 76.930418) (xy 179.94897 76.770635) (xy 178.614605 78.105) (xy 178.255395 78.105) (xy 176.92103 76.770635)
        (xy 176.602261 76.930418) (xy 176.292277 77.721187) (xy 162.05 77.721187) (xy 162.05 76.59103) (xy 177.100635 76.59103)
        (xy 178.435 77.925395) (xy 179.769365 76.59103) (xy 179.609582 76.272261) (xy 178.818813 75.962277) (xy 177.969613 75.978503)
        (xy 177.260418 76.272261) (xy 177.100635 76.59103) (xy 162.05 76.59103) (xy 162.05 73.728711) (xy 162.167431 73.61128)
        (xy 162.325 73.230874) (xy 162.325 72.819126) (xy 162.167431 72.43872) (xy 161.87628 72.147569) (xy 161.495874 71.99)
        (xy 161.084126 71.99) (xy 160.70372 72.147569) (xy 160.412569 72.43872) (xy 160.255 72.819126) (xy 160.030675 72.819126)
        (xy 161.329802 71.52) (xy 161.495874 71.52) (xy 161.87628 71.362431) (xy 162.167431 71.07128) (xy 162.325 70.690874)
        (xy 162.325 70.279126) (xy 162.167431 69.89872) (xy 161.87628 69.607569) (xy 161.495874 69.45) (xy 161.084126 69.45)
        (xy 160.70372 69.607569) (xy 160.412569 69.89872) (xy 160.255 70.279126) (xy 160.255 70.445198) (xy 156.36053 74.339669)
        (xy 156.297071 74.382071) (xy 156.129096 74.633464) (xy 156.085 74.855149) (xy 156.085 74.855153) (xy 156.070112 74.93)
        (xy 156.085 75.004847) (xy 156.085001 84.140197) (xy 151.725199 88.5) (xy 151.559126 88.5) (xy 151.17872 88.657569)
        (xy 150.887569 88.94872) (xy 150.73 89.329126) (xy 144.272 89.329126) (xy 144.272 84.687669) (xy 144.777055 85.025136)
        (xy 145.415 85.152031) (xy 146.052944 85.025136) (xy 146.593769 84.663769) (xy 146.685 84.527232) (xy 146.776231 84.663769)
        (xy 147.317055 85.025136) (xy 147.955 85.152031) (xy 148.592944 85.025136) (xy 148.9381 84.79451) (xy 149.037191 84.942809)
        (xy 149.247235 85.083157) (xy 149.495 85.13244) (xy 151.495 85.13244) (xy 151.742765 85.083157) (xy 151.952809 84.942809)
        (xy 152.093157 84.732765) (xy 152.14244 84.485) (xy 152.14244 81.885) (xy 152.093157 81.637235) (xy 151.952809 81.427191)
        (xy 151.742765 81.286843) (xy 151.495 81.23756) (xy 149.495 81.23756) (xy 149.247235 81.286843) (xy 149.037191 81.427191)
        (xy 148.9381 81.575489) (xy 148.592945 81.344864) (xy 147.955 81.217969) (xy 147.317056 81.344864) (xy 146.776231 81.706231)
        (xy 146.685 81.842768) (xy 146.593769 81.706231) (xy 146.052945 81.344864) (xy 145.415 81.217969) (xy 144.777056 81.344864)
        (xy 144.272 81.682331) (xy 144.272 68.985) (xy 176.28756 68.985) (xy 176.28756 71.985) (xy 176.336843 72.232765)
        (xy 176.477191 72.442809) (xy 176.687235 72.583157) (xy 176.935 72.63244) (xy 179.935 72.63244) (xy 180.182765 72.583157)
        (xy 180.392809 72.442809) (xy 180.533157 72.232765) (xy 180.58244 71.985) (xy 180.58244 68.985) (xy 180.533157 68.737235)
        (xy 180.392809 68.527191) (xy 180.182765 68.386843) (xy 179.935 68.33756) (xy 176.935 68.33756) (xy 176.687235 68.386843)
        (xy 176.477191 68.527191) (xy 176.336843 68.737235) (xy 176.28756 68.985) (xy 144.272 68.985) (xy 144.272 66.91897)
        (xy 177.100635 66.91897) (xy 177.260418 67.237739) (xy 178.051187 67.547723) (xy 178.900387 67.531497) (xy 179.609582 67.237739)
        (xy 179.769365 66.91897) (xy 178.435 65.584605) (xy 177.100635 66.91897) (xy 144.272 66.91897) (xy 144.272 65.021187)
        (xy 176.292277 65.021187) (xy 176.308503 65.870387) (xy 176.602261 66.579582) (xy 176.92103 66.739365) (xy 178.255395 65.405)
        (xy 178.614605 65.405) (xy 179.94897 66.739365) (xy 180.267739 66.579582) (xy 180.577723 65.788813) (xy 180.561497 64.939613)
        (xy 180.267739 64.230418) (xy 179.94897 64.070635) (xy 178.614605 65.405) (xy 178.255395 65.405) (xy 176.92103 64.070635)
        (xy 176.602261 64.230418) (xy 176.292277 65.021187) (xy 144.272 65.021187) (xy 144.272 63.89103) (xy 177.100635 63.89103)
        (xy 178.435 65.225395) (xy 179.769365 63.89103) (xy 179.609582 63.572261) (xy 178.818813 63.262277) (xy 177.969613 63.278503)
        (xy 177.260418 63.572261) (xy 177.100635 63.89103) (xy 144.272 63.89103) (xy 144.272 62.357) (xy 181.483 62.357)
      )
    )
  )
)
