EESchema Schematic File Version 4
LIBS:bat_charging_board-cache
EELAYER 26 0
EELAYER END
$Descr A4 11693 8268
encoding utf-8
Sheet 1 1
Title "Battery Charging Board with LTC4006"
Date ""
Rev "2"
Comp "BLUEsat"
Comment1 ""
Comment2 ""
Comment3 ""
Comment4 ""
$EndDescr
$Comp
L Connector:Screw_Terminal_01x02 J2
U 1 1 5B80F18A
P 4000 2400
F 0 "J2" H 3920 2617 50  0000 C CNN
F 1 "DCIN" H 3920 2526 50  0000 C CNN
F 2 "Connectors_Terminal_Blocks:TerminalBlock_bornier-2_P5.08mm" H 4000 2400 50  0001 C CNN
F 3 "~" H 4000 2400 50  0001 C CNN
	1    4000 2400
	-1   0    0    -1  
$EndComp
$Comp
L Connector:Screw_Terminal_01x02 J3
U 1 1 5B80F1FE
P 9250 2400
F 0 "J3" H 9329 2392 50  0000 L CNN
F 1 "LOAD" H 9329 2301 50  0000 L CNN
F 2 "Connectors_Terminal_Blocks:TerminalBlock_bornier-2_P5.08mm" H 9250 2400 50  0001 C CNN
F 3 "~" H 9250 2400 50  0001 C CNN
	1    9250 2400
	1    0    0    -1  
$EndComp
$Comp
L Connector:Screw_Terminal_01x02 J4
U 1 1 5B80F343
P 8200 4850
F 0 "J4" H 8280 4842 50  0000 L CNN
F 1 "BAT" H 8280 4751 50  0000 L CNN
F 2 "Connectors_Terminal_Blocks:TerminalBlock_bornier-2_P5.08mm" H 8200 4850 50  0001 C CNN
F 3 "~" H 8200 4850 50  0001 C CNN
	1    8200 4850
	1    0    0    -1  
$EndComp
$Comp
L Device:Q_PMOS_DGS Q1
U 1 1 5B80F7A8
P 5900 2500
F 0 "Q1" V 6243 2500 50  0000 C CNN
F 1 "Q_PMOS_DGS" V 6152 2500 50  0000 C CNN
F 2 "Battery_charging_cubesat:SOT-23_AO3407A" H 6100 2600 50  0001 C CNN
F 3 "~" H 5900 2500 50  0001 C CNN
	1    5900 2500
	0    -1   -1   0   
$EndComp
$Comp
L Device:C C1
U 1 1 5B80F9B8
P 4700 2550
F 0 "C1" H 4815 2596 50  0000 L CNN
F 1 "0.1u" H 4815 2505 50  0000 L CNN
F 2 "Capacitors_SMD:C_0805_HandSoldering" H 4738 2400 50  0001 C CNN
F 3 "~" H 4700 2550 50  0001 C CNN
	1    4700 2550
	1    0    0    -1  
$EndComp
$Comp
L power:GND #PWR0101
U 1 1 5B80FD8D
P 4200 2500
F 0 "#PWR0101" H 4200 2250 50  0001 C CNN
F 1 "GND" H 4205 2327 50  0000 C CNN
F 2 "" H 4200 2500 50  0001 C CNN
F 3 "" H 4200 2500 50  0001 C CNN
	1    4200 2500
	1    0    0    -1  
$EndComp
Wire Wire Line
	4200 2400 4700 2400
Connection ~ 4700 2400
Wire Wire Line
	4700 2400 5700 2400
Text Label 4200 2400 0    50   ~ 0
DCIN
Text Label 4550 3400 0    50   ~ 0
DCIN
Wire Wire Line
	4800 3400 4550 3400
$Comp
L Device:R R3
U 1 1 5B8103B0
P 2800 2100
F 0 "R3" H 2650 2150 50  0000 C CNN
F 1 "100k" H 2650 2050 50  0000 C CNN
F 2 "Resistors_SMD:R_0805_HandSoldering" V 2730 2100 50  0001 C CNN
F 3 "~" H 2800 2100 50  0001 C CNN
	1    2800 2100
	-1   0    0    1   
$EndComp
$Comp
L Device:R R_NTC1
U 1 1 5B8108B0
P 2900 5750
F 0 "R_NTC1" V 2693 5750 50  0000 C CNN
F 1 "301k" V 2784 5750 50  0000 C CNN
F 2 "Resistors_SMD:R_0805_HandSoldering" V 2830 5750 50  0001 C CNN
F 3 "~" H 2900 5750 50  0001 C CNN
	1    2900 5750
	0    1    1    0   
$EndComp
$Comp
L Device:R R4
U 1 1 5B81098D
P 2600 4150
F 0 "R4" V 2800 4150 50  0000 C CNN
F 1 "6k" V 2700 4150 50  0000 C CNN
F 2 "Resistors_SMD:R_0805_HandSoldering" V 2530 4150 50  0001 C CNN
F 3 "~" H 2600 4150 50  0001 C CNN
	1    2600 4150
	0    -1   -1   0   
$EndComp
$Comp
L Device:C C6
U 1 1 5B810A68
P 3050 4150
F 0 "C6" V 3300 4150 50  0000 C CNN
F 1 "0.12u" V 3200 4150 50  0000 C CNN
F 2 "Capacitors_SMD:C_0805_HandSoldering" H 3088 4000 50  0001 C CNN
F 3 "~" H 3050 4150 50  0001 C CNN
	1    3050 4150
	0    -1   -1   0   
$EndComp
$Comp
L Device:C C5
U 1 1 5B810BCA
P 2600 4600
F 0 "C5" V 2850 4600 50  0000 C CNN
F 1 "4.7n" V 2750 4600 50  0000 C CNN
F 2 "Capacitors_SMD:C_0805_HandSoldering" H 2638 4450 50  0001 C CNN
F 3 "~" H 2600 4600 50  0001 C CNN
	1    2600 4600
	0    -1   -1   0   
$EndComp
$Comp
L power:GND #PWR0103
U 1 1 5B812D56
P 2950 3500
F 0 "#PWR0103" H 2950 3250 50  0001 C CNN
F 1 "GND" H 2955 3327 50  0000 C CNN
F 2 "" H 2950 3500 50  0001 C CNN
F 3 "" H 2950 3500 50  0001 C CNN
	1    2950 3500
	1    0    0    -1  
$EndComp
$Comp
L power:GND #PWR0104
U 1 1 5B814ADA
P 3400 4150
F 0 "#PWR0104" H 3400 3900 50  0001 C CNN
F 1 "GND" H 3405 3977 50  0000 C CNN
F 2 "" H 3400 4150 50  0001 C CNN
F 3 "" H 3400 4150 50  0001 C CNN
	1    3400 4150
	1    0    0    -1  
$EndComp
$Comp
L power:GND #PWR0105
U 1 1 5B814B2A
P 2450 5000
F 0 "#PWR0105" H 2450 4750 50  0001 C CNN
F 1 "GND" H 2455 4827 50  0000 C CNN
F 2 "" H 2450 5000 50  0001 C CNN
F 3 "" H 2450 5000 50  0001 C CNN
	1    2450 5000
	1    0    0    -1  
$EndComp
$Comp
L power:GND #PWR0106
U 1 1 5B814B7A
P 2950 4600
F 0 "#PWR0106" H 2950 4350 50  0001 C CNN
F 1 "GND" H 2955 4427 50  0000 C CNN
F 2 "" H 2950 4600 50  0001 C CNN
F 3 "" H 2950 4600 50  0001 C CNN
	1    2950 4600
	1    0    0    -1  
$EndComp
Wire Wire Line
	4800 3500 4550 3500
Wire Wire Line
	4800 3600 4550 3600
Wire Wire Line
	4800 3700 4550 3700
Wire Wire Line
	4800 3800 4550 3800
Wire Wire Line
	4800 3900 4550 3900
Wire Wire Line
	4800 4000 4550 4000
Wire Wire Line
	4800 4100 4550 4100
Text Label 4550 3500 0    50   ~ 0
CHG
Text Label 4550 3600 0    50   ~ 0
ACP
Text Label 4550 3700 0    50   ~ 0
R_T
Text Label 4550 3800 0    50   ~ 0
GND
Text Label 4550 3900 0    50   ~ 0
NTC
Text Label 4550 4000 0    50   ~ 0
I_TH
Text Label 4550 4100 0    50   ~ 0
I_MON
Text Label 2900 2400 0    50   ~ 0
CHG
Wire Wire Line
	2700 2400 2900 2400
Wire Wire Line
	2700 2500 2900 2500
Wire Wire Line
	2700 2600 2900 2600
Wire Wire Line
	2700 2700 2900 2700
Wire Wire Line
	2800 2250 2800 2300
Wire Wire Line
	2800 2300 2700 2300
Wire Wire Line
	2800 1950 2800 1900
Wire Wire Line
	2800 1900 3000 1900
Text Label 3000 1900 0    50   ~ 0
CHG
Text Label 2900 2500 0    50   ~ 0
ACP
$Comp
L Device:R R_RT1
U 1 1 5B81BA16
P 2600 3500
F 0 "R_RT1" V 2807 3500 50  0000 C CNN
F 1 "385k" V 2716 3500 50  0000 C CNN
F 2 "Resistors_SMD:R_0805_HandSoldering" V 2530 3500 50  0001 C CNN
F 3 "~" H 2600 3500 50  0001 C CNN
	1    2600 3500
	0    -1   -1   0   
$EndComp
Text Label 2900 2700 0    50   ~ 0
I_MON
Text Label 2900 2600 0    50   ~ 0
GND
Wire Wire Line
	2450 3500 2200 3500
Wire Wire Line
	2750 3500 2950 3500
Text Label 2200 3500 0    50   ~ 0
R_T
Wire Wire Line
	2200 5000 2450 5000
Text Label 2200 5000 0    50   ~ 0
GND
Wire Wire Line
	3050 5750 3300 5750
Text Label 2700 6200 0    50   ~ 0
NTC
Text Label 3300 5750 0    50   ~ 0
DCIN
Wire Wire Line
	3200 4150 3400 4150
Wire Wire Line
	2900 4150 2750 4150
Wire Wire Line
	2200 4150 2450 4150
Text Label 2200 4150 0    50   ~ 0
I_TH
Wire Wire Line
	2950 4600 2750 4600
Wire Wire Line
	2450 4600 2200 4600
Text Label 2200 4600 0    50   ~ 0
I_MON
Wire Wire Line
	5800 3500 6050 3500
Wire Wire Line
	5800 3600 6050 3600
Wire Wire Line
	5800 3700 6050 3700
Wire Wire Line
	5800 3800 6050 3800
Wire Wire Line
	5800 3900 6050 3900
Wire Wire Line
	5800 4000 6050 4000
Wire Wire Line
	5800 4100 6050 4100
Text Label 6050 3700 0    50   ~ 0
TGATE
Text Label 6050 3500 0    50   ~ 0
BGATE
Wire Wire Line
	4900 4950 4650 4950
Wire Wire Line
	4900 5150 4650 5150
Text Label 4650 5150 0    50   ~ 0
TGATE
Text Label 4650 4950 0    50   ~ 0
BGATE
Text Label 6050 3600 0    50   ~ 0
PGND
$Comp
L power:GND #PWR0107
U 1 1 5B82B884
P 8600 3900
F 0 "#PWR0107" H 8600 3650 50  0001 C CNN
F 1 "GND" H 8605 3727 50  0000 C CNN
F 2 "" H 8600 3900 50  0001 C CNN
F 3 "" H 8600 3900 50  0001 C CNN
	1    8600 3900
	1    0    0    -1  
$EndComp
Wire Wire Line
	8350 3900 8600 3900
Text Label 8350 3900 0    50   ~ 0
PGND
Text Label 6050 3800 0    50   ~ 0
CLN
Wire Wire Line
	4900 5050 4650 5050
Text Label 4650 5050 0    50   ~ 0
LOAD
$Comp
L power:GND #PWR0108
U 1 1 5B82D52D
P 9050 2500
F 0 "#PWR0108" H 9050 2250 50  0001 C CNN
F 1 "GND" H 9055 2327 50  0000 C CNN
F 2 "" H 9050 2500 50  0001 C CNN
F 3 "" H 9050 2500 50  0001 C CNN
	1    9050 2500
	1    0    0    -1  
$EndComp
$Comp
L Device:C C2
U 1 1 5B830375
P 8600 2550
F 0 "C2" H 8715 2596 50  0000 L CNN
F 1 "20u" H 8715 2505 50  0000 L CNN
F 2 "Capacitors_SMD:C_0805_HandSoldering" H 8638 2400 50  0001 C CNN
F 3 "~" H 8600 2550 50  0001 C CNN
	1    8600 2550
	1    0    0    -1  
$EndComp
$Comp
L power:GND #PWR0109
U 1 1 5B830DEF
P 8600 2700
F 0 "#PWR0109" H 8600 2450 50  0001 C CNN
F 1 "GND" H 8605 2527 50  0000 C CNN
F 2 "" H 8600 2700 50  0001 C CNN
F 3 "" H 8600 2700 50  0001 C CNN
	1    8600 2700
	1    0    0    -1  
$EndComp
Wire Wire Line
	8600 2400 9050 2400
Wire Wire Line
	8600 2400 8350 2400
Connection ~ 8600 2400
Text Label 8350 2400 0    50   ~ 0
LOAD
Wire Wire Line
	4900 4850 4900 4650
Wire Wire Line
	4900 4650 4750 4650
$Comp
L power:GND #PWR0110
U 1 1 5B8351B2
P 4750 4650
F 0 "#PWR0110" H 4750 4400 50  0001 C CNN
F 1 "GND" H 4755 4477 50  0000 C CNN
F 2 "" H 4750 4650 50  0001 C CNN
F 3 "" H 4750 4650 50  0001 C CNN
	1    4750 4650
	1    0    0    -1  
$EndComp
$Comp
L Device:R R1
U 1 1 5B836B5F
P 6900 3000
F 0 "R1" V 6693 3000 50  0000 C CNN
F 1 "5k" V 6784 3000 50  0000 C CNN
F 2 "Resistors_SMD:R_0805_HandSoldering" V 6830 3000 50  0001 C CNN
F 3 "~" H 6900 3000 50  0001 C CNN
	1    6900 3000
	0    1    1    0   
$EndComp
$Comp
L Device:R_Shunt R_CL1
U 1 1 5B836CDB
P 6700 2400
F 0 "R_CL1" V 6475 2400 50  0000 C CNN
F 1 "33m" V 6566 2400 50  0000 C CNN
F 2 "Battery_charging_cubesat:LVK12" V 6630 2400 50  0001 C CNN
F 3 "~" H 6700 2400 50  0001 C CNN
	1    6700 2400
	0    -1   1    0   
$EndComp
$Comp
L Device:C C4
U 1 1 5B840B42
P 7300 2850
F 0 "C4" H 7415 2896 50  0000 L CNN
F 1 "15n" H 7415 2805 50  0000 L CNN
F 2 "Capacitors_SMD:C_0805_HandSoldering" H 7338 2700 50  0001 C CNN
F 3 "~" H 7300 2850 50  0001 C CNN
	1    7300 2850
	1    0    0    -1  
$EndComp
Wire Wire Line
	7300 3000 7650 3000
Text Label 7650 3000 0    50   ~ 0
CLP
Text Label 6050 3900 0    50   ~ 0
CLP
Text Label 7250 2400 0    50   ~ 0
LOAD
Connection ~ 7300 3000
Wire Wire Line
	7050 3000 7300 3000
$Comp
L Device:C C_CLN1
U 1 1 5B85AB13
P 8750 3500
F 0 "C_CLN1" V 8498 3500 50  0000 C CNN
F 1 "20u" V 8589 3500 50  0000 C CNN
F 2 "Capacitors_SMD:C_0805_HandSoldering" H 8788 3350 50  0001 C CNN
F 3 "~" H 8750 3500 50  0001 C CNN
	1    8750 3500
	0    1    1    0   
$EndComp
Wire Wire Line
	8600 3500 8350 3500
Wire Wire Line
	8900 3500 9150 3500
$Comp
L power:GND #PWR0111
U 1 1 5B8679D6
P 9150 3500
F 0 "#PWR0111" H 9150 3250 50  0001 C CNN
F 1 "GND" H 9155 3327 50  0000 C CNN
F 2 "" H 9150 3500 50  0001 C CNN
F 3 "" H 9150 3500 50  0001 C CNN
	1    9150 3500
	1    0    0    -1  
$EndComp
Text Label 8350 3500 0    50   ~ 0
CLN
Text Label 6050 4000 0    50   ~ 0
BAT
Text Label 6050 4100 0    50   ~ 0
CSP
$Comp
L Device:L L1
U 1 1 5B872E7B
P 6300 4850
F 0 "L1" V 6490 4850 50  0000 C CNN
F 1 "20u" V 6399 4850 50  0000 C CNN
F 2 "Battery_charging_cubesat:SRN1060_inductor" H 6300 4850 50  0001 C CNN
F 3 "~" H 6300 4850 50  0001 C CNN
	1    6300 4850
	0    -1   -1   0   
$EndComp
Wire Wire Line
	6100 2400 6500 2400
Wire Wire Line
	6600 2550 6600 3000
Wire Wire Line
	6600 3000 6750 3000
Wire Wire Line
	6800 2550 6800 2700
Wire Wire Line
	6800 2700 7300 2700
Connection ~ 7300 2700
Wire Wire Line
	7300 2700 7650 2700
Wire Wire Line
	6900 2400 7250 2400
Text Label 7650 2700 0    50   ~ 0
CLN
$Comp
L Device:R_Shunt R_SENSE1
U 1 1 5B83D1BB
P 6850 4850
F 0 "R_SENSE1" V 6625 4850 50  0000 C CNN
F 1 "33m" V 6716 4850 50  0000 C CNN
F 2 "Battery_charging_cubesat:LVK12" V 6780 4850 50  0001 C CNN
F 3 "~" H 6850 4850 50  0001 C CNN
	1    6850 4850
	0    -1   1    0   
$EndComp
$Comp
L Device:C C3
U 1 1 5B83D319
P 7550 5000
F 0 "C3" H 7665 5046 50  0000 L CNN
F 1 "20u" H 7665 4955 50  0000 L CNN
F 2 "Capacitors_SMD:C_0805_HandSoldering" H 7588 4850 50  0001 C CNN
F 3 "~" H 7550 5000 50  0001 C CNN
	1    7550 5000
	1    0    0    -1  
$EndComp
Wire Wire Line
	5700 4850 6150 4850
Wire Wire Line
	6450 4850 6650 4850
Wire Wire Line
	7050 4850 7550 4850
Connection ~ 7550 4850
Wire Wire Line
	7550 4850 8000 4850
$Comp
L power:GND #PWR0112
U 1 1 5B847C56
P 8000 4950
F 0 "#PWR0112" H 8000 4700 50  0001 C CNN
F 1 "GND" H 8005 4777 50  0000 C CNN
F 2 "" H 8000 4950 50  0001 C CNN
F 3 "" H 8000 4950 50  0001 C CNN
	1    8000 4950
	1    0    0    -1  
$EndComp
$Comp
L power:GND #PWR0113
U 1 1 5B847CC1
P 7550 5150
F 0 "#PWR0113" H 7550 4900 50  0001 C CNN
F 1 "GND" H 7555 4977 50  0000 C CNN
F 2 "" H 7550 5150 50  0001 C CNN
F 3 "" H 7550 5150 50  0001 C CNN
	1    7550 5150
	1    0    0    -1  
$EndComp
Wire Wire Line
	6750 5000 6750 5150
Wire Wire Line
	6750 5150 6450 5150
Wire Wire Line
	6950 5000 6950 5350
Wire Wire Line
	6950 5350 6450 5350
Text Label 6450 5150 0    50   ~ 0
CSP
Text Label 6450 5350 0    50   ~ 0
BAT
Wire Wire Line
	5800 3400 6050 3400
Wire Wire Line
	5900 2700 5900 2850
Wire Wire Line
	5900 2850 6150 2850
Text Label 6050 3400 0    50   ~ 0
INFET
Text Label 6150 2850 0    50   ~ 0
INFET
$Comp
L Battery_charging_cubesat:AO4629 U2
U 1 1 5B9DA57F
P 5300 4700
F 0 "U2" H 5300 4815 50  0000 C CNN
F 1 "AO4629" H 5300 4724 50  0000 C CNN
F 2 "Battery_charging_cubesat:SOIC-8_AO4629" H 5300 4700 50  0001 C CNN
F 3 "" H 5300 4700 50  0001 C CNN
	1    5300 4700
	1    0    0    -1  
$EndComp
$Comp
L Battery_charging_cubesat:LTC4006 U1
U 1 1 5B9DF3E4
P 5300 3150
F 0 "U1" H 5300 3265 50  0000 C CNN
F 1 "LTC4006" H 5300 3174 50  0000 C CNN
F 2 "Battery_charging_cubesat:SSOP-16_LTC4006" H 5300 3150 50  0001 C CNN
F 3 "" H 5300 3150 50  0001 C CNN
	1    5300 3150
	1    0    0    -1  
$EndComp
$Comp
L Battery_charging_cubesat:Header J1
U 1 1 5B9E3E52
P 2350 2050
F 0 "J1" H 2456 2165 50  0000 C CNN
F 1 "Header" H 2456 2074 50  0000 C CNN
F 2 "Connectors_Molex:Molex_KK-6410-05_05x2.54mm_Straight" H 2350 2050 50  0001 C CNN
F 3 "" H 2350 2050 50  0001 C CNN
	1    2350 2050
	1    0    0    -1  
$EndComp
$Comp
L power:GND #PWR0102
U 1 1 5B9ED21A
P 4700 2800
F 0 "#PWR0102" H 4700 2550 50  0001 C CNN
F 1 "GND" H 4705 2627 50  0000 C CNN
F 2 "" H 4700 2800 50  0001 C CNN
F 3 "" H 4700 2800 50  0001 C CNN
	1    4700 2800
	1    0    0    -1  
$EndComp
Wire Wire Line
	4700 2800 4700 2700
$Comp
L power:PWR_FLAG #FLG0101
U 1 1 5B9F39EF
P 3800 4800
F 0 "#FLG0101" H 3800 4875 50  0001 C CNN
F 1 "PWR_FLAG" H 3800 4974 50  0000 C CNN
F 2 "" H 3800 4800 50  0001 C CNN
F 3 "~" H 3800 4800 50  0001 C CNN
	1    3800 4800
	1    0    0    -1  
$EndComp
$Comp
L power:GND #PWR0114
U 1 1 5B9F3C0B
P 3800 4900
F 0 "#PWR0114" H 3800 4650 50  0001 C CNN
F 1 "GND" H 3805 4727 50  0000 C CNN
F 2 "" H 3800 4900 50  0001 C CNN
F 3 "" H 3800 4900 50  0001 C CNN
	1    3800 4900
	1    0    0    -1  
$EndComp
Wire Wire Line
	3800 4800 3800 4900
$Comp
L Connector:Conn_01x03_Male J5
U 1 1 5BA60462
P 2200 6200
F 0 "J5" H 2306 6478 50  0000 C CNN
F 1 "Conn_01x03_Male" H 2306 6387 50  0000 C CNN
F 2 "Connectors_Molex:Molex_KK-6410-03_03x2.54mm_Straight" H 2200 6200 50  0001 C CNN
F 3 "~" H 2200 6200 50  0001 C CNN
	1    2200 6200
	1    0    0    -1  
$EndComp
Wire Wire Line
	2700 6200 2400 6200
$Comp
L Device:Thermistor_NTC TH1
U 1 1 5BA708FF
P 3300 6850
F 0 "TH1" H 3148 6804 50  0000 R CNN
F 1 "10k" H 3148 6895 50  0000 R CNN
F 2 "Resistors_SMD:R_0805_HandSoldering" H 3300 6900 50  0001 C CNN
F 3 "~" H 3300 6900 50  0001 C CNN
	1    3300 6850
	-1   0    0    1   
$EndComp
Wire Wire Line
	2400 6600 2400 6300
Wire Wire Line
	2400 5750 2400 6100
Wire Wire Line
	2400 5750 2750 5750
$Comp
L power:GND #PWR0115
U 1 1 5BA8900F
P 3300 7100
F 0 "#PWR0115" H 3300 6850 50  0001 C CNN
F 1 "GND" H 3305 6927 50  0000 C CNN
F 2 "" H 3300 7100 50  0001 C CNN
F 3 "" H 3300 7100 50  0001 C CNN
	1    3300 7100
	1    0    0    -1  
$EndComp
$Comp
L Device:R R2
U 1 1 5BA976C4
P 2650 6600
F 0 "R2" V 2443 6600 50  0000 C CNN
F 1 "32.4k" V 2534 6600 50  0000 C CNN
F 2 "Resistors_SMD:R_0805_HandSoldering" V 2580 6600 50  0001 C CNN
F 3 "~" H 2650 6600 50  0001 C CNN
	1    2650 6600
	0    1    1    0   
$EndComp
$Comp
L Device:C C7
U 1 1 5BA9778B
P 2850 6850
F 0 "C7" H 2735 6804 50  0000 R CNN
F 1 "0.47u" H 2735 6895 50  0000 R CNN
F 2 "Capacitors_SMD:C_0805_HandSoldering" H 2888 6700 50  0001 C CNN
F 3 "~" H 2850 6850 50  0001 C CNN
	1    2850 6850
	-1   0    0    1   
$EndComp
Wire Wire Line
	2400 6600 2500 6600
Wire Wire Line
	2800 6600 2850 6600
Wire Wire Line
	2850 6600 2850 6700
Wire Wire Line
	3300 6700 3300 6600
Wire Wire Line
	3300 6600 2850 6600
Connection ~ 2850 6600
Wire Wire Line
	3300 7000 3300 7050
Wire Wire Line
	2850 7000 2850 7050
Wire Wire Line
	2850 7050 3300 7050
Connection ~ 3300 7050
Wire Wire Line
	3300 7050 3300 7100
Wire Wire Line
	5700 5150 5700 5050
Wire Wire Line
	5700 5050 5700 4950
Connection ~ 5700 5050
Wire Wire Line
	5700 4950 5700 4850
Connection ~ 5700 4950
Connection ~ 5700 4850
$EndSCHEMATC
