G04 Layer_Physical_Order=2*
G04 Layer_Color=16711680*
%FSAX24Y24*%
%MOIN*%
G70*
G01*
G75*
%ADD22C,0.0100*%
%ADD23C,0.0300*%
%ADD25C,0.0300*%
%ADD26R,0.0591X0.0591*%
%ADD27C,0.0591*%
%ADD28R,0.0591X0.0591*%
%ADD29R,0.0984X0.0472*%
%ADD30O,0.0984X0.0472*%
%ADD31O,0.0787X0.0394*%
%ADD32O,0.0787X0.0394*%
%ADD33C,0.0197*%
%ADD34C,0.0551*%
%ADD35C,0.0500*%
G36*
X036650Y027950D02*
Y017200D01*
X015000D01*
Y027965D01*
X015035Y028000D01*
X036650Y027950D01*
D02*
G37*
%LPC*%
G36*
X017846Y021750D02*
X017550D01*
Y021454D01*
X017591Y021459D01*
X017677Y021494D01*
X017750Y021550D01*
X017806Y021623D01*
X017841Y021709D01*
X017846Y021750D01*
D02*
G37*
G36*
X017450D02*
X017154D01*
X017159Y021709D01*
X017194Y021623D01*
X017250Y021550D01*
X017323Y021494D01*
X017409Y021459D01*
X017450Y021454D01*
Y021750D01*
D02*
G37*
G36*
X027417Y021845D02*
X027355Y021832D01*
X027303Y021797D01*
X027268Y021745D01*
X027255Y021683D01*
X027268Y021621D01*
X027303Y021569D01*
X027355Y021534D01*
X027417Y021522D01*
X027479Y021534D01*
X027531Y021569D01*
X027566Y021621D01*
X027578Y021683D01*
X027566Y021745D01*
X027531Y021797D01*
X027479Y021832D01*
X027417Y021845D01*
D02*
G37*
G36*
X028283D02*
X028221Y021832D01*
X028169Y021797D01*
X028134Y021745D01*
X028122Y021683D01*
X028134Y021621D01*
X028169Y021569D01*
X028221Y021534D01*
X028283Y021522D01*
X028345Y021534D01*
X028397Y021569D01*
X028432Y021621D01*
X028445Y021683D01*
X028432Y021745D01*
X028397Y021797D01*
X028345Y021832D01*
X028283Y021845D01*
D02*
G37*
G36*
X027833D02*
X027771Y021832D01*
X027719Y021797D01*
X027684Y021745D01*
X027672Y021683D01*
X027684Y021621D01*
X027719Y021569D01*
X027771Y021534D01*
X027833Y021522D01*
X027895Y021534D01*
X027947Y021569D01*
X027982Y021621D01*
X027995Y021683D01*
X027982Y021745D01*
X027947Y021797D01*
X027895Y021832D01*
X027833Y021845D01*
D02*
G37*
G36*
X020900Y025763D02*
X020819Y025752D01*
X020744Y025721D01*
X020679Y025671D01*
X020629Y025606D01*
X020598Y025531D01*
X020587Y025450D01*
X020598Y025369D01*
X020629Y025294D01*
X020679Y025229D01*
X020744Y025179D01*
X020819Y025148D01*
X020900Y025137D01*
X020981Y025148D01*
X021056Y025179D01*
X021121Y025229D01*
X021171Y025294D01*
X021189Y025338D01*
X021554D01*
X022688Y024204D01*
Y021900D01*
X022688Y021900D01*
X022696Y021857D01*
X022721Y021821D01*
X023121Y021421D01*
X023121Y021421D01*
X023157Y021396D01*
X023200Y021388D01*
X023722D01*
X023749Y021349D01*
X023818Y021302D01*
X023900Y021286D01*
X023971Y021300D01*
X024000Y021260D01*
X024000Y021259D01*
X023754Y021012D01*
X021028D01*
X021001Y021051D01*
X020932Y021098D01*
X020850Y021114D01*
X020768Y021098D01*
X020699Y021051D01*
X020652Y020982D01*
X020636Y020900D01*
X020652Y020818D01*
X020699Y020749D01*
X020768Y020702D01*
X020850Y020686D01*
X020932Y020702D01*
X021001Y020749D01*
X021028Y020788D01*
X023800D01*
X023800Y020788D01*
X023843Y020796D01*
X023879Y020821D01*
X024379Y021321D01*
X024379Y021321D01*
X024404Y021357D01*
X024412Y021400D01*
X024412Y021400D01*
Y022088D01*
X024462Y022103D01*
X024499Y022049D01*
X024568Y022002D01*
X024650Y021986D01*
X024732Y022002D01*
X024801Y022049D01*
X024828Y022088D01*
X024954D01*
X026471Y020571D01*
X026507Y020546D01*
X026550Y020538D01*
X026550Y020538D01*
X032012D01*
X032040Y020471D01*
X032097Y020397D01*
X032171Y020340D01*
X032257Y020304D01*
X032350Y020292D01*
X032443Y020304D01*
X032529Y020340D01*
X032603Y020397D01*
X032660Y020471D01*
X032696Y020557D01*
X032708Y020650D01*
X032696Y020743D01*
X032660Y020829D01*
X032603Y020903D01*
X032529Y020960D01*
X032443Y020996D01*
X032350Y021008D01*
X032257Y020996D01*
X032171Y020960D01*
X032097Y020903D01*
X032040Y020829D01*
X032012Y020762D01*
X026596D01*
X025079Y022279D01*
X025043Y022304D01*
X025000Y022312D01*
X025000Y022312D01*
X024828D01*
X024801Y022351D01*
X024732Y022398D01*
X024650Y022414D01*
X024568Y022398D01*
X024499Y022351D01*
X024462Y022297D01*
X024412Y022312D01*
Y022454D01*
X024546Y022588D01*
X025304D01*
X025645Y022246D01*
X025636Y022200D01*
X025652Y022118D01*
X025699Y022049D01*
X025768Y022002D01*
X025850Y021986D01*
X025932Y022002D01*
X026001Y022049D01*
X026048Y022118D01*
X026064Y022200D01*
X026055Y022246D01*
X026246Y022438D01*
X030704D01*
X031571Y021571D01*
X031571Y021571D01*
X031607Y021546D01*
X031650Y021538D01*
X031995D01*
Y021295D01*
X032705D01*
Y022005D01*
X031995D01*
Y021762D01*
X031696D01*
X030829Y022629D01*
X030793Y022654D01*
X030750Y022662D01*
X030750Y022662D01*
X026200D01*
X026200Y022662D01*
X026157Y022654D01*
X026121Y022629D01*
X026121Y022629D01*
X025896Y022405D01*
X025850Y022414D01*
X025804Y022405D01*
X025429Y022779D01*
X025393Y022804D01*
X025350Y022812D01*
X025350Y022812D01*
X024500D01*
X024500Y022812D01*
X024457Y022804D01*
X024421Y022779D01*
X024421Y022779D01*
X024221Y022579D01*
X024196Y022543D01*
X024188Y022500D01*
X024188Y022500D01*
Y021446D01*
X024141Y021400D01*
X024140Y021400D01*
X024100Y021429D01*
X024114Y021500D01*
X024098Y021582D01*
X024051Y021651D01*
X023982Y021698D01*
X023900Y021714D01*
X023818Y021698D01*
X023749Y021651D01*
X023722Y021612D01*
X023246D01*
X022912Y021946D01*
Y024250D01*
X022904Y024293D01*
X022879Y024329D01*
X022879Y024329D01*
X021679Y025529D01*
X021643Y025554D01*
X021600Y025562D01*
X021600Y025562D01*
X021189D01*
X021171Y025606D01*
X021121Y025671D01*
X021056Y025721D01*
X020981Y025752D01*
X020900Y025763D01*
D02*
G37*
G36*
X029995Y020095D02*
X029650D01*
Y019750D01*
X029995D01*
Y020095D01*
D02*
G37*
G36*
X029550D02*
X029205D01*
Y019750D01*
X029550D01*
Y020095D01*
D02*
G37*
G36*
X027417Y021412D02*
X027355Y021399D01*
X027303Y021364D01*
X027268Y021312D01*
X027255Y021250D01*
X027268Y021188D01*
X027303Y021136D01*
X027355Y021101D01*
X027417Y021088D01*
X027479Y021101D01*
X027531Y021136D01*
X027566Y021188D01*
X027578Y021250D01*
X027566Y021312D01*
X027531Y021364D01*
X027479Y021399D01*
X027417Y021412D01*
D02*
G37*
G36*
X028283D02*
X028221Y021399D01*
X028169Y021364D01*
X028134Y021312D01*
X028122Y021250D01*
X028134Y021188D01*
X028169Y021136D01*
X028221Y021101D01*
X028283Y021088D01*
X028345Y021101D01*
X028397Y021136D01*
X028432Y021188D01*
X028445Y021250D01*
X028432Y021312D01*
X028397Y021364D01*
X028345Y021399D01*
X028283Y021412D01*
D02*
G37*
G36*
X027850D02*
X027788Y021399D01*
X027736Y021364D01*
X027701Y021312D01*
X027688Y021250D01*
X027701Y021188D01*
X027736Y021136D01*
X027788Y021101D01*
X027850Y021088D01*
X027912Y021101D01*
X027964Y021136D01*
X027999Y021188D01*
X028012Y021250D01*
X027999Y021312D01*
X027964Y021364D01*
X027912Y021399D01*
X027850Y021412D01*
D02*
G37*
G36*
X017450Y022650D02*
X017154D01*
X017159Y022609D01*
X017194Y022523D01*
X017250Y022450D01*
X017323Y022394D01*
X017409Y022359D01*
X017450Y022354D01*
Y022650D01*
D02*
G37*
G36*
X022350Y022414D02*
X022268Y022398D01*
X022199Y022351D01*
X022172Y022312D01*
X021650D01*
X021650Y022312D01*
X021607Y022304D01*
X021571Y022279D01*
X021571Y022279D01*
X020896Y021605D01*
X020850Y021614D01*
X020768Y021598D01*
X020699Y021551D01*
X020652Y021482D01*
X020636Y021400D01*
X020652Y021318D01*
X020699Y021249D01*
X020768Y021202D01*
X020850Y021186D01*
X020932Y021202D01*
X021001Y021249D01*
X021048Y021318D01*
X021064Y021400D01*
X021055Y021446D01*
X021696Y022088D01*
X022172D01*
X022199Y022049D01*
X022268Y022002D01*
X022350Y021986D01*
X022432Y022002D01*
X022501Y022049D01*
X022548Y022118D01*
X022564Y022200D01*
X022548Y022282D01*
X022501Y022351D01*
X022432Y022398D01*
X022350Y022414D01*
D02*
G37*
G36*
X017846Y022650D02*
X017550D01*
Y022354D01*
X017591Y022359D01*
X017677Y022394D01*
X017750Y022450D01*
X017806Y022523D01*
X017841Y022609D01*
X017846Y022650D01*
D02*
G37*
G36*
X020496D02*
X020200D01*
Y022354D01*
X020241Y022359D01*
X020327Y022394D01*
X020400Y022450D01*
X020456Y022523D01*
X020491Y022609D01*
X020496Y022650D01*
D02*
G37*
G36*
X020100D02*
X019804D01*
X019809Y022609D01*
X019844Y022523D01*
X019900Y022450D01*
X019973Y022394D01*
X020059Y022359D01*
X020100Y022354D01*
Y022650D01*
D02*
G37*
G36*
X028266Y022245D02*
X028204Y022232D01*
X028152Y022197D01*
X028117Y022145D01*
X028105Y022083D01*
X028117Y022021D01*
X028152Y021969D01*
X028204Y021934D01*
X028266Y021922D01*
X028328Y021934D01*
X028380Y021969D01*
X028415Y022021D01*
X028428Y022083D01*
X028415Y022145D01*
X028380Y022197D01*
X028328Y022232D01*
X028266Y022245D01*
D02*
G37*
G36*
X017450Y022146D02*
X017409Y022141D01*
X017323Y022106D01*
X017250Y022050D01*
X017194Y021977D01*
X017159Y021891D01*
X017154Y021850D01*
X017450D01*
Y022146D01*
D02*
G37*
G36*
X020450Y022164D02*
X020368Y022148D01*
X020299Y022101D01*
X020252Y022032D01*
X020236Y021950D01*
X020245Y021904D01*
X019971Y021629D01*
X019946Y021593D01*
X019938Y021550D01*
X019938Y021550D01*
Y020550D01*
X019938Y020550D01*
X019946Y020507D01*
X019971Y020471D01*
X020171Y020271D01*
X020171Y020271D01*
X020207Y020246D01*
X020250Y020238D01*
X020250Y020238D01*
X020950D01*
X020950Y020238D01*
X020993Y020246D01*
X021029Y020271D01*
X021178Y020419D01*
X021196Y020416D01*
X021209Y020363D01*
X021197Y020353D01*
X021140Y020279D01*
X021104Y020193D01*
X021092Y020100D01*
X021104Y020007D01*
X021140Y019921D01*
X021197Y019847D01*
X021271Y019790D01*
X021357Y019754D01*
X021450Y019742D01*
X021543Y019754D01*
X021629Y019790D01*
X021703Y019847D01*
X021760Y019921D01*
X021796Y020007D01*
X021808Y020100D01*
X021796Y020193D01*
X021760Y020279D01*
X021703Y020353D01*
X021658Y020388D01*
X021675Y020438D01*
X022004D01*
X022047Y020395D01*
X022047Y020395D01*
X022083Y020370D01*
X022126Y020362D01*
X022126Y020362D01*
X022448D01*
X022475Y020323D01*
X022544Y020276D01*
X022626Y020260D01*
X022708Y020276D01*
X022777Y020323D01*
X022824Y020392D01*
X022840Y020474D01*
X022824Y020556D01*
X022777Y020625D01*
X022708Y020672D01*
X022626Y020688D01*
X022544Y020672D01*
X022521Y020656D01*
X022507Y020654D01*
X022471Y020629D01*
X022446Y020593D01*
X022445Y020586D01*
X022172D01*
X022129Y020629D01*
X022093Y020654D01*
X022050Y020662D01*
X022050Y020662D01*
X021150D01*
X021150Y020662D01*
X021107Y020654D01*
X021071Y020629D01*
X021071Y020629D01*
X020904Y020462D01*
X020296D01*
X020162Y020596D01*
Y021504D01*
X020404Y021745D01*
X020450Y021736D01*
X020532Y021752D01*
X020601Y021799D01*
X020648Y021868D01*
X020664Y021950D01*
X020648Y022032D01*
X020601Y022101D01*
X020532Y022148D01*
X020450Y022164D01*
D02*
G37*
G36*
X017550Y022146D02*
Y021850D01*
X017846D01*
X017841Y021891D01*
X017806Y021977D01*
X017750Y022050D01*
X017677Y022106D01*
X017591Y022141D01*
X017550Y022146D01*
D02*
G37*
G36*
X027833Y022245D02*
X027771Y022232D01*
X027719Y022197D01*
X027684Y022145D01*
X027672Y022083D01*
X027684Y022021D01*
X027719Y021969D01*
X027771Y021934D01*
X027833Y021922D01*
X027895Y021934D01*
X027947Y021969D01*
X027982Y022021D01*
X027995Y022083D01*
X027982Y022145D01*
X027947Y022197D01*
X027895Y022232D01*
X027833Y022245D01*
D02*
G37*
G36*
X027400D02*
X027338Y022232D01*
X027286Y022197D01*
X027251Y022145D01*
X027238Y022083D01*
X027251Y022021D01*
X027286Y021969D01*
X027338Y021934D01*
X027400Y021922D01*
X027462Y021934D01*
X027514Y021969D01*
X027549Y022021D01*
X027562Y022083D01*
X027549Y022145D01*
X027514Y022197D01*
X027462Y022232D01*
X027400Y022245D01*
D02*
G37*
G36*
X021845Y019050D02*
X021500D01*
Y018705D01*
X021845D01*
Y019050D01*
D02*
G37*
G36*
X021400D02*
X021055D01*
Y018705D01*
X021400D01*
Y019050D01*
D02*
G37*
G36*
X022450Y019196D02*
X022409Y019191D01*
X022323Y019156D01*
X022250Y019100D01*
X022194Y019027D01*
X022159Y018941D01*
X022154Y018900D01*
X022450D01*
Y019196D01*
D02*
G37*
G36*
X021400Y019495D02*
X021055D01*
Y019150D01*
X021400D01*
Y019495D01*
D02*
G37*
G36*
X022550Y019196D02*
Y018900D01*
X022846D01*
X022841Y018941D01*
X022806Y019027D01*
X022750Y019100D01*
X022677Y019156D01*
X022591Y019191D01*
X022550Y019196D01*
D02*
G37*
G36*
X017950Y018996D02*
Y018700D01*
X018246D01*
X018241Y018741D01*
X018206Y018827D01*
X018150Y018900D01*
X018077Y018956D01*
X017991Y018991D01*
X017950Y018996D01*
D02*
G37*
G36*
X018246Y018600D02*
X017950D01*
Y018304D01*
X017991Y018309D01*
X018077Y018344D01*
X018150Y018400D01*
X018206Y018473D01*
X018241Y018559D01*
X018246Y018600D01*
D02*
G37*
G36*
X017850D02*
X017554D01*
X017559Y018559D01*
X017594Y018473D01*
X017650Y018400D01*
X017723Y018344D01*
X017809Y018309D01*
X017850Y018304D01*
Y018600D01*
D02*
G37*
G36*
X022450Y018800D02*
X022154D01*
X022159Y018759D01*
X022194Y018673D01*
X022250Y018600D01*
X022323Y018544D01*
X022409Y018509D01*
X022450Y018504D01*
Y018800D01*
D02*
G37*
G36*
X017850Y018996D02*
X017809Y018991D01*
X017723Y018956D01*
X017650Y018900D01*
X017594Y018827D01*
X017559Y018741D01*
X017554Y018700D01*
X017850D01*
Y018996D01*
D02*
G37*
G36*
X022846Y018800D02*
X022550D01*
Y018504D01*
X022591Y018509D01*
X022677Y018544D01*
X022750Y018600D01*
X022806Y018673D01*
X022841Y018759D01*
X022846Y018800D01*
D02*
G37*
G36*
X028600Y020058D02*
X028507Y020046D01*
X028421Y020010D01*
X028347Y019953D01*
X028290Y019879D01*
X028254Y019793D01*
X028242Y019700D01*
X028254Y019607D01*
X028290Y019521D01*
X028347Y019447D01*
X028421Y019390D01*
X028507Y019354D01*
X028600Y019342D01*
X028693Y019354D01*
X028779Y019390D01*
X028853Y019447D01*
X028910Y019521D01*
X028946Y019607D01*
X028958Y019700D01*
X028946Y019793D01*
X028910Y019879D01*
X028853Y019953D01*
X028779Y020010D01*
X028693Y020046D01*
X028600Y020058D01*
D02*
G37*
G36*
X026300D02*
X026207Y020046D01*
X026121Y020010D01*
X026047Y019953D01*
X025990Y019879D01*
X025954Y019793D01*
X025942Y019700D01*
X025954Y019607D01*
X025990Y019521D01*
X026047Y019447D01*
X026121Y019390D01*
X026207Y019354D01*
X026300Y019342D01*
X026393Y019354D01*
X026479Y019390D01*
X026553Y019447D01*
X026610Y019521D01*
X026646Y019607D01*
X026658Y019700D01*
X026646Y019793D01*
X026610Y019879D01*
X026553Y019953D01*
X026479Y020010D01*
X026393Y020046D01*
X026300Y020058D01*
D02*
G37*
G36*
X027655Y020055D02*
X026945D01*
Y019345D01*
X027655D01*
Y020055D01*
D02*
G37*
G36*
X032400Y020042D02*
Y019700D01*
X032742D01*
X032735Y019753D01*
X032695Y019849D01*
X032632Y019932D01*
X032549Y019995D01*
X032453Y020035D01*
X032400Y020042D01*
D02*
G37*
G36*
X032300D02*
X032247Y020035D01*
X032151Y019995D01*
X032068Y019932D01*
X032005Y019849D01*
X031965Y019753D01*
X031958Y019700D01*
X032300D01*
Y020042D01*
D02*
G37*
G36*
X025300Y020058D02*
X025207Y020046D01*
X025121Y020010D01*
X025047Y019953D01*
X024990Y019879D01*
X024954Y019793D01*
X024942Y019700D01*
X024954Y019607D01*
X024990Y019521D01*
X025047Y019447D01*
X025121Y019390D01*
X025207Y019354D01*
X025300Y019342D01*
X025393Y019354D01*
X025479Y019390D01*
X025553Y019447D01*
X025610Y019521D01*
X025646Y019607D01*
X025658Y019700D01*
X025646Y019793D01*
X025610Y019879D01*
X025553Y019953D01*
X025479Y020010D01*
X025393Y020046D01*
X025300Y020058D01*
D02*
G37*
G36*
X032300Y019600D02*
X031958D01*
X031965Y019547D01*
X032005Y019451D01*
X032068Y019368D01*
X032151Y019305D01*
X032247Y019265D01*
X032300Y019258D01*
Y019600D01*
D02*
G37*
G36*
X021845Y019495D02*
X021500D01*
Y019150D01*
X021845D01*
Y019495D01*
D02*
G37*
G36*
X032742Y019600D02*
X032400D01*
Y019258D01*
X032453Y019265D01*
X032549Y019305D01*
X032632Y019368D01*
X032695Y019451D01*
X032735Y019547D01*
X032742Y019600D01*
D02*
G37*
G36*
X029995Y019650D02*
X029650D01*
Y019305D01*
X029995D01*
Y019650D01*
D02*
G37*
G36*
X029550D02*
X029205D01*
Y019305D01*
X029550D01*
Y019650D01*
D02*
G37*
G36*
X030550Y025178D02*
X030488Y025166D01*
X030436Y025131D01*
X030401Y025079D01*
X030388Y025017D01*
X030401Y024955D01*
X030436Y024903D01*
X030488Y024868D01*
X030550Y024855D01*
X030612Y024868D01*
X030664Y024903D01*
X030699Y024955D01*
X030712Y025017D01*
X030699Y025079D01*
X030664Y025131D01*
X030612Y025166D01*
X030550Y025178D01*
D02*
G37*
G36*
X030117D02*
X030055Y025166D01*
X030003Y025131D01*
X029968Y025079D01*
X029955Y025017D01*
X029968Y024955D01*
X030003Y024903D01*
X030055Y024868D01*
X030117Y024855D01*
X030179Y024868D01*
X030231Y024903D01*
X030266Y024955D01*
X030278Y025017D01*
X030266Y025079D01*
X030231Y025131D01*
X030179Y025166D01*
X030117Y025178D01*
D02*
G37*
G36*
X028200Y027214D02*
X026500D01*
X026418Y027198D01*
X026349Y027151D01*
X024799Y025601D01*
X024752Y025532D01*
X024736Y025450D01*
X024743Y025416D01*
X024739Y025397D01*
X024755Y025315D01*
X024802Y025245D01*
X024871Y025199D01*
X024953Y025183D01*
X025035Y025199D01*
X025105Y025245D01*
X025151Y025315D01*
X025159Y025356D01*
X026589Y026786D01*
X028200D01*
X028282Y026802D01*
X028351Y026849D01*
X028398Y026918D01*
X028414Y027000D01*
X028398Y027082D01*
X028351Y027151D01*
X028282Y027198D01*
X028200Y027214D01*
D02*
G37*
G36*
X018400Y025595D02*
X018055D01*
Y025250D01*
X018400D01*
Y025595D01*
D02*
G37*
G36*
X022500Y027064D02*
X022418Y027048D01*
X022349Y027001D01*
X022302Y026932D01*
X022286Y026850D01*
Y025750D01*
X022302Y025668D01*
X022349Y025599D01*
X022699Y025249D01*
X022768Y025202D01*
X022850Y025186D01*
X022932Y025202D01*
X023001Y025249D01*
X023048Y025318D01*
X023064Y025400D01*
X023048Y025482D01*
X023001Y025551D01*
X022714Y025839D01*
Y026850D01*
X022698Y026932D01*
X022651Y027001D01*
X022582Y027048D01*
X022500Y027064D01*
D02*
G37*
G36*
X029684Y025178D02*
X029622Y025166D01*
X029570Y025131D01*
X029535Y025079D01*
X029522Y025017D01*
X029535Y024955D01*
X029570Y024903D01*
X029622Y024868D01*
X029684Y024855D01*
X029746Y024868D01*
X029798Y024903D01*
X029833Y024955D01*
X029845Y025017D01*
X029833Y025079D01*
X029798Y025131D01*
X029746Y025166D01*
X029684Y025178D01*
D02*
G37*
G36*
X018400Y025150D02*
X018055D01*
Y024805D01*
X018400D01*
Y025150D01*
D02*
G37*
G36*
X026800Y024896D02*
Y024600D01*
X027096D01*
X027091Y024641D01*
X027056Y024727D01*
X027000Y024800D01*
X026927Y024856D01*
X026841Y024891D01*
X026800Y024896D01*
D02*
G37*
G36*
X018845Y025150D02*
X018500D01*
Y024805D01*
X018845D01*
Y025150D01*
D02*
G37*
G36*
X034842D02*
X034500D01*
Y024808D01*
X034553Y024815D01*
X034649Y024855D01*
X034732Y024918D01*
X034795Y025001D01*
X034835Y025097D01*
X034842Y025150D01*
D02*
G37*
G36*
X034400D02*
X034058D01*
X034065Y025097D01*
X034105Y025001D01*
X034168Y024918D01*
X034251Y024855D01*
X034347Y024815D01*
X034400Y024808D01*
Y025150D01*
D02*
G37*
G36*
X030100Y026012D02*
X030038Y025999D01*
X029986Y025964D01*
X029951Y025912D01*
X029938Y025850D01*
X029951Y025788D01*
X029986Y025736D01*
X030038Y025701D01*
X030100Y025688D01*
X030162Y025701D01*
X030214Y025736D01*
X030249Y025788D01*
X030262Y025850D01*
X030249Y025912D01*
X030214Y025964D01*
X030162Y025999D01*
X030100Y026012D01*
D02*
G37*
G36*
X029667D02*
X029605Y025999D01*
X029553Y025964D01*
X029518Y025912D01*
X029505Y025850D01*
X029518Y025788D01*
X029553Y025736D01*
X029605Y025701D01*
X029667Y025688D01*
X029729Y025701D01*
X029781Y025736D01*
X029816Y025788D01*
X029828Y025850D01*
X029816Y025912D01*
X029781Y025964D01*
X029729Y025999D01*
X029667Y026012D01*
D02*
G37*
G36*
X030533D02*
X030471Y025999D01*
X030419Y025964D01*
X030384Y025912D01*
X030372Y025850D01*
X030384Y025788D01*
X030419Y025736D01*
X030471Y025701D01*
X030533Y025688D01*
X030595Y025701D01*
X030647Y025736D01*
X030682Y025788D01*
X030695Y025850D01*
X030682Y025912D01*
X030647Y025964D01*
X030595Y025999D01*
X030533Y026012D01*
D02*
G37*
G36*
X034805Y026555D02*
X034095D01*
Y025845D01*
X034805D01*
Y026555D01*
D02*
G37*
G36*
X018450Y026558D02*
X018357Y026546D01*
X018271Y026510D01*
X018197Y026453D01*
X018140Y026379D01*
X018104Y026293D01*
X018092Y026200D01*
X018104Y026107D01*
X018140Y026021D01*
X018197Y025947D01*
X018271Y025890D01*
X018357Y025854D01*
X018450Y025842D01*
X018543Y025854D01*
X018629Y025890D01*
X018703Y025947D01*
X018760Y026021D01*
X018796Y026107D01*
X018808Y026200D01*
X018796Y026293D01*
X018760Y026379D01*
X018703Y026453D01*
X018629Y026510D01*
X018543Y026546D01*
X018450Y026558D01*
D02*
G37*
G36*
X030550Y025612D02*
X030488Y025599D01*
X030436Y025564D01*
X030401Y025512D01*
X030388Y025450D01*
X030401Y025388D01*
X030436Y025336D01*
X030488Y025301D01*
X030550Y025288D01*
X030612Y025301D01*
X030664Y025336D01*
X030699Y025388D01*
X030712Y025450D01*
X030699Y025512D01*
X030664Y025564D01*
X030612Y025599D01*
X030550Y025612D01*
D02*
G37*
G36*
X034400Y025592D02*
X034347Y025585D01*
X034251Y025545D01*
X034168Y025482D01*
X034105Y025399D01*
X034065Y025303D01*
X034058Y025250D01*
X034400D01*
Y025592D01*
D02*
G37*
G36*
X018845Y025595D02*
X018500D01*
Y025250D01*
X018845D01*
Y025595D01*
D02*
G37*
G36*
X034500Y025592D02*
Y025250D01*
X034842D01*
X034835Y025303D01*
X034795Y025399D01*
X034732Y025482D01*
X034649Y025545D01*
X034553Y025585D01*
X034500Y025592D01*
D02*
G37*
G36*
X030100Y025612D02*
X030038Y025599D01*
X029986Y025564D01*
X029951Y025512D01*
X029938Y025450D01*
X029951Y025388D01*
X029986Y025336D01*
X030038Y025301D01*
X030100Y025288D01*
X030162Y025301D01*
X030214Y025336D01*
X030249Y025388D01*
X030262Y025450D01*
X030249Y025512D01*
X030214Y025564D01*
X030162Y025599D01*
X030100Y025612D01*
D02*
G37*
G36*
X029684D02*
X029622Y025599D01*
X029570Y025564D01*
X029535Y025512D01*
X029522Y025450D01*
X029535Y025388D01*
X029570Y025336D01*
X029622Y025301D01*
X029684Y025288D01*
X029746Y025301D01*
X029798Y025336D01*
X029833Y025388D01*
X029845Y025450D01*
X029833Y025512D01*
X029798Y025564D01*
X029746Y025599D01*
X029684Y025612D01*
D02*
G37*
G36*
X026700Y024896D02*
X026659Y024891D01*
X026573Y024856D01*
X026500Y024800D01*
X026444Y024727D01*
X026409Y024641D01*
X026404Y024600D01*
X026700D01*
Y024896D01*
D02*
G37*
G36*
X023950Y023196D02*
Y022900D01*
X024246D01*
X024241Y022941D01*
X024206Y023027D01*
X024150Y023100D01*
X024077Y023156D01*
X023991Y023191D01*
X023950Y023196D01*
D02*
G37*
G36*
X023850D02*
X023809Y023191D01*
X023723Y023156D01*
X023650Y023100D01*
X023594Y023027D01*
X023559Y022941D01*
X023554Y022900D01*
X023850D01*
Y023196D01*
D02*
G37*
G36*
X026500Y023300D02*
X026204D01*
X026209Y023259D01*
X026244Y023173D01*
X026300Y023100D01*
X026373Y023044D01*
X026459Y023009D01*
X026500Y023004D01*
Y023300D01*
D02*
G37*
G36*
X033350Y023600D02*
X033054D01*
X033059Y023559D01*
X033094Y023473D01*
X033150Y023400D01*
X033223Y023344D01*
X033309Y023309D01*
X033350Y023304D01*
Y023600D01*
D02*
G37*
G36*
X026896Y023300D02*
X026600D01*
Y023004D01*
X026641Y023009D01*
X026727Y023044D01*
X026800Y023100D01*
X026856Y023173D01*
X026891Y023259D01*
X026896Y023300D01*
D02*
G37*
G36*
X020200Y023046D02*
Y022750D01*
X020496D01*
X020491Y022791D01*
X020456Y022877D01*
X020400Y022950D01*
X020327Y023006D01*
X020241Y023041D01*
X020200Y023046D01*
D02*
G37*
G36*
X024246Y022800D02*
X023950D01*
Y022504D01*
X023991Y022509D01*
X024077Y022544D01*
X024150Y022600D01*
X024206Y022673D01*
X024241Y022759D01*
X024246Y022800D01*
D02*
G37*
G36*
X023850D02*
X023554D01*
X023559Y022759D01*
X023594Y022673D01*
X023650Y022600D01*
X023723Y022544D01*
X023809Y022509D01*
X023850Y022504D01*
Y022800D01*
D02*
G37*
G36*
X017450Y023046D02*
X017409Y023041D01*
X017323Y023006D01*
X017250Y022950D01*
X017194Y022877D01*
X017159Y022791D01*
X017154Y022750D01*
X017450D01*
Y023046D01*
D02*
G37*
G36*
X020100D02*
X020059Y023041D01*
X019973Y023006D01*
X019900Y022950D01*
X019844Y022877D01*
X019809Y022791D01*
X019804Y022750D01*
X020100D01*
Y023046D01*
D02*
G37*
G36*
X017550D02*
Y022750D01*
X017846D01*
X017841Y022791D01*
X017806Y022877D01*
X017750Y022950D01*
X017677Y023006D01*
X017591Y023041D01*
X017550Y023046D01*
D02*
G37*
G36*
X023850Y024096D02*
X023809Y024091D01*
X023723Y024056D01*
X023650Y024000D01*
X023594Y023927D01*
X023559Y023841D01*
X023554Y023800D01*
X023850D01*
Y024096D01*
D02*
G37*
G36*
X033450Y023996D02*
Y023700D01*
X033746D01*
X033741Y023741D01*
X033706Y023827D01*
X033650Y023900D01*
X033577Y023956D01*
X033491Y023991D01*
X033450Y023996D01*
D02*
G37*
G36*
X023950Y024096D02*
Y023800D01*
X024246D01*
X024241Y023841D01*
X024206Y023927D01*
X024150Y024000D01*
X024077Y024056D01*
X023991Y024091D01*
X023950Y024096D01*
D02*
G37*
G36*
X027096Y024500D02*
X026800D01*
Y024204D01*
X026841Y024209D01*
X026927Y024244D01*
X027000Y024300D01*
X027056Y024373D01*
X027091Y024459D01*
X027096Y024500D01*
D02*
G37*
G36*
X026700D02*
X026404D01*
X026409Y024459D01*
X026444Y024373D01*
X026500Y024300D01*
X026573Y024244D01*
X026659Y024209D01*
X026700Y024204D01*
Y024500D01*
D02*
G37*
G36*
X033350Y023996D02*
X033309Y023991D01*
X033223Y023956D01*
X033150Y023900D01*
X033094Y023827D01*
X033059Y023741D01*
X033054Y023700D01*
X033350D01*
Y023996D01*
D02*
G37*
G36*
X026500Y023696D02*
X026459Y023691D01*
X026373Y023656D01*
X026300Y023600D01*
X026244Y023527D01*
X026209Y023441D01*
X026204Y023400D01*
X026500D01*
Y023696D01*
D02*
G37*
G36*
X033746Y023600D02*
X033450D01*
Y023304D01*
X033491Y023309D01*
X033577Y023344D01*
X033650Y023400D01*
X033706Y023473D01*
X033741Y023559D01*
X033746Y023600D01*
D02*
G37*
G36*
X026600Y023696D02*
Y023400D01*
X026896D01*
X026891Y023441D01*
X026856Y023527D01*
X026800Y023600D01*
X026727Y023656D01*
X026641Y023691D01*
X026600Y023696D01*
D02*
G37*
G36*
X024246Y023700D02*
X023950D01*
Y023404D01*
X023991Y023409D01*
X024077Y023444D01*
X024150Y023500D01*
X024206Y023573D01*
X024241Y023659D01*
X024246Y023700D01*
D02*
G37*
G36*
X023850D02*
X023554D01*
X023559Y023659D01*
X023594Y023573D01*
X023650Y023500D01*
X023723Y023444D01*
X023809Y023409D01*
X023850Y023404D01*
Y023700D01*
D02*
G37*
%LPD*%
D22*
X026055Y040045D02*
X030645D01*
X025650Y040450D02*
X026055Y040045D01*
X024550Y040450D02*
X025650D01*
X030645Y040045D02*
X032350Y041750D01*
Y044050D01*
X031976Y044424D02*
X032350Y044050D01*
X031976Y044424D02*
Y045476D01*
X021150Y020550D02*
X022050D01*
X020950Y020350D02*
X021150Y020550D01*
X022050D02*
X022126Y020474D01*
X022626D01*
X020250Y020350D02*
X020950D01*
X020050Y020550D02*
X020250Y020350D01*
X020050Y020550D02*
Y021550D01*
X020450Y021950D01*
X022550Y020550D02*
X022626Y020474D01*
X029650Y042950D02*
X031350D01*
X029150Y042450D02*
X029650Y042950D01*
X024550Y042450D02*
X029150D01*
X021600Y025450D02*
X022800Y024250D01*
X020900Y025450D02*
X021600D01*
X020850Y020900D02*
X023800D01*
X021650Y022200D02*
X022350D01*
X020850Y021400D02*
X021650Y022200D01*
X022800Y021900D02*
Y024250D01*
Y021900D02*
X023200Y021500D01*
X023900D01*
X026550Y020650D02*
X032350D01*
X031650Y021650D02*
X032350D01*
X030750Y022550D02*
X031650Y021650D01*
X026200Y022550D02*
X030750D01*
X025850Y022200D02*
X026200Y022550D01*
X023800Y020900D02*
X024300Y021400D01*
Y022500D01*
X024500Y022700D01*
X025350D01*
X025850Y022200D01*
X025000D02*
X026550Y020650D01*
X024650Y022200D02*
X025000D01*
X024950Y025400D02*
Y025450D01*
D23*
X022500Y025750D02*
Y026850D01*
X024950Y025450D02*
X026500Y027000D01*
X028200D01*
X022500Y025750D02*
X022850Y025400D01*
D25*
X020450Y021950D02*
D03*
X022626Y020474D02*
D03*
X031976Y045476D02*
D03*
X020850Y020900D02*
D03*
Y021400D02*
D03*
X023900Y021500D02*
D03*
X024650Y022200D02*
D03*
X025850D02*
D03*
X022350D02*
D03*
X022500Y026850D02*
D03*
X028200Y027000D02*
D03*
X024953Y025397D02*
D03*
X022850Y025400D02*
D03*
D26*
X026650Y039450D02*
D03*
X018850Y044150D02*
D03*
X034250Y041250D02*
D03*
X032350Y021650D02*
D03*
X021450Y019100D02*
D03*
X034450Y026200D02*
D03*
X018450Y025200D02*
D03*
X026350Y033350D02*
D03*
D27*
X026650Y040450D02*
D03*
Y041450D02*
D03*
X029150Y039450D02*
D03*
X030150D02*
D03*
X018850Y045150D02*
D03*
X034250Y042250D02*
D03*
Y043250D02*
D03*
X032350Y019650D02*
D03*
Y020650D02*
D03*
X021450Y020100D02*
D03*
X034450Y025200D02*
D03*
X018450Y026200D02*
D03*
X025300Y019700D02*
D03*
X026300D02*
D03*
X028600D02*
D03*
X026350Y034350D02*
D03*
Y035350D02*
D03*
Y036350D02*
D03*
D28*
X028150Y039450D02*
D03*
X027300Y019700D02*
D03*
X029600D02*
D03*
D29*
X020251Y043450D02*
D03*
D30*
Y042450D02*
D03*
Y041450D02*
D03*
Y040450D02*
D03*
X024550Y043450D02*
D03*
Y042450D02*
D03*
Y041450D02*
D03*
Y040450D02*
D03*
D31*
X031350Y042450D02*
D03*
Y043450D02*
D03*
D32*
Y042950D02*
D03*
D33*
X027833Y022083D02*
D03*
X028266D02*
D03*
X027400D02*
D03*
X027417Y021683D02*
D03*
X027833D02*
D03*
X028283D02*
D03*
Y021250D02*
D03*
X027850D02*
D03*
X027417D02*
D03*
X030100Y025850D02*
D03*
X030533D02*
D03*
X029667D02*
D03*
X029684Y025450D02*
D03*
X030100D02*
D03*
X030550D02*
D03*
Y025017D02*
D03*
X030117D02*
D03*
X029684D02*
D03*
D34*
X020950Y036350D02*
D03*
Y032350D02*
D03*
D35*
X020900Y025450D02*
D03*
X017900Y018650D02*
D03*
X017500Y021800D02*
D03*
Y022700D02*
D03*
X026750Y024550D02*
D03*
X020150Y022700D02*
D03*
X023900Y022850D02*
D03*
Y023750D02*
D03*
X026550Y023350D02*
D03*
X022500Y018850D02*
D03*
X033400Y023650D02*
D03*
M02*
