Removed Pin From Net: NetName=GND Pin=U1_3V3-9
Removed Pin From Net: NetName=GND Pin=U1_5V-9
Change Component Footprint: Designator=U1_3V3 Old Footprint=LT6108 DFN (2mmx3mm) New Footprint=LT6108 8-Lead MSOP
Change Component Footprint: Designator=U1_5V Old Footprint=LT6108 DFN (2mmx3mm) New Footprint=LT6108 8-Lead MSOP
