Added Component: Designator=P_POT_MANUAL(HDR1X2)
Added Pin To Net: NetName=POT_MANUAL Pin=P_POT_MANUAL-1
Added Pin To Net: NetName=GND Pin=P_POT_MANUAL-2
Added Member To Class: ClassName=POWER_CONTROL_rev6 Member=Component P_POT_MANUAL PotControl
