Added Component: Designator=P_3V3_CURRENT(HDR1X2)
Added Component: Designator=P_5V_CURRENT(HDR1X2)
Added Pin To Net: NetName=GND Pin=P_3V3_CURRENT-1
Added Pin To Net: NetName=3V3_OUTA Pin=P_3V3_CURRENT-2
Added Pin To Net: NetName=GND Pin=P_5V_CURRENT-1
Added Pin To Net: NetName=3V3_OUTA Pin=P_5V_CURRENT-2
Added Member To Class: ClassName=POWER_CONTROL_rev6 Member=Component P_3V3_CURRENT CurrentOut
Added Member To Class: ClassName=POWER_CONTROL_rev6 Member=Component P_5V_CURRENT CurrentOut
