Removed Pin From Net: NetName=GND Pin=C_POT_HI-1
Removed Pin From Net: NetName=5V_IN Pin=C_POT_HI-2
Removed Pin From Net: NetName=GND Pin=C_POT_LO-1
Removed Pin From Net: NetName=5V_IN Pin=C_POT_LO-2
Removed Pin From Net: NetName=5V_OUTA Pin=U2_POT-1
Removed Pin From Net: NetName=GND Pin=U2_POT-2
Removed Pin From Net: NetName=5V_INC Pin=U2_POT-3
Removed Pin From Net: NetName=GND Pin=U2_POT-5
Removed Pin From Net: NetName=SCL Pin=U2_POT-6
Removed Pin From Net: NetName=SDA Pin=U2_POT-7
Removed Pin From Net: NetName=GND Pin=U2_POT-8
Removed Pin From Net: NetName=5V_IN Pin=U2_POT-15
Removed Pin From Net: NetName=5V_IN Pin=U2_POT-16
Removed Pin From Net: NetName=GND Pin=U2_POT-17
Change Component DesignItemId : Designator=U2_POT Old DesignItemId=ISL22326 QFN New DesignItemId=ISL22326 TSSOP
Change Component Footprint: Designator=U2_POT Old Footprint=ISL22326 New Footprint=ISL22326 TSSOP
Change Component Comment : Designator=U2_POT Old Comment=ISL22326 QFN New Comment=ISL22326 TSSOP
Change Component Comment : Designator=U3_ADC Old Comment=LTC2301 New Comment=LTC2305
Added Pin To Net: NetName=5V_IN Pin=C_POT_HI-1
Added Pin To Net: NetName=GND Pin=C_POT_HI-2
Added Pin To Net: NetName=5V_IN Pin=C_POT_LO-1
Added Pin To Net: NetName=GND Pin=C_POT_LO-2
Added Pin To Net: NetName=5V_IN Pin=U2_POT-1
Added Pin To Net: NetName=5V_IN Pin=U2_POT-2
Added Pin To Net: NetName=5V_OUTA Pin=U2_POT-3
Added Pin To Net: NetName=GND Pin=U2_POT-4
Added Pin To Net: NetName=5V_INC Pin=U2_POT-5
Added Pin To Net: NetName=GND Pin=U2_POT-6
Added Pin To Net: NetName=SCL Pin=U2_POT-7
Added Pin To Net: NetName=SDA Pin=U2_POT-8
Added Pin To Net: NetName=GND Pin=U2_POT-9
Added Room: Name=POWER_CONTROL_rev6
