G04 Layer_Physical_Order=1*
G04 Layer_Color=255*
%FSAX24Y24*%
%MOIN*%
G70*
G01*
G75*
%ADD10R,0.0500X0.0400*%
%ADD11R,0.0413X0.0236*%
%ADD12R,0.0400X0.0500*%
%ADD13R,0.0472X0.0472*%
%ADD14R,0.0472X0.0472*%
%ADD15R,0.0630X0.0157*%
%ADD16R,0.1500X0.1539*%
%ADD17R,0.0598X0.0240*%
%ADD18R,0.0500X0.0240*%
%ADD19R,0.0394X0.0276*%
%ADD20O,0.0118X0.0571*%
%ADD21R,0.0689X0.0433*%
%ADD22C,0.0100*%
%ADD23C,0.0300*%
%ADD24C,0.0200*%
%ADD25C,0.0300*%
%ADD26R,0.0591X0.0591*%
%ADD27C,0.0591*%
%ADD28R,0.0591X0.0591*%
%ADD29R,0.0984X0.0472*%
%ADD30O,0.0984X0.0472*%
%ADD31O,0.0787X0.0394*%
%ADD32O,0.0787X0.0394*%
%ADD33C,0.0197*%
%ADD34C,0.0551*%
%ADD35C,0.0500*%
G36*
X036350Y029050D02*
X015750D01*
Y037150D01*
X036350D01*
Y029050D01*
D02*
G37*
G36*
X019000Y018050D02*
X016900D01*
Y020013D01*
X017512D01*
Y019986D01*
Y019736D01*
Y019554D01*
X017472D01*
Y019425D01*
X018302D01*
Y019554D01*
X018262D01*
Y019736D01*
Y019986D01*
Y020236D01*
Y020446D01*
X018302D01*
Y020575D01*
X017472D01*
Y020446D01*
X017512D01*
Y020237D01*
X016900D01*
Y023300D01*
X019000D01*
Y018050D01*
D02*
G37*
G36*
X036350Y038650D02*
X015550D01*
Y048150D01*
X036350D01*
Y038650D01*
D02*
G37*
%LPC*%
G36*
X023600Y032450D02*
X023300D01*
Y032200D01*
X023600D01*
Y032450D01*
D02*
G37*
G36*
X023200D02*
X022900D01*
Y032200D01*
X023200D01*
Y032450D01*
D02*
G37*
G36*
X023600Y032800D02*
X023300D01*
Y032550D01*
X023600D01*
Y032800D01*
D02*
G37*
G36*
X023200D02*
X022900D01*
Y032550D01*
X023200D01*
Y032800D01*
D02*
G37*
G36*
X023560Y031960D02*
X022940D01*
Y031440D01*
X023560D01*
Y031588D01*
X024204D01*
Y031354D01*
X024796D01*
Y031946D01*
X024204D01*
Y031812D01*
X023560D01*
Y031960D01*
D02*
G37*
G36*
X017550Y023046D02*
Y022750D01*
X017846D01*
X017841Y022791D01*
X017806Y022877D01*
X017750Y022950D01*
X017677Y023006D01*
X017591Y023041D01*
X017550Y023046D01*
D02*
G37*
G36*
X017450D02*
X017409Y023041D01*
X017323Y023006D01*
X017250Y022950D01*
X017194Y022877D01*
X017159Y022791D01*
X017154Y022750D01*
X017450D01*
Y023046D01*
D02*
G37*
G36*
X018850Y022950D02*
X018600D01*
Y022650D01*
X018850D01*
Y022950D01*
D02*
G37*
G36*
X018500D02*
X018250D01*
Y022650D01*
X018500D01*
Y022950D01*
D02*
G37*
G36*
X026300Y033300D02*
X025955D01*
Y032955D01*
X026300D01*
Y033300D01*
D02*
G37*
G36*
X023600Y035700D02*
X023350D01*
Y035400D01*
X023600D01*
Y035700D01*
D02*
G37*
G36*
X023950Y035300D02*
X023700D01*
Y035000D01*
X023950D01*
Y035300D01*
D02*
G37*
G36*
Y035700D02*
X023700D01*
Y035400D01*
X023950D01*
Y035700D01*
D02*
G37*
G36*
X026350Y036708D02*
X026257Y036696D01*
X026171Y036660D01*
X026097Y036603D01*
X026040Y036529D01*
X026012Y036462D01*
X021267D01*
X021243Y036519D01*
X021189Y036589D01*
X021119Y036643D01*
X021038Y036677D01*
X020950Y036688D01*
X020862Y036677D01*
X020781Y036643D01*
X020711Y036589D01*
X020657Y036519D01*
X020623Y036438D01*
X020612Y036350D01*
X020623Y036262D01*
X020657Y036181D01*
X020711Y036111D01*
X020781Y036057D01*
X020862Y036023D01*
X020950Y036012D01*
X021038Y036023D01*
X021119Y036057D01*
X021189Y036111D01*
X021243Y036181D01*
X021267Y036238D01*
X026012D01*
X026040Y036171D01*
X026097Y036097D01*
X026171Y036040D01*
X026257Y036004D01*
X026350Y035992D01*
X026443Y036004D01*
X026529Y036040D01*
X026603Y036097D01*
X026660Y036171D01*
X026696Y036257D01*
X026708Y036350D01*
X026696Y036443D01*
X026660Y036529D01*
X026603Y036603D01*
X026529Y036660D01*
X026443Y036696D01*
X026350Y036708D01*
D02*
G37*
G36*
Y035708D02*
X026257Y035696D01*
X026171Y035660D01*
X026097Y035603D01*
X026040Y035529D01*
X026012Y035462D01*
X024710D01*
Y035660D01*
X024190D01*
Y035040D01*
X024322D01*
X024331Y034990D01*
X021804Y032462D01*
X021267D01*
X021243Y032519D01*
X021189Y032589D01*
X021119Y032643D01*
X021038Y032677D01*
X020950Y032688D01*
X020862Y032677D01*
X020781Y032643D01*
X020711Y032589D01*
X020657Y032519D01*
X020623Y032438D01*
X020612Y032350D01*
X020623Y032262D01*
X020657Y032181D01*
X020711Y032111D01*
X020781Y032057D01*
X020862Y032023D01*
X020950Y032012D01*
X021038Y032023D01*
X021119Y032057D01*
X021189Y032111D01*
X021243Y032181D01*
X021267Y032238D01*
X021850D01*
X021850Y032238D01*
X021893Y032246D01*
X021929Y032271D01*
X024529Y034871D01*
X024529Y034871D01*
X024554Y034907D01*
X024562Y034950D01*
Y035040D01*
X024710D01*
Y035238D01*
X026012D01*
X026040Y035171D01*
X026097Y035097D01*
X026171Y035040D01*
X026257Y035004D01*
X026350Y034992D01*
X026443Y035004D01*
X026529Y035040D01*
X026603Y035097D01*
X026660Y035171D01*
X026696Y035257D01*
X026708Y035350D01*
X026696Y035443D01*
X026660Y035529D01*
X026603Y035603D01*
X026529Y035660D01*
X026443Y035696D01*
X026350Y035708D01*
D02*
G37*
G36*
X026300Y033745D02*
X025955D01*
Y033400D01*
X026300D01*
Y033745D01*
D02*
G37*
G36*
X026745Y033300D02*
X026400D01*
Y032955D01*
X026745D01*
Y033300D01*
D02*
G37*
G36*
Y033745D02*
X026400D01*
Y033400D01*
X026745D01*
Y033745D01*
D02*
G37*
G36*
X023600Y035300D02*
X023350D01*
Y035000D01*
X023600D01*
Y035300D01*
D02*
G37*
G36*
X026350Y034708D02*
X026257Y034696D01*
X026171Y034660D01*
X026097Y034603D01*
X026040Y034529D01*
X026012Y034462D01*
X025250D01*
X025207Y034454D01*
X025171Y034429D01*
X025171Y034429D01*
X024421Y033679D01*
X024396Y033643D01*
X024388Y033600D01*
X024388Y033600D01*
Y032773D01*
X024204D01*
Y032181D01*
X024796D01*
Y032773D01*
X024612D01*
Y033554D01*
X025296Y034238D01*
X026012D01*
X026040Y034171D01*
X026097Y034097D01*
X026171Y034040D01*
X026257Y034004D01*
X026350Y033992D01*
X026443Y034004D01*
X026529Y034040D01*
X026603Y034097D01*
X026660Y034171D01*
X026696Y034257D01*
X026708Y034350D01*
X026696Y034443D01*
X026660Y034529D01*
X026603Y034603D01*
X026529Y034660D01*
X026443Y034696D01*
X026350Y034708D01*
D02*
G37*
G36*
X018302Y021075D02*
X017472D01*
Y020946D01*
Y020925D01*
X018302D01*
Y020946D01*
Y021075D01*
D02*
G37*
G36*
Y020825D02*
X017472D01*
Y020696D01*
Y020675D01*
X018302D01*
Y020696D01*
Y020825D01*
D02*
G37*
G36*
X017837Y021304D02*
X017472D01*
Y021175D01*
X017837D01*
Y021304D01*
D02*
G37*
G36*
X018500Y021750D02*
X018250D01*
Y021450D01*
X018500D01*
Y021750D01*
D02*
G37*
G36*
X018302Y021304D02*
X017937D01*
Y021175D01*
X018302D01*
Y021304D01*
D02*
G37*
G36*
Y019325D02*
X017937D01*
Y019196D01*
X018302D01*
Y019325D01*
D02*
G37*
G36*
X018246Y018600D02*
X017950D01*
Y018304D01*
X017991Y018309D01*
X018077Y018344D01*
X018150Y018400D01*
X018206Y018473D01*
X018241Y018559D01*
X018246Y018600D01*
D02*
G37*
G36*
X017850D02*
X017554D01*
X017559Y018559D01*
X017594Y018473D01*
X017650Y018400D01*
X017723Y018344D01*
X017809Y018309D01*
X017850Y018304D01*
Y018600D01*
D02*
G37*
G36*
Y018996D02*
X017809Y018991D01*
X017723Y018956D01*
X017650Y018900D01*
X017594Y018827D01*
X017559Y018741D01*
X017554Y018700D01*
X017850D01*
Y018996D01*
D02*
G37*
G36*
X017837Y019325D02*
X017472D01*
Y019196D01*
X017837D01*
Y019325D01*
D02*
G37*
G36*
X017950Y018996D02*
Y018700D01*
X018246D01*
X018241Y018741D01*
X018206Y018827D01*
X018150Y018900D01*
X018077Y018956D01*
X017991Y018991D01*
X017950Y018996D01*
D02*
G37*
G36*
X018500Y022550D02*
X018250D01*
Y022250D01*
X018500D01*
Y022550D01*
D02*
G37*
G36*
X018850Y022150D02*
X018600D01*
Y021850D01*
X018850D01*
Y022150D01*
D02*
G37*
G36*
Y022550D02*
X018600D01*
Y022250D01*
X018850D01*
Y022550D01*
D02*
G37*
G36*
X017846Y022650D02*
X017550D01*
Y022354D01*
X017591Y022359D01*
X017677Y022394D01*
X017750Y022450D01*
X017806Y022523D01*
X017841Y022609D01*
X017846Y022650D01*
D02*
G37*
G36*
X017450D02*
X017154D01*
X017159Y022609D01*
X017194Y022523D01*
X017250Y022450D01*
X017323Y022394D01*
X017409Y022359D01*
X017450Y022354D01*
Y022650D01*
D02*
G37*
G36*
X018500Y022150D02*
X018250D01*
Y021850D01*
X018500D01*
Y022150D01*
D02*
G37*
G36*
X017450Y021750D02*
X017154D01*
X017159Y021709D01*
X017194Y021623D01*
X017250Y021550D01*
X017323Y021494D01*
X017409Y021459D01*
X017450Y021454D01*
Y021750D01*
D02*
G37*
G36*
X018850D02*
X018600D01*
Y021450D01*
X018850D01*
Y021750D01*
D02*
G37*
G36*
X017846D02*
X017550D01*
Y021454D01*
X017591Y021459D01*
X017677Y021494D01*
X017750Y021550D01*
X017806Y021623D01*
X017841Y021709D01*
X017846Y021750D01*
D02*
G37*
G36*
X017550Y022146D02*
Y021850D01*
X017846D01*
X017841Y021891D01*
X017806Y021977D01*
X017750Y022050D01*
X017677Y022106D01*
X017591Y022141D01*
X017550Y022146D01*
D02*
G37*
G36*
X017450D02*
X017409Y022141D01*
X017323Y022106D01*
X017250Y022050D01*
X017194Y021977D01*
X017159Y021891D01*
X017154Y021850D01*
X017450D01*
Y022146D01*
D02*
G37*
G36*
X018800Y044100D02*
X018455D01*
Y043755D01*
X018800D01*
Y044100D01*
D02*
G37*
G36*
X034300Y043642D02*
Y043300D01*
X034642D01*
X034635Y043353D01*
X034595Y043449D01*
X034532Y043532D01*
X034449Y043595D01*
X034353Y043635D01*
X034300Y043642D01*
D02*
G37*
G36*
X019245Y044100D02*
X018900D01*
Y043755D01*
X019245D01*
Y044100D01*
D02*
G37*
G36*
X026200Y044200D02*
X025900D01*
Y043950D01*
X026200D01*
Y044200D01*
D02*
G37*
G36*
X025800D02*
X025500D01*
Y043950D01*
X025800D01*
Y044200D01*
D02*
G37*
G36*
X034200Y043642D02*
X034147Y043635D01*
X034051Y043595D01*
X033968Y043532D01*
X033905Y043449D01*
X033865Y043353D01*
X033858Y043300D01*
X034200D01*
Y043642D01*
D02*
G37*
G36*
X026310Y042760D02*
X025790D01*
Y042562D01*
X025080D01*
X025065Y042599D01*
X025017Y042661D01*
X024955Y042709D01*
X024883Y042739D01*
X024806Y042749D01*
X024294D01*
X024217Y042739D01*
X024145Y042709D01*
X024083Y042661D01*
X024035Y042599D01*
X024005Y042527D01*
X023995Y042450D01*
X024005Y042373D01*
X024035Y042301D01*
X024083Y042239D01*
X024145Y042191D01*
X024217Y042161D01*
X024294Y042151D01*
X024806D01*
X024883Y042161D01*
X024955Y042191D01*
X025017Y042239D01*
X025065Y042301D01*
X025080Y042338D01*
X025790D01*
Y042140D01*
X026310D01*
Y042760D01*
D02*
G37*
G36*
X020507Y042749D02*
X019995D01*
X019918Y042739D01*
X019845Y042709D01*
X019784Y042661D01*
X019736Y042599D01*
X019706Y042527D01*
X019696Y042450D01*
X019706Y042373D01*
X019736Y042301D01*
X019784Y042239D01*
X019845Y042191D01*
X019918Y042161D01*
X019995Y042151D01*
X020507D01*
X020584Y042161D01*
X020656Y042191D01*
X020718Y042239D01*
X020765Y042301D01*
X020795Y042373D01*
X020805Y042450D01*
X020795Y042527D01*
X020765Y042599D01*
X020718Y042661D01*
X020656Y042709D01*
X020584Y042739D01*
X020507Y042749D01*
D02*
G37*
G36*
X034200Y043200D02*
X033858D01*
X033865Y043147D01*
X033905Y043051D01*
X033968Y042968D01*
X034051Y042905D01*
X034147Y042865D01*
X034200Y042858D01*
Y043200D01*
D02*
G37*
G36*
X020803Y043746D02*
X019699D01*
Y043154D01*
X020803D01*
Y043746D01*
D02*
G37*
G36*
X034642Y043200D02*
X034300D01*
Y042858D01*
X034353Y042865D01*
X034449Y042905D01*
X034532Y042968D01*
X034595Y043051D01*
X034635Y043147D01*
X034642Y043200D01*
D02*
G37*
G36*
X027200Y044550D02*
X026900D01*
Y044300D01*
X027200D01*
Y044550D01*
D02*
G37*
G36*
X026800D02*
X026500D01*
Y044300D01*
X026800D01*
Y044550D01*
D02*
G37*
G36*
X031976Y045690D02*
X031894Y045674D01*
X031825Y045627D01*
X031778Y045558D01*
X031762Y045476D01*
X031778Y045394D01*
X031825Y045325D01*
X031894Y045278D01*
X031976Y045262D01*
X032058Y045278D01*
X032127Y045325D01*
X032154Y045364D01*
X033162D01*
Y045298D01*
X033695D01*
Y045654D01*
X033162D01*
Y045588D01*
X032154D01*
X032127Y045627D01*
X032058Y045674D01*
X031976Y045690D01*
D02*
G37*
G36*
X029576Y046438D02*
X024724D01*
X024642Y046422D01*
X024573Y046375D01*
X023561Y045364D01*
X019134D01*
X019103Y045403D01*
X019029Y045460D01*
X018943Y045496D01*
X018850Y045508D01*
X018757Y045496D01*
X018671Y045460D01*
X018597Y045403D01*
X018540Y045329D01*
X018504Y045243D01*
X018492Y045150D01*
X018504Y045057D01*
X018540Y044971D01*
X018597Y044897D01*
X018671Y044840D01*
X018757Y044804D01*
X018850Y044792D01*
X018943Y044804D01*
X019029Y044840D01*
X019103Y044897D01*
X019134Y044936D01*
X023650D01*
X023732Y044952D01*
X023801Y044999D01*
X024813Y046010D01*
X029487D01*
X030136Y045361D01*
Y044450D01*
X030145Y044404D01*
X029804Y044062D01*
X028850D01*
X028850Y044062D01*
X028807Y044054D01*
X028771Y044029D01*
X028771Y044029D01*
X028304Y043562D01*
X027160D01*
Y043710D01*
X026540D01*
Y043562D01*
X026160D01*
Y043710D01*
X025540D01*
Y043562D01*
X025080D01*
X025065Y043599D01*
X025017Y043661D01*
X024955Y043709D01*
X024883Y043739D01*
X024806Y043749D01*
X024294D01*
X024217Y043739D01*
X024145Y043709D01*
X024083Y043661D01*
X024035Y043599D01*
X024005Y043527D01*
X023995Y043450D01*
X024005Y043373D01*
X024035Y043301D01*
X024083Y043239D01*
X024145Y043191D01*
X024217Y043161D01*
X024294Y043151D01*
X024806D01*
X024883Y043161D01*
X024955Y043191D01*
X025017Y043239D01*
X025065Y043301D01*
X025080Y043338D01*
X025540D01*
Y043190D01*
X026160D01*
Y043338D01*
X026540D01*
Y043190D01*
X026738D01*
Y042760D01*
X026590D01*
Y042140D01*
X027110D01*
Y042760D01*
X026962D01*
Y043190D01*
X027160D01*
Y043338D01*
X028304D01*
X029085Y042556D01*
X029066Y042510D01*
X029040D01*
Y041990D01*
X029660D01*
Y042138D01*
X030104D01*
X030238Y042004D01*
Y040696D01*
X029310Y039768D01*
X029243Y039796D01*
X029150Y039808D01*
X029057Y039796D01*
X028971Y039760D01*
X028897Y039703D01*
X028840Y039629D01*
X028804Y039543D01*
X028792Y039450D01*
X028804Y039357D01*
X028840Y039271D01*
X028897Y039197D01*
X028971Y039140D01*
X029057Y039104D01*
X029150Y039092D01*
X029243Y039104D01*
X029329Y039140D01*
X029403Y039197D01*
X029460Y039271D01*
X029496Y039357D01*
X029508Y039450D01*
X029496Y039543D01*
X029468Y039610D01*
X030429Y040571D01*
X030429Y040571D01*
X030454Y040607D01*
X030462Y040650D01*
Y042050D01*
X030462Y042050D01*
X030454Y042093D01*
X030429Y042129D01*
X030429Y042129D01*
X030229Y042329D01*
X030193Y042354D01*
X030150Y042362D01*
X030150Y042362D01*
X029660D01*
Y042510D01*
X029442D01*
X029429Y042529D01*
X029429Y042529D01*
X028509Y043450D01*
X028896Y043838D01*
X029850D01*
X029850Y043838D01*
X029893Y043846D01*
X029929Y043871D01*
X030253Y044194D01*
X030303D01*
X030926Y043572D01*
X030903Y043517D01*
X030894Y043450D01*
X030903Y043383D01*
X030929Y043320D01*
X030970Y043267D01*
X031021Y043227D01*
X031025Y043201D01*
Y043199D01*
X031021Y043173D01*
X030970Y043133D01*
X030929Y043080D01*
X030903Y043017D01*
X030894Y042950D01*
X030903Y042883D01*
X030929Y042820D01*
X030970Y042767D01*
X031021Y042727D01*
X031025Y042701D01*
Y042699D01*
X031021Y042673D01*
X030970Y042633D01*
X030929Y042580D01*
X030903Y042517D01*
X030894Y042450D01*
X030903Y042383D01*
X030929Y042320D01*
X030970Y042267D01*
X031024Y042226D01*
X031086Y042200D01*
X031153Y042191D01*
X031187D01*
Y041210D01*
X031040D01*
Y040690D01*
X031660D01*
Y041210D01*
X031513D01*
Y041919D01*
X031559Y041938D01*
X032399Y041099D01*
X032468Y041052D01*
X032550Y041036D01*
X033895D01*
Y040895D01*
X034605D01*
Y041605D01*
X033895D01*
Y041464D01*
X032639D01*
X031774Y042328D01*
X031797Y042383D01*
X031806Y042450D01*
X031797Y042517D01*
X031771Y042580D01*
X031730Y042633D01*
X031679Y042673D01*
X031675Y042699D01*
Y042701D01*
X031679Y042727D01*
X031730Y042767D01*
X031771Y042820D01*
X031797Y042883D01*
X031806Y042950D01*
X031797Y043017D01*
X031771Y043080D01*
X031730Y043133D01*
X031679Y043173D01*
X031675Y043199D01*
Y043201D01*
X031679Y043227D01*
X031730Y043267D01*
X031771Y043320D01*
X031797Y043383D01*
X031806Y043450D01*
X031797Y043517D01*
X031771Y043580D01*
X031730Y043633D01*
X031676Y043674D01*
X031614Y043700D01*
X031547Y043709D01*
X031394D01*
X030564Y044539D01*
Y045450D01*
X030555Y045496D01*
X031170Y046112D01*
X033162D01*
Y046046D01*
X033695D01*
Y046402D01*
X033162D01*
Y046336D01*
X031124D01*
X031124Y046336D01*
X031081Y046328D01*
X031045Y046303D01*
X030422Y045681D01*
X029727Y046375D01*
X029658Y046422D01*
X029576Y046438D01*
D02*
G37*
G36*
X034738Y046028D02*
X034205D01*
Y045672D01*
X034738D01*
Y046028D01*
D02*
G37*
G36*
X026200Y044550D02*
X025900D01*
Y044300D01*
X026200D01*
Y044550D01*
D02*
G37*
G36*
X027200Y044200D02*
X026900D01*
Y043950D01*
X027200D01*
Y044200D01*
D02*
G37*
G36*
X026800D02*
X026500D01*
Y043950D01*
X026800D01*
Y044200D01*
D02*
G37*
G36*
X018800Y044545D02*
X018455D01*
Y044200D01*
X018800D01*
Y044545D01*
D02*
G37*
G36*
X025800Y044550D02*
X025500D01*
Y044300D01*
X025800D01*
Y044550D01*
D02*
G37*
G36*
X019245Y044545D02*
X018900D01*
Y044200D01*
X019245D01*
Y044545D01*
D02*
G37*
G36*
X034250Y042608D02*
X034157Y042596D01*
X034071Y042560D01*
X033997Y042503D01*
X033940Y042429D01*
X033904Y042343D01*
X033892Y042250D01*
X033904Y042157D01*
X033940Y042071D01*
X033997Y041997D01*
X034071Y041940D01*
X034157Y041904D01*
X034250Y041892D01*
X034343Y041904D01*
X034429Y041940D01*
X034503Y041997D01*
X034560Y042071D01*
X034596Y042157D01*
X034608Y042250D01*
X034596Y042343D01*
X034560Y042429D01*
X034503Y042503D01*
X034429Y042560D01*
X034343Y042596D01*
X034250Y042608D01*
D02*
G37*
G36*
X024806Y041749D02*
X024294D01*
X024217Y041739D01*
X024145Y041709D01*
X024083Y041661D01*
X024035Y041599D01*
X024005Y041527D01*
X023995Y041450D01*
X024005Y041373D01*
X024035Y041301D01*
X024083Y041239D01*
X024145Y041191D01*
X024217Y041161D01*
X024294Y041151D01*
X024806D01*
X024883Y041161D01*
X024955Y041191D01*
X025017Y041239D01*
X025065Y041301D01*
X025080Y041338D01*
X025604D01*
X026332Y040610D01*
X026304Y040543D01*
X026292Y040450D01*
X026304Y040357D01*
X026340Y040271D01*
X026397Y040197D01*
X026471Y040140D01*
X026557Y040104D01*
X026650Y040092D01*
X026743Y040104D01*
X026829Y040140D01*
X026903Y040197D01*
X026960Y040271D01*
X026996Y040357D01*
X027008Y040450D01*
X026996Y040543D01*
X026960Y040629D01*
X026903Y040703D01*
X026829Y040760D01*
X026743Y040796D01*
X026650Y040808D01*
X026557Y040796D01*
X026490Y040768D01*
X025729Y041529D01*
X025693Y041554D01*
X025650Y041562D01*
X025650Y041562D01*
X025080D01*
X025065Y041599D01*
X025017Y041661D01*
X024955Y041709D01*
X024883Y041739D01*
X024806Y041749D01*
D02*
G37*
G36*
X033486Y040100D02*
X033200D01*
Y039814D01*
X033486D01*
Y040100D01*
D02*
G37*
G36*
X020201Y040400D02*
X019662D01*
X019667Y040362D01*
X019701Y040280D01*
X019755Y040210D01*
X019825Y040156D01*
X019907Y040122D01*
X019995Y040111D01*
X020201D01*
Y040400D01*
D02*
G37*
G36*
X024806Y040749D02*
X024294D01*
X024217Y040739D01*
X024145Y040709D01*
X024083Y040661D01*
X024035Y040599D01*
X024005Y040527D01*
X023995Y040450D01*
X024005Y040373D01*
X024035Y040301D01*
X024083Y040239D01*
X024145Y040191D01*
X024217Y040161D01*
X024294Y040151D01*
X024806D01*
X024883Y040161D01*
X024955Y040191D01*
X025017Y040239D01*
X025065Y040301D01*
X025094Y040373D01*
X025105Y040450D01*
X025094Y040527D01*
X025065Y040599D01*
X025017Y040661D01*
X024955Y040709D01*
X024883Y040739D01*
X024806Y040749D01*
D02*
G37*
G36*
X020839Y040400D02*
X020301D01*
Y040111D01*
X020507D01*
X020594Y040122D01*
X020676Y040156D01*
X020746Y040210D01*
X020800Y040280D01*
X020834Y040362D01*
X020839Y040400D01*
D02*
G37*
G36*
X033100Y040100D02*
X032814D01*
Y039814D01*
X033100D01*
Y040100D01*
D02*
G37*
G36*
X030542Y039400D02*
X030200D01*
Y039058D01*
X030253Y039065D01*
X030349Y039105D01*
X030432Y039168D01*
X030495Y039251D01*
X030535Y039347D01*
X030542Y039400D01*
D02*
G37*
G36*
X030100D02*
X029758D01*
X029765Y039347D01*
X029805Y039251D01*
X029868Y039168D01*
X029951Y039105D01*
X030047Y039065D01*
X030100Y039058D01*
Y039400D01*
D02*
G37*
G36*
Y039842D02*
X030047Y039835D01*
X029951Y039795D01*
X029868Y039732D01*
X029805Y039649D01*
X029765Y039553D01*
X029758Y039500D01*
X030100D01*
Y039842D01*
D02*
G37*
G36*
X028505Y039805D02*
X027795D01*
Y039562D01*
X027005D01*
Y039805D01*
X026295D01*
Y039095D01*
X027005D01*
Y039338D01*
X027795D01*
Y039095D01*
X028505D01*
Y039805D01*
D02*
G37*
G36*
X030200Y039842D02*
Y039500D01*
X030542D01*
X030535Y039553D01*
X030495Y039649D01*
X030432Y039732D01*
X030349Y039795D01*
X030253Y039835D01*
X030200Y039842D01*
D02*
G37*
G36*
X028400Y040950D02*
X028100D01*
Y040700D01*
X028400D01*
Y040950D01*
D02*
G37*
G36*
X020507Y040789D02*
X020301D01*
Y040500D01*
X020839D01*
X020834Y040538D01*
X020800Y040620D01*
X020746Y040690D01*
X020676Y040744D01*
X020594Y040778D01*
X020507Y040789D01*
D02*
G37*
G36*
X028800Y040950D02*
X028500D01*
Y040700D01*
X028800D01*
Y040950D01*
D02*
G37*
G36*
X026650Y041808D02*
X026557Y041796D01*
X026471Y041760D01*
X026397Y041703D01*
X026340Y041629D01*
X026304Y041543D01*
X026292Y041450D01*
X026304Y041357D01*
X026340Y041271D01*
X026397Y041197D01*
X026471Y041140D01*
X026557Y041104D01*
X026650Y041092D01*
X026743Y041104D01*
X026829Y041140D01*
X026903Y041197D01*
X026960Y041271D01*
X026988Y041338D01*
X028140D01*
Y041190D01*
X028760D01*
Y041338D01*
X029040D01*
Y041190D01*
X029660D01*
Y041710D01*
X029040D01*
Y041562D01*
X028760D01*
Y041710D01*
X028140D01*
Y041562D01*
X026988D01*
X026960Y041629D01*
X026903Y041703D01*
X026829Y041760D01*
X026743Y041796D01*
X026650Y041808D01*
D02*
G37*
G36*
X020507Y041749D02*
X019995D01*
X019918Y041739D01*
X019845Y041709D01*
X019784Y041661D01*
X019736Y041599D01*
X019706Y041527D01*
X019696Y041450D01*
X019706Y041373D01*
X019736Y041301D01*
X019784Y041239D01*
X019845Y041191D01*
X019918Y041161D01*
X019995Y041151D01*
X020507D01*
X020584Y041161D01*
X020656Y041191D01*
X020718Y041239D01*
X020765Y041301D01*
X020795Y041373D01*
X020805Y041450D01*
X020795Y041527D01*
X020765Y041599D01*
X020718Y041661D01*
X020656Y041709D01*
X020584Y041739D01*
X020507Y041749D01*
D02*
G37*
G36*
X020201Y040789D02*
X019995D01*
X019907Y040778D01*
X019825Y040744D01*
X019755Y040690D01*
X019701Y040620D01*
X019667Y040538D01*
X019662Y040500D01*
X020201D01*
Y040789D01*
D02*
G37*
G36*
X033486Y040486D02*
X033200D01*
Y040200D01*
X033486D01*
Y040486D01*
D02*
G37*
G36*
X033100D02*
X032814D01*
Y040200D01*
X033100D01*
Y040486D01*
D02*
G37*
G36*
X032619Y040446D02*
X032027D01*
Y040313D01*
X031660D01*
Y040410D01*
X031040D01*
Y039890D01*
X031660D01*
Y039987D01*
X032027D01*
Y039854D01*
X032619D01*
Y040446D01*
D02*
G37*
G36*
X028800Y040600D02*
X028500D01*
Y040350D01*
X028800D01*
Y040600D01*
D02*
G37*
G36*
X028400D02*
X028100D01*
Y040350D01*
X028400D01*
Y040600D01*
D02*
G37*
%LPD*%
D10*
X029350Y042250D02*
D03*
Y041450D02*
D03*
X028450D02*
D03*
Y040650D02*
D03*
X026850Y043450D02*
D03*
Y044250D02*
D03*
X025850Y043450D02*
D03*
Y044250D02*
D03*
X031350Y040150D02*
D03*
Y040950D02*
D03*
X021750Y025400D02*
D03*
Y026200D02*
D03*
X016150Y022900D02*
D03*
Y022100D02*
D03*
X027700Y023800D02*
D03*
Y024600D02*
D03*
X021100Y022700D02*
D03*
Y023500D02*
D03*
X027700Y025400D02*
D03*
Y026200D02*
D03*
X020150D02*
D03*
Y025400D02*
D03*
X032500Y026200D02*
D03*
Y025400D02*
D03*
X023250Y031700D02*
D03*
Y032500D02*
D03*
D11*
X034472Y045850D02*
D03*
X033428Y045476D02*
D03*
Y046224D02*
D03*
D12*
X026850Y042450D02*
D03*
X026050D02*
D03*
X018550Y022600D02*
D03*
X019350D02*
D03*
X018550Y021800D02*
D03*
X019350D02*
D03*
X026750Y025450D02*
D03*
X025950D02*
D03*
X024850Y020700D02*
D03*
X025650D02*
D03*
Y021500D02*
D03*
X024850D02*
D03*
X023100Y026850D02*
D03*
X023900D02*
D03*
X026700Y027000D02*
D03*
X027500D02*
D03*
X023550Y025400D02*
D03*
X024350D02*
D03*
X023650Y035350D02*
D03*
X024450D02*
D03*
D13*
X033150Y040150D02*
D03*
X032323D02*
D03*
D14*
X022100Y023723D02*
D03*
Y024550D02*
D03*
X016150Y020150D02*
D03*
Y020977D02*
D03*
X020150Y024427D02*
D03*
Y023600D02*
D03*
X032500Y024450D02*
D03*
Y023623D02*
D03*
X024500Y032477D02*
D03*
Y031650D02*
D03*
D15*
X020013Y019375D02*
D03*
Y019625D02*
D03*
Y019875D02*
D03*
Y020125D02*
D03*
Y020375D02*
D03*
Y020625D02*
D03*
Y020875D02*
D03*
Y021125D02*
D03*
X017887Y019375D02*
D03*
Y019625D02*
D03*
Y019875D02*
D03*
Y020125D02*
D03*
Y020375D02*
D03*
Y020625D02*
D03*
Y020875D02*
D03*
Y021125D02*
D03*
D16*
X027856Y021683D02*
D03*
X030123Y025450D02*
D03*
D17*
X028685Y020933D02*
D03*
Y021433D02*
D03*
Y021933D02*
D03*
Y022433D02*
D03*
X030952Y024700D02*
D03*
Y025200D02*
D03*
Y025700D02*
D03*
Y026200D02*
D03*
D18*
X026533Y020933D02*
D03*
Y021433D02*
D03*
Y021933D02*
D03*
Y022433D02*
D03*
X028800Y024700D02*
D03*
Y025200D02*
D03*
Y025700D02*
D03*
Y026200D02*
D03*
D19*
X024212Y020474D02*
D03*
Y019726D02*
D03*
X023188D02*
D03*
Y020100D02*
D03*
Y020474D02*
D03*
D20*
X025544Y024566D02*
D03*
X025347D02*
D03*
X025150D02*
D03*
X024953D02*
D03*
X024756D02*
D03*
X025544Y022834D02*
D03*
X025347D02*
D03*
X025150D02*
D03*
X024953D02*
D03*
X024756D02*
D03*
D21*
X024767Y026199D02*
D03*
Y026750D02*
D03*
X025850Y026199D02*
D03*
Y026750D02*
D03*
D22*
X024550Y041450D02*
X025650D01*
X026650Y040450D01*
X020575Y020625D02*
X020850Y020900D01*
X020013Y020625D02*
X020575D01*
X022090Y021740D02*
Y023723D01*
X022100D02*
X022523Y023300D01*
X025000D01*
X022090Y023723D02*
X022100D01*
X020475Y020125D02*
X022090Y021740D01*
X020450Y021950D02*
X021100Y022600D01*
Y022700D01*
X022626Y020474D02*
X023188D01*
X028450Y041450D02*
X029350D01*
X026650D02*
X028450D01*
X029850Y043950D02*
X030350Y044450D01*
X028850Y043950D02*
X029850D01*
X028350Y043450D02*
X028850Y043950D01*
X029150Y039450D02*
X030350Y040650D01*
Y042050D01*
X030150Y042250D02*
X030350Y042050D01*
X029350Y042250D02*
X030150D01*
X029350D02*
Y042450D01*
X028350Y043450D02*
X029350Y042450D01*
X026850Y043450D02*
X028350D01*
X026650Y039450D02*
X028150D01*
X026850Y042450D02*
Y043450D01*
X024550Y042450D02*
X026050D01*
X025850Y043450D02*
X026850D01*
X024550D02*
X025850D01*
X024450Y035350D02*
X026350D01*
X024450Y034950D02*
Y035350D01*
X021850Y032350D02*
X024450Y034950D01*
X020950Y032350D02*
X021850D01*
X025250Y034350D02*
X026350D01*
X024500Y033600D02*
X025250Y034350D01*
X024500Y032477D02*
Y033600D01*
X024450Y031700D02*
X024500Y031650D01*
X023250Y031700D02*
X024450D01*
X020950Y036350D02*
X026350D01*
X030350Y045450D02*
X031124Y046224D01*
X033428D01*
X031976Y045476D02*
X033428D01*
X020013Y020125D02*
X020475D01*
X021750Y024900D02*
Y025400D01*
Y024900D02*
X022100Y024550D01*
X021100Y023500D02*
Y023800D01*
X020900Y024000D02*
X021100Y023800D01*
X020900Y024000D02*
Y025450D01*
X020150Y026200D02*
X020900Y025450D01*
X021175Y019875D02*
X021425Y020125D01*
X020013Y019875D02*
X021175D01*
X016150Y020977D02*
Y022100D01*
Y020150D02*
X016175Y020125D01*
X017887D01*
X019350Y021788D02*
Y021800D01*
X020325Y020875D02*
X020850Y021400D01*
X020013Y020875D02*
X020325D01*
X024766Y026200D02*
X024767Y026199D01*
X027699D02*
X027700Y026200D01*
X028800Y025200D02*
Y025700D01*
Y026200D01*
X026750Y024550D02*
Y025450D01*
X020150Y024427D02*
Y025400D01*
Y022700D02*
Y023600D01*
X023900Y022850D02*
X023916Y022834D01*
X024756D01*
X024953D01*
X025347Y023997D02*
Y024566D01*
X025100Y023750D02*
X025347Y023997D01*
X023900Y023750D02*
X025100D01*
X025544Y024566D02*
Y025044D01*
X025950Y025450D01*
X024767Y026199D02*
X025516Y025450D01*
X025950D01*
X025150Y024566D02*
Y025084D01*
X025516Y025450D01*
X027700Y021816D02*
X027833Y021683D01*
X026300Y019700D02*
Y020400D01*
X026533Y020633D01*
Y020933D01*
X027300Y019700D02*
X028600D01*
X024238D02*
X025300D01*
X024212Y019726D02*
X024238Y019700D01*
X021425Y020125D02*
X021450Y020100D01*
X023188D01*
X024212Y020474D02*
X024624D01*
X024850Y020700D01*
Y021500D01*
X023900D02*
X024850D01*
X026533Y021433D02*
X026550Y021450D01*
X025150Y022834D02*
Y023150D01*
X025000Y023300D02*
X025150Y023150D01*
X022500Y018850D02*
Y019500D01*
X022726Y019726D01*
X023188D01*
X025544Y022506D02*
Y022834D01*
Y022506D02*
X025850Y022200D01*
X024650D02*
X025250D01*
X025347Y022297D02*
Y022834D01*
X025250Y022200D02*
X025347Y022297D01*
X022350Y022200D02*
X024650D01*
X032500Y024450D02*
Y025400D01*
Y023623D02*
X033373D01*
X033400Y023650D01*
X026466Y021500D02*
X026533Y021433D01*
X023900Y026850D02*
X024000Y026750D01*
X027500Y027000D02*
X028200D01*
X024350Y025400D02*
X024353Y025397D01*
X023834Y024566D02*
X024756D01*
X023550Y024850D02*
X023834Y024566D01*
X023550Y024850D02*
Y025400D01*
X024350Y025250D02*
Y025400D01*
Y025250D02*
X024550Y025050D01*
X024850D01*
X024953Y024947D01*
Y024566D02*
Y024947D01*
D23*
X024724Y046224D02*
X029576D01*
X030350Y045450D01*
X032550Y041250D02*
X034250D01*
X031350Y042450D02*
X032550Y041250D01*
X030350Y044450D02*
Y045450D01*
Y044450D02*
X031350Y043450D01*
X023650Y045150D02*
X024724Y046224D01*
X018850Y045150D02*
X023650D01*
X019350Y022600D02*
Y025400D01*
X020150Y026200D01*
X019350Y021800D02*
Y022600D01*
X018450Y026200D02*
X020150D01*
X024766D01*
X025850Y026199D02*
X027699D01*
X027700Y026200D02*
X028800D01*
X027700Y024600D02*
Y025400D01*
Y021816D02*
Y023800D01*
X030952Y026200D02*
X032500D01*
X034450D01*
X025650Y020700D02*
Y021500D01*
X026466D01*
X026550Y021450D02*
Y023350D01*
X024000Y026750D02*
X024767D01*
X025850D02*
X026100Y027000D01*
X026700D01*
X022500Y026850D02*
X023100D01*
X024353Y025397D02*
X024953D01*
X022850Y025400D02*
X023550D01*
D24*
X031350Y040150D02*
X032323D01*
X031350Y040950D02*
Y042450D01*
X017600Y026200D02*
X018450D01*
X016150Y024750D02*
X017600Y026200D01*
X016150Y022900D02*
Y024750D01*
X019350Y021788D02*
X020013Y021125D01*
X027700Y024600D02*
X028200D01*
X028300Y024700D01*
X028800D01*
D25*
X020450Y021950D02*
D03*
X022626Y020474D02*
D03*
X031976Y045476D02*
D03*
X020850Y020900D02*
D03*
Y021400D02*
D03*
X023900Y021500D02*
D03*
X024650Y022200D02*
D03*
X025850D02*
D03*
X022350D02*
D03*
X022500Y026850D02*
D03*
X028200Y027000D02*
D03*
X024953Y025397D02*
D03*
X022850Y025400D02*
D03*
D26*
X026650Y039450D02*
D03*
X018850Y044150D02*
D03*
X034250Y041250D02*
D03*
X032350Y021650D02*
D03*
X021450Y019100D02*
D03*
X034450Y026200D02*
D03*
X018450Y025200D02*
D03*
X026350Y033350D02*
D03*
D27*
X026650Y040450D02*
D03*
Y041450D02*
D03*
X029150Y039450D02*
D03*
X030150D02*
D03*
X018850Y045150D02*
D03*
X034250Y042250D02*
D03*
Y043250D02*
D03*
X032350Y019650D02*
D03*
Y020650D02*
D03*
X021450Y020100D02*
D03*
X034450Y025200D02*
D03*
X018450Y026200D02*
D03*
X025300Y019700D02*
D03*
X026300D02*
D03*
X028600D02*
D03*
X026350Y034350D02*
D03*
Y035350D02*
D03*
Y036350D02*
D03*
D28*
X028150Y039450D02*
D03*
X027300Y019700D02*
D03*
X029600D02*
D03*
D29*
X020251Y043450D02*
D03*
D30*
Y042450D02*
D03*
Y041450D02*
D03*
Y040450D02*
D03*
X024550Y043450D02*
D03*
Y042450D02*
D03*
Y041450D02*
D03*
Y040450D02*
D03*
D31*
X031350Y042450D02*
D03*
Y043450D02*
D03*
D32*
Y042950D02*
D03*
D33*
X027833Y022083D02*
D03*
X028266D02*
D03*
X027400D02*
D03*
X027417Y021683D02*
D03*
X027833D02*
D03*
X028283D02*
D03*
Y021250D02*
D03*
X027850D02*
D03*
X027417D02*
D03*
X030100Y025850D02*
D03*
X030533D02*
D03*
X029667D02*
D03*
X029684Y025450D02*
D03*
X030100D02*
D03*
X030550D02*
D03*
Y025017D02*
D03*
X030117D02*
D03*
X029684D02*
D03*
D34*
X020950Y036350D02*
D03*
Y032350D02*
D03*
D35*
X020900Y025450D02*
D03*
X017900Y018650D02*
D03*
X017500Y021800D02*
D03*
Y022700D02*
D03*
X026750Y024550D02*
D03*
X020150Y022700D02*
D03*
X023900Y022850D02*
D03*
Y023750D02*
D03*
X026550Y023350D02*
D03*
X022500Y018850D02*
D03*
X033400Y023650D02*
D03*
M02*
