G04 Layer_Physical_Order=1*
G04 Layer_Color=255*
%FSAX24Y24*%
%MOIN*%
G70*
G01*
G75*
G04:AMPARAMS|DCode=10|XSize=92.5mil|YSize=88.6mil|CornerRadius=11.1mil|HoleSize=0mil|Usage=FLASHONLY|Rotation=0.000|XOffset=0mil|YOffset=0mil|HoleType=Round|Shape=RoundedRectangle|*
%AMROUNDEDRECTD10*
21,1,0.0925,0.0664,0,0,0.0*
21,1,0.0704,0.0886,0,0,0.0*
1,1,0.0221,0.0352,-0.0332*
1,1,0.0221,-0.0352,-0.0332*
1,1,0.0221,-0.0352,0.0332*
1,1,0.0221,0.0352,0.0332*
%
%ADD10ROUNDEDRECTD10*%
%ADD11R,0.0374X0.0256*%
%ADD12R,0.0256X0.0335*%
%ADD13R,0.0787X0.0768*%
%ADD14R,0.1378X0.4980*%
%ADD15O,0.0551X0.0177*%
%ADD16R,0.0400X0.0500*%
%ADD17R,0.0500X0.0400*%
%ADD18O,0.0354X0.0098*%
%ADD19O,0.0098X0.0354*%
%ADD20R,0.1220X0.0787*%
%ADD21R,0.0689X0.0433*%
%ADD22C,0.0100*%
%ADD23C,0.0300*%
%ADD24C,0.0150*%
%ADD25C,0.0300*%
%ADD26R,0.0591X0.0591*%
%ADD27C,0.0591*%
%ADD28R,0.0591X0.0591*%
%ADD29C,0.0500*%
%ADD30C,0.0197*%
G36*
X031417Y019140D02*
X031414Y019141D01*
X031408Y019142D01*
X031398Y019143D01*
X031372Y019145D01*
X031257Y019147D01*
Y019297D01*
X031417Y019304D01*
Y019140D01*
D02*
G37*
G36*
X015799Y019763D02*
X015805Y019736D01*
Y019620D01*
X015813Y019622D01*
X015853Y019649D01*
X015893Y019622D01*
X015952Y019610D01*
X016010Y019622D01*
X016050Y019649D01*
X016090Y019622D01*
X016148Y019610D01*
X016150Y019610D01*
X016193Y019568D01*
X016196Y019069D01*
X016195Y019065D01*
X016193Y019060D01*
X016192Y019055D01*
X016189Y019051D01*
X016186Y019046D01*
X016183Y019040D01*
X016180Y019037D01*
X016170Y019030D01*
X016114Y018948D01*
X016095Y018850D01*
X016114Y018752D01*
X016170Y018670D01*
X016250Y018616D01*
Y011950D01*
X011350D01*
Y019850D01*
X013450D01*
X014350Y018950D01*
X014451Y019036D01*
X014491Y019009D01*
X014550Y018997D01*
X015050D01*
X015109Y019009D01*
X015158Y019042D01*
X015666Y019550D01*
X015699Y019599D01*
X015705Y019603D01*
Y019627D01*
X015711Y019658D01*
Y019891D01*
X015799D01*
Y019763D01*
D02*
G37*
G36*
X016399Y019068D02*
X016401Y019054D01*
X016404Y019041D01*
X016408Y019028D01*
X016413Y019016D01*
X016419Y019003D01*
X016426Y018991D01*
X016434Y018980D01*
X016444Y018969D01*
X016454Y018958D01*
X016244Y018956D01*
X016255Y018967D01*
X016264Y018979D01*
X016272Y018990D01*
X016279Y019002D01*
X016285Y019015D01*
X016290Y019027D01*
X016294Y019040D01*
X016297Y019054D01*
X016298Y019067D01*
X016299Y019081D01*
X016399Y019082D01*
X016399Y019068D01*
D02*
G37*
G36*
X034193Y019298D02*
X034204Y019293D01*
X034215Y019288D01*
X034228Y019284D01*
X034241Y019280D01*
X034255Y019277D01*
X034270Y019275D01*
X034303Y019272D01*
X034320Y019272D01*
Y019172D01*
X034303Y019172D01*
X034270Y019169D01*
X034255Y019167D01*
X034241Y019164D01*
X034228Y019160D01*
X034215Y019156D01*
X034204Y019151D01*
X034193Y019146D01*
X034183Y019140D01*
Y019304D01*
X034193Y019298D01*
D02*
G37*
G36*
X023677Y011790D02*
X023680Y011782D01*
X023685Y011774D01*
X023692Y011768D01*
X023701Y011762D01*
X023712Y011758D01*
X023725Y011754D01*
X023740Y011752D01*
X023758Y011751D01*
X023777Y011750D01*
Y011650D01*
X023758Y011650D01*
X023740Y011648D01*
X023725Y011645D01*
X023712Y011642D01*
X023701Y011638D01*
X023692Y011632D01*
X023685Y011625D01*
X023680Y011618D01*
X023677Y011609D01*
X023676Y011600D01*
Y011800D01*
X023677Y011790D01*
D02*
G37*
G36*
X036651Y019280D02*
X036652Y019262D01*
X036655Y019247D01*
X036658Y019234D01*
X036662Y019223D01*
X036668Y019214D01*
X036674Y019207D01*
X036682Y019202D01*
X036690Y019199D01*
X036700Y019198D01*
X036500D01*
X036509Y019199D01*
X036518Y019202D01*
X036525Y019207D01*
X036532Y019214D01*
X036537Y019223D01*
X036542Y019234D01*
X036546Y019247D01*
X036548Y019262D01*
X036549Y019280D01*
X036550Y019299D01*
X036650D01*
X036651Y019280D01*
D02*
G37*
G36*
X035851D02*
X035852Y019262D01*
X035854Y019247D01*
X035858Y019234D01*
X035863Y019223D01*
X035868Y019214D01*
X035875Y019207D01*
X035882Y019202D01*
X035891Y019199D01*
X035900Y019198D01*
X035700D01*
X035710Y019199D01*
X035718Y019202D01*
X035726Y019207D01*
X035732Y019214D01*
X035738Y019223D01*
X035742Y019234D01*
X035745Y019247D01*
X035748Y019262D01*
X035749Y019280D01*
X035750Y019299D01*
X035850D01*
X035851Y019280D01*
D02*
G37*
G36*
X035602Y018850D02*
X035601Y018859D01*
X035598Y018868D01*
X035593Y018875D01*
X035586Y018882D01*
X035577Y018887D01*
X035566Y018892D01*
X035553Y018895D01*
X035538Y018898D01*
X035520Y018900D01*
X035501Y018900D01*
Y019000D01*
X035520Y019001D01*
X035538Y019002D01*
X035553Y019004D01*
X035566Y019008D01*
X035577Y019013D01*
X035586Y019018D01*
X035593Y019024D01*
X035598Y019032D01*
X035601Y019040D01*
X035602Y019050D01*
Y018850D01*
D02*
G37*
G36*
X028436Y019206D02*
X028411Y019196D01*
X028388Y019181D01*
X028369Y019160D01*
X028352Y019133D01*
X028339Y019100D01*
X028328Y019061D01*
X028321Y019016D01*
X028317Y018974D01*
X028321Y018932D01*
X028328Y018887D01*
X028339Y018848D01*
X028352Y018815D01*
X028369Y018788D01*
X028388Y018767D01*
X028411Y018752D01*
X028436Y018743D01*
X028465Y018740D01*
X027865D01*
X027893Y018743D01*
X027919Y018752D01*
X027941Y018767D01*
X027961Y018788D01*
X027977Y018815D01*
X027991Y018848D01*
X028001Y018887D01*
X028009Y018932D01*
X028012Y018974D01*
X028009Y019016D01*
X028001Y019061D01*
X027991Y019100D01*
X027977Y019133D01*
X027961Y019160D01*
X027941Y019181D01*
X027919Y019196D01*
X027893Y019206D01*
X027865Y019209D01*
X028465D01*
X028436Y019206D01*
D02*
G37*
G36*
X029585Y018686D02*
X029589Y018673D01*
X029597Y018662D01*
X029608Y018652D01*
X029621Y018644D01*
X029638Y018637D01*
X029658Y018632D01*
X029680Y018628D01*
X029706Y018626D01*
X029735Y018625D01*
Y018475D01*
X029706Y018474D01*
X029680Y018472D01*
X029658Y018468D01*
X029638Y018463D01*
X029621Y018456D01*
X029608Y018448D01*
X029597Y018438D01*
X029589Y018427D01*
X029585Y018414D01*
X029583Y018400D01*
Y018700D01*
X029585Y018686D01*
D02*
G37*
G36*
X036799Y019040D02*
X036802Y019032D01*
X036807Y019024D01*
X036814Y019018D01*
X036823Y019013D01*
X036834Y019008D01*
X036847Y019004D01*
X036862Y019002D01*
X036880Y019001D01*
X036899Y019000D01*
Y018900D01*
X036880Y018900D01*
X036862Y018898D01*
X036847Y018895D01*
X036834Y018892D01*
X036823Y018887D01*
X036814Y018882D01*
X036807Y018875D01*
X036802Y018868D01*
X036799Y018859D01*
X036798Y018850D01*
Y019050D01*
X036799Y019040D01*
D02*
G37*
G36*
X031471Y019019D02*
X031476Y019018D01*
X031495Y019017D01*
X031622Y019016D01*
Y018916D01*
X031490Y018913D01*
X031539Y018878D01*
X031526Y018885D01*
X031511Y018888D01*
X031495Y018887D01*
X031476Y018883D01*
X031456Y018874D01*
X031435Y018862D01*
X031411Y018846D01*
X031386Y018826D01*
X031359Y018802D01*
X031330Y018774D01*
X031215Y018871D01*
X031246Y018901D01*
X031358Y019002D01*
X031365Y019005D01*
X031369Y019005D01*
X031369Y019000D01*
X031469Y018929D01*
Y019020D01*
X031471Y019019D01*
D02*
G37*
G36*
X034193Y019042D02*
X034204Y019037D01*
X034215Y019032D01*
X034228Y019028D01*
X034241Y019024D01*
X034255Y019021D01*
X034270Y019019D01*
X034303Y019016D01*
X034320Y019016D01*
Y018916D01*
X034303Y018916D01*
X034270Y018913D01*
X034255Y018911D01*
X034241Y018908D01*
X034228Y018905D01*
X034215Y018900D01*
X034204Y018895D01*
X034193Y018890D01*
X034183Y018884D01*
Y019048D01*
X034193Y019042D01*
D02*
G37*
G36*
X017273Y019001D02*
X017303Y018975D01*
X017314Y018967D01*
X017345Y018946D01*
X017356Y018940D01*
X017366Y018935D01*
X017170Y018874D01*
X017175Y018886D01*
X017179Y018897D01*
X017181Y018908D01*
X017182Y018919D01*
X017180Y018930D01*
X017177Y018941D01*
X017172Y018952D01*
X017166Y018963D01*
X017158Y018974D01*
X017148Y018985D01*
X017263Y019011D01*
X017273Y019001D01*
D02*
G37*
G36*
X021409Y018941D02*
X021389Y018895D01*
X020855D01*
Y018105D01*
X021532D01*
X021533Y018105D01*
X021535Y018105D01*
X021540D01*
X021544Y018104D01*
X021548Y018105D01*
X021645D01*
Y018194D01*
X021645Y018195D01*
X021647Y018210D01*
X021647Y018210D01*
X021648Y018211D01*
X021652Y018215D01*
X021664Y018222D01*
X021684Y018230D01*
X021712Y018237D01*
X021748Y018243D01*
X021774Y018245D01*
X021950D01*
Y010800D01*
X016700D01*
Y019222D01*
X016746Y019241D01*
X017074Y018912D01*
X017064Y018898D01*
X017045Y018800D01*
X017064Y018702D01*
X017120Y018620D01*
X017202Y018564D01*
X017300Y018545D01*
X017398Y018564D01*
X017480Y018620D01*
X017536Y018702D01*
X017555Y018800D01*
X017536Y018898D01*
X017480Y018980D01*
X017416Y019023D01*
X017414Y019025D01*
X017414Y019025D01*
X017413Y019025D01*
X017413Y019025D01*
X017398Y019036D01*
X017394Y019036D01*
X017373Y019050D01*
X017368Y019054D01*
X017351Y019069D01*
X016825Y019594D01*
X016830Y019644D01*
X016847Y019655D01*
X016880Y019704D01*
X016891Y019763D01*
Y019841D01*
X016739D01*
Y019941D01*
X016891D01*
Y020018D01*
X016884Y020053D01*
X016891Y020071D01*
X016915Y020098D01*
X016922Y020102D01*
X017400D01*
Y019950D01*
X018100D01*
Y020250D01*
X020100D01*
X021409Y018941D01*
D02*
G37*
G36*
X015258Y020065D02*
X015273Y020052D01*
X015287Y020042D01*
X015299Y020035D01*
X015309Y020031D01*
X015318Y020030D01*
X015324Y020032D01*
X015330Y020038D01*
X015333Y020046D01*
X015335Y020058D01*
X015313Y019798D01*
X015314Y019811D01*
X015312Y019824D01*
X015309Y019838D01*
X015304Y019851D01*
X015298Y019865D01*
X015290Y019880D01*
X015280Y019894D01*
X015269Y019909D01*
X015256Y019924D01*
X015241Y019940D01*
Y020081D01*
X015258Y020065D01*
D02*
G37*
G36*
X037545Y019832D02*
X037535Y019821D01*
X037527Y019809D01*
X037520Y019797D01*
X037514Y019785D01*
X037509Y019772D01*
X037505Y019759D01*
X037502Y019746D01*
X037501Y019732D01*
X037500Y019719D01*
X037400D01*
X037399Y019732D01*
X037398Y019746D01*
X037395Y019759D01*
X037391Y019772D01*
X037386Y019785D01*
X037380Y019797D01*
X037373Y019809D01*
X037365Y019821D01*
X037355Y019832D01*
X037345Y019843D01*
X037555D01*
X037545Y019832D01*
D02*
G37*
G36*
X011045Y020082D02*
X011035Y020071D01*
X011027Y020059D01*
X011020Y020047D01*
X011014Y020035D01*
X011009Y020022D01*
X011005Y020009D01*
X011002Y019996D01*
X011001Y019982D01*
X011000Y019969D01*
X010900D01*
X010899Y019982D01*
X010898Y019996D01*
X010895Y020009D01*
X010891Y020022D01*
X010886Y020035D01*
X010880Y020047D01*
X010873Y020059D01*
X010865Y020071D01*
X010855Y020082D01*
X010845Y020093D01*
X011055D01*
X011045Y020082D01*
D02*
G37*
G36*
X015284Y020206D02*
X015276Y020203D01*
X015268Y020198D01*
X015262Y020191D01*
X015256Y020182D01*
X015252Y020171D01*
X015248Y020157D01*
X015246Y020142D01*
X015244Y020125D01*
X015244Y020106D01*
X015144D01*
X015143Y020125D01*
X015142Y020142D01*
X015139Y020157D01*
X015136Y020171D01*
X015131Y020182D01*
X015126Y020191D01*
X015119Y020198D01*
X015112Y020203D01*
X015103Y020206D01*
X015094Y020207D01*
X015294D01*
X015284Y020206D01*
D02*
G37*
G36*
X028316Y020335D02*
X028321Y020284D01*
X028328Y020239D01*
X028339Y020200D01*
X028352Y020167D01*
X028369Y020140D01*
X028388Y020119D01*
X028411Y020104D01*
X028436Y020094D01*
X028465Y020091D01*
X027865D01*
X027893Y020094D01*
X027919Y020104D01*
X027941Y020119D01*
X027961Y020140D01*
X027977Y020167D01*
X027991Y020200D01*
X028001Y020239D01*
X028009Y020284D01*
X028013Y020335D01*
X028015Y020393D01*
X028315D01*
X028316Y020335D01*
D02*
G37*
G36*
X026387D02*
X026391Y020284D01*
X026399Y020239D01*
X026409Y020200D01*
X026423Y020167D01*
X026439Y020140D01*
X026459Y020119D01*
X026481Y020104D01*
X026507Y020094D01*
X026535Y020091D01*
X025935D01*
X025964Y020094D01*
X025989Y020104D01*
X026012Y020119D01*
X026031Y020140D01*
X026048Y020167D01*
X026061Y020200D01*
X026072Y020239D01*
X026079Y020284D01*
X026084Y020335D01*
X026085Y020393D01*
X026385D01*
X026387Y020335D01*
D02*
G37*
G36*
X030464Y019743D02*
X030471Y019738D01*
X030480Y019734D01*
X030489Y019730D01*
X030500Y019727D01*
X030512Y019724D01*
X030525Y019722D01*
X030539Y019720D01*
X030570Y019719D01*
Y019569D01*
X030554Y019569D01*
X030525Y019566D01*
X030512Y019564D01*
X030500Y019562D01*
X030489Y019558D01*
X030480Y019554D01*
X030471Y019550D01*
X030464Y019545D01*
X030457Y019539D01*
Y019749D01*
X030464Y019743D01*
D02*
G37*
G36*
X034193Y019554D02*
X034204Y019549D01*
X034215Y019544D01*
X034228Y019540D01*
X034241Y019536D01*
X034255Y019533D01*
X034270Y019531D01*
X034303Y019528D01*
X034320Y019528D01*
Y019428D01*
X034303Y019428D01*
X034270Y019425D01*
X034255Y019423D01*
X034241Y019420D01*
X034228Y019416D01*
X034215Y019412D01*
X034204Y019407D01*
X034193Y019402D01*
X034183Y019396D01*
Y019560D01*
X034193Y019554D01*
D02*
G37*
G36*
X031417Y019396D02*
X031407Y019402D01*
X031397Y019407D01*
X031385Y019412D01*
X031372Y019416D01*
X031359Y019420D01*
X031345Y019423D01*
X031330Y019425D01*
X031297Y019428D01*
X031280Y019428D01*
Y019528D01*
X031297Y019528D01*
X031330Y019531D01*
X031345Y019533D01*
X031359Y019536D01*
X031372Y019540D01*
X031385Y019544D01*
X031397Y019549D01*
X031407Y019554D01*
X031417Y019560D01*
Y019396D01*
D02*
G37*
G36*
X011000Y019630D02*
X011002Y019612D01*
X011005Y019597D01*
X011008Y019584D01*
X011013Y019573D01*
X011018Y019564D01*
X011025Y019557D01*
X011032Y019552D01*
X011041Y019549D01*
X011050Y019548D01*
X010850D01*
X010860Y019549D01*
X010868Y019552D01*
X010876Y019557D01*
X010882Y019564D01*
X010888Y019573D01*
X010892Y019584D01*
X010896Y019597D01*
X010898Y019612D01*
X010899Y019630D01*
X010900Y019649D01*
X011000D01*
X011000Y019630D01*
D02*
G37*
G36*
X031358Y019863D02*
X031392Y019835D01*
X031407Y019825D01*
X031421Y019818D01*
X031433Y019813D01*
X031444Y019811D01*
X031453Y019812D01*
X031462Y019815D01*
X031468Y019822D01*
X031369Y019700D01*
X031368Y019703D01*
X031366Y019707D01*
X031362Y019713D01*
X031350Y019727D01*
X031322Y019757D01*
X031296Y019783D01*
X031339Y019882D01*
X031358Y019863D01*
D02*
G37*
G36*
X035895Y019782D02*
X035885Y019771D01*
X035877Y019759D01*
X035870Y019747D01*
X035864Y019735D01*
X035859Y019722D01*
X035855Y019709D01*
X035852Y019696D01*
X035851Y019682D01*
X035850Y019669D01*
X035750D01*
X035749Y019682D01*
X035748Y019696D01*
X035745Y019709D01*
X035741Y019722D01*
X035736Y019735D01*
X035730Y019747D01*
X035723Y019759D01*
X035715Y019771D01*
X035705Y019782D01*
X035695Y019793D01*
X035905D01*
X035895Y019782D01*
D02*
G37*
G36*
X034193Y019810D02*
X034204Y019805D01*
X034215Y019800D01*
X034228Y019795D01*
X034241Y019792D01*
X034255Y019789D01*
X034270Y019787D01*
X034303Y019784D01*
X034320Y019784D01*
Y019684D01*
X034303Y019684D01*
X034270Y019681D01*
X034255Y019679D01*
X034241Y019676D01*
X034228Y019672D01*
X034215Y019668D01*
X034204Y019663D01*
X034193Y019658D01*
X034183Y019652D01*
Y019816D01*
X034193Y019810D01*
D02*
G37*
G36*
X023305Y013008D02*
X023297Y013004D01*
X023289Y012999D01*
X023283Y012992D01*
X023277Y012983D01*
X023273Y012972D01*
X023269Y012959D01*
X023267Y012944D01*
X023265Y012927D01*
X023265Y012907D01*
X023165D01*
X023164Y012927D01*
X023163Y012944D01*
X023160Y012959D01*
X023157Y012972D01*
X023152Y012983D01*
X023147Y012992D01*
X023140Y012999D01*
X023133Y013004D01*
X023124Y013008D01*
X023115Y013009D01*
X023315D01*
X023305Y013008D01*
D02*
G37*
G36*
X026040Y015801D02*
X026032Y015798D01*
X026024Y015793D01*
X026018Y015786D01*
X026012Y015777D01*
X026008Y015766D01*
X026005Y015753D01*
X026002Y015738D01*
X026000Y015720D01*
X026000Y015701D01*
X025900D01*
X025900Y015720D01*
X025898Y015738D01*
X025896Y015753D01*
X025892Y015766D01*
X025887Y015777D01*
X025882Y015786D01*
X025875Y015793D01*
X025868Y015798D01*
X025859Y015801D01*
X025850Y015802D01*
X026050D01*
X026040Y015801D01*
D02*
G37*
G36*
X028452Y015650D02*
X028451Y015660D01*
X028448Y015668D01*
X028443Y015675D01*
X028436Y015682D01*
X028427Y015688D01*
X028416Y015692D01*
X028403Y015696D01*
X028388Y015698D01*
X028370Y015699D01*
X028351Y015700D01*
Y015800D01*
X028370Y015800D01*
X028388Y015802D01*
X028403Y015805D01*
X028416Y015808D01*
X028427Y015812D01*
X028436Y015818D01*
X028443Y015825D01*
X028448Y015832D01*
X028451Y015841D01*
X028452Y015850D01*
Y015650D01*
D02*
G37*
G36*
X040350Y016580D02*
X040352Y016562D01*
X040354Y016547D01*
X040358Y016534D01*
X040363Y016523D01*
X040368Y016514D01*
X040374Y016507D01*
X040382Y016502D01*
X040391Y016499D01*
X040400Y016498D01*
X040200D01*
X040209Y016499D01*
X040218Y016502D01*
X040226Y016507D01*
X040232Y016514D01*
X040237Y016523D01*
X040242Y016534D01*
X040245Y016547D01*
X040248Y016562D01*
X040250Y016580D01*
X040250Y016599D01*
X040350D01*
X040350Y016580D01*
D02*
G37*
G36*
X026000Y017080D02*
X026002Y017062D01*
X026005Y017047D01*
X026008Y017034D01*
X026012Y017023D01*
X026018Y017014D01*
X026024Y017007D01*
X026032Y017002D01*
X026040Y016999D01*
X026050Y016998D01*
X025850D01*
X025859Y016999D01*
X025868Y017002D01*
X025875Y017007D01*
X025882Y017014D01*
X025887Y017023D01*
X025892Y017034D01*
X025896Y017047D01*
X025898Y017062D01*
X025900Y017080D01*
X025900Y017099D01*
X026000D01*
X026000Y017080D01*
D02*
G37*
G36*
X028701Y016849D02*
X028599D01*
X028599Y016849D01*
X028599Y016851D01*
X028599Y016853D01*
X028600Y016890D01*
X028600Y016900D01*
X028700D01*
X028701Y016849D01*
D02*
G37*
G36*
X026200Y016890D02*
X026203Y016882D01*
X026208Y016875D01*
X026215Y016868D01*
X026224Y016862D01*
X026235Y016858D01*
X026248Y016854D01*
X026263Y016852D01*
X026280Y016851D01*
X026299Y016850D01*
Y016750D01*
X026280Y016750D01*
X026263Y016748D01*
X026248Y016746D01*
X026235Y016742D01*
X026224Y016738D01*
X026215Y016732D01*
X026208Y016725D01*
X026203Y016718D01*
X026200Y016710D01*
X026199Y016700D01*
Y016900D01*
X026200Y016890D01*
D02*
G37*
G36*
X029501Y014968D02*
X029502Y014954D01*
X029505Y014941D01*
X029509Y014928D01*
X029514Y014915D01*
X029520Y014903D01*
X029527Y014891D01*
X029535Y014879D01*
X029545Y014868D01*
X029555Y014857D01*
X029345D01*
X029355Y014868D01*
X029365Y014879D01*
X029373Y014891D01*
X029380Y014903D01*
X029386Y014915D01*
X029391Y014928D01*
X029395Y014941D01*
X029398Y014954D01*
X029399Y014968D01*
X029400Y014981D01*
X029500D01*
X029501Y014968D01*
D02*
G37*
G36*
X026101Y014947D02*
X026061Y014901D01*
X026045Y014878D01*
X026031Y014856D01*
X026020Y014835D01*
X026011Y014814D01*
X026005Y014794D01*
X026001Y014774D01*
X026000Y014755D01*
X025900D01*
X025899Y014774D01*
X025895Y014794D01*
X025889Y014814D01*
X025880Y014835D01*
X025869Y014856D01*
X025855Y014878D01*
X025839Y014901D01*
X025820Y014924D01*
X025775Y014971D01*
X026125D01*
X026101Y014947D01*
D02*
G37*
G36*
X022499Y014941D02*
X022502Y014932D01*
X022507Y014924D01*
X022514Y014918D01*
X022523Y014913D01*
X022534Y014908D01*
X022547Y014905D01*
X022562Y014902D01*
X022580Y014900D01*
X022599Y014900D01*
Y014800D01*
X022580Y014799D01*
X022562Y014798D01*
X022547Y014796D01*
X022534Y014792D01*
X022523Y014787D01*
X022514Y014782D01*
X022507Y014776D01*
X022502Y014768D01*
X022499Y014760D01*
X022498Y014750D01*
Y014950D01*
X022499Y014941D01*
D02*
G37*
G36*
X023265Y013973D02*
X023267Y013956D01*
X023269Y013941D01*
X023273Y013928D01*
X023277Y013917D01*
X023283Y013908D01*
X023289Y013901D01*
X023297Y013896D01*
X023305Y013892D01*
X023315Y013891D01*
X023115D01*
X023124Y013892D01*
X023133Y013896D01*
X023140Y013901D01*
X023147Y013908D01*
X023152Y013917D01*
X023157Y013928D01*
X023160Y013941D01*
X023163Y013956D01*
X023164Y013973D01*
X023165Y013993D01*
X023265D01*
X023265Y013973D01*
D02*
G37*
G36*
X029541Y015501D02*
X029532Y015498D01*
X029525Y015493D01*
X029518Y015486D01*
X029513Y015477D01*
X029508Y015466D01*
X029504Y015453D01*
X029502Y015438D01*
X029501Y015420D01*
X029500Y015401D01*
X029400D01*
X029399Y015420D01*
X029398Y015438D01*
X029395Y015453D01*
X029392Y015466D01*
X029388Y015477D01*
X029382Y015486D01*
X029376Y015493D01*
X029368Y015498D01*
X029360Y015501D01*
X029350Y015502D01*
X029550D01*
X029541Y015501D01*
D02*
G37*
G36*
X026001Y015526D02*
X026005Y015506D01*
X026011Y015486D01*
X026020Y015465D01*
X026031Y015444D01*
X026045Y015422D01*
X026061Y015399D01*
X026080Y015376D01*
X026125Y015329D01*
X025775D01*
X025799Y015353D01*
X025839Y015399D01*
X025855Y015422D01*
X025869Y015444D01*
X025880Y015465D01*
X025889Y015486D01*
X025895Y015506D01*
X025899Y015526D01*
X025900Y015545D01*
X026000D01*
X026001Y015526D01*
D02*
G37*
G36*
X027451Y015168D02*
X027452Y015154D01*
X027455Y015141D01*
X027459Y015128D01*
X027464Y015115D01*
X027470Y015103D01*
X027477Y015091D01*
X027485Y015079D01*
X027495Y015068D01*
X027505Y015057D01*
X027295D01*
X027305Y015068D01*
X027315Y015079D01*
X027323Y015091D01*
X027330Y015103D01*
X027336Y015115D01*
X027341Y015128D01*
X027345Y015141D01*
X027348Y015154D01*
X027349Y015168D01*
X027350Y015181D01*
X027450D01*
X027451Y015168D01*
D02*
G37*
G36*
X010752Y018250D02*
X010751Y018260D01*
X010748Y018268D01*
X010743Y018276D01*
X010736Y018282D01*
X010727Y018288D01*
X010716Y018292D01*
X010703Y018296D01*
X010688Y018298D01*
X010670Y018299D01*
X010651Y018300D01*
Y018400D01*
X010670Y018400D01*
X010688Y018402D01*
X010703Y018405D01*
X010716Y018408D01*
X010727Y018412D01*
X010736Y018418D01*
X010743Y018425D01*
X010748Y018432D01*
X010751Y018441D01*
X010752Y018450D01*
Y018250D01*
D02*
G37*
G36*
X021547Y018767D02*
X021556Y018742D01*
X021571Y018721D01*
X021592Y018702D01*
X021619Y018686D01*
X021652Y018673D01*
X021691Y018663D01*
X021736Y018656D01*
X021787Y018651D01*
X021844Y018650D01*
Y018350D01*
X021787Y018349D01*
X021736Y018344D01*
X021691Y018337D01*
X021652Y018327D01*
X021619Y018314D01*
X021592Y018298D01*
X021571Y018279D01*
X021556Y018258D01*
X021547Y018233D01*
X021544Y018206D01*
Y018794D01*
X021547Y018767D01*
D02*
G37*
G36*
X036799Y018190D02*
X036802Y018182D01*
X036807Y018175D01*
X036814Y018168D01*
X036823Y018162D01*
X036834Y018158D01*
X036847Y018154D01*
X036862Y018152D01*
X036880Y018151D01*
X036899Y018150D01*
Y018050D01*
X036880Y018049D01*
X036862Y018048D01*
X036847Y018046D01*
X036834Y018042D01*
X036823Y018038D01*
X036814Y018032D01*
X036807Y018025D01*
X036802Y018018D01*
X036799Y018010D01*
X036798Y018000D01*
Y018200D01*
X036799Y018190D01*
D02*
G37*
G36*
X025701Y018301D02*
X025698Y018310D01*
X025689Y018319D01*
X025674Y018326D01*
X025653Y018332D01*
X025626Y018338D01*
X025593Y018342D01*
X025509Y018348D01*
X025401Y018350D01*
Y018650D01*
X025458Y018650D01*
X025626Y018662D01*
X025653Y018668D01*
X025674Y018674D01*
X025689Y018681D01*
X025698Y018690D01*
X025701Y018699D01*
Y018301D01*
D02*
G37*
G36*
X023265Y012223D02*
X023267Y012206D01*
X023269Y012191D01*
X023273Y012178D01*
X023277Y012167D01*
X023283Y012158D01*
X023289Y012151D01*
X023297Y012146D01*
X023305Y012142D01*
X023315Y012141D01*
X023115D01*
X023124Y012142D01*
X023133Y012146D01*
X023140Y012151D01*
X023147Y012158D01*
X023152Y012167D01*
X023157Y012178D01*
X023160Y012191D01*
X023163Y012206D01*
X023164Y012223D01*
X023165Y012243D01*
X023265D01*
X023265Y012223D01*
D02*
G37*
G36*
X027815Y018310D02*
X027812Y018318D01*
X027803Y018325D01*
X027788Y018331D01*
X027767Y018336D01*
X027740Y018340D01*
X027707Y018344D01*
X027572Y018350D01*
X027515Y018350D01*
Y018650D01*
X027572Y018651D01*
X027668Y018658D01*
X027707Y018665D01*
X027740Y018673D01*
X027767Y018683D01*
X027788Y018695D01*
X027803Y018708D01*
X027812Y018724D01*
X027815Y018741D01*
Y018310D01*
D02*
G37*
G36*
X026202Y018690D02*
X026211Y018681D01*
X026226Y018674D01*
X026247Y018668D01*
X026274Y018662D01*
X026307Y018658D01*
X026391Y018652D01*
X026499Y018650D01*
Y018350D01*
X026442Y018350D01*
X026274Y018338D01*
X026247Y018332D01*
X026226Y018326D01*
X026211Y018319D01*
X026202Y018310D01*
X026199Y018301D01*
Y018699D01*
X026202Y018690D01*
D02*
G37*
G36*
X029332Y017759D02*
X029323Y017756D01*
X029316Y017751D01*
X029309Y017744D01*
X029304Y017735D01*
X029299Y017724D01*
X029296Y017711D01*
X029293Y017696D01*
X029292Y017678D01*
X029291Y017659D01*
X029191D01*
X029191Y017678D01*
X029189Y017696D01*
X029187Y017711D01*
X029183Y017724D01*
X029179Y017735D01*
X029173Y017744D01*
X029167Y017751D01*
X029159Y017756D01*
X029151Y017759D01*
X029141Y017760D01*
X029341D01*
X029332Y017759D01*
D02*
G37*
G36*
X028249D02*
X028241Y017756D01*
X028233Y017751D01*
X028227Y017744D01*
X028221Y017735D01*
X028217Y017724D01*
X028213Y017711D01*
X028211Y017696D01*
X028209Y017678D01*
X028209Y017659D01*
X028109D01*
X028108Y017678D01*
X028107Y017696D01*
X028104Y017711D01*
X028101Y017724D01*
X028096Y017735D01*
X028091Y017744D01*
X028084Y017751D01*
X028077Y017756D01*
X028068Y017759D01*
X028059Y017760D01*
X028259D01*
X028249Y017759D01*
D02*
G37*
G36*
X026040Y017501D02*
X026032Y017498D01*
X026024Y017493D01*
X026018Y017486D01*
X026012Y017477D01*
X026008Y017466D01*
X026005Y017453D01*
X026002Y017438D01*
X026000Y017420D01*
X026000Y017401D01*
X025900D01*
X025900Y017420D01*
X025898Y017438D01*
X025896Y017453D01*
X025892Y017466D01*
X025887Y017477D01*
X025882Y017486D01*
X025875Y017493D01*
X025868Y017498D01*
X025859Y017501D01*
X025850Y017502D01*
X026050D01*
X026040Y017501D01*
D02*
G37*
G36*
X033718Y017945D02*
X033729Y017935D01*
X033741Y017927D01*
X033753Y017920D01*
X033765Y017914D01*
X033778Y017909D01*
X033791Y017905D01*
X033804Y017902D01*
X033818Y017901D01*
X033831Y017900D01*
Y017800D01*
X033818Y017799D01*
X033804Y017798D01*
X033791Y017795D01*
X033778Y017791D01*
X033765Y017786D01*
X033753Y017780D01*
X033741Y017773D01*
X033729Y017765D01*
X033718Y017755D01*
X033707Y017745D01*
Y017955D01*
X033718Y017945D01*
D02*
G37*
G36*
X031198Y018000D02*
X031183Y018000D01*
X031169Y017998D01*
X031155Y017996D01*
X031141Y017993D01*
X031128Y017988D01*
X031116Y017983D01*
X031104Y017976D01*
X031093Y017969D01*
X031082Y017960D01*
X031072Y017951D01*
X031001Y018022D01*
X031010Y018032D01*
X031019Y018043D01*
X031026Y018054D01*
X031033Y018066D01*
X031038Y018078D01*
X031043Y018091D01*
X031046Y018105D01*
X031048Y018119D01*
X031050Y018133D01*
X031050Y018148D01*
X031198Y018000D01*
D02*
G37*
G36*
X035364Y018157D02*
X035379Y018145D01*
X035395Y018135D01*
X035411Y018125D01*
X035428Y018118D01*
X035445Y018111D01*
X035463Y018106D01*
X035482Y018103D01*
X035501Y018101D01*
X035513Y018100D01*
X035520Y018101D01*
X035538Y018102D01*
X035553Y018104D01*
X035566Y018108D01*
X035577Y018112D01*
X035586Y018118D01*
X035593Y018125D01*
X035598Y018132D01*
X035601Y018140D01*
X035602Y018150D01*
Y017950D01*
X035601Y017960D01*
X035598Y017968D01*
X035593Y017975D01*
X035586Y017982D01*
X035577Y017988D01*
X035566Y017992D01*
X035553Y017996D01*
X035538Y017998D01*
X035520Y018000D01*
X035513Y018000D01*
X035501Y017999D01*
X035482Y017997D01*
X035463Y017994D01*
X035445Y017989D01*
X035428Y017982D01*
X035411Y017975D01*
X035395Y017965D01*
X035379Y017955D01*
X035364Y017943D01*
X035350Y017929D01*
X035259Y017979D01*
X035271Y017993D01*
X035281Y018008D01*
X035288Y018022D01*
X035293Y018036D01*
X035294Y018050D01*
X035293Y018064D01*
X035288Y018078D01*
X035281Y018092D01*
X035271Y018107D01*
X035259Y018121D01*
X035350Y018171D01*
X035364Y018157D01*
D02*
G37*
G36*
X038521Y017925D02*
X038497Y017949D01*
X038451Y017989D01*
X038428Y018005D01*
X038406Y018019D01*
X038385Y018030D01*
X038364Y018039D01*
X038344Y018045D01*
X038324Y018049D01*
X038305Y018050D01*
Y018150D01*
X038324Y018151D01*
X038344Y018155D01*
X038364Y018161D01*
X038385Y018170D01*
X038406Y018181D01*
X038428Y018195D01*
X038451Y018211D01*
X038474Y018230D01*
X038521Y018275D01*
Y017925D01*
D02*
G37*
G36*
X013791Y023151D02*
X013782Y023148D01*
X013774Y023143D01*
X013768Y023136D01*
X013763Y023127D01*
X013758Y023116D01*
X013755Y023103D01*
X013752Y023088D01*
X013750Y023070D01*
X013750Y023051D01*
X013650D01*
X013649Y023070D01*
X013648Y023088D01*
X013645Y023103D01*
X013642Y023116D01*
X013637Y023127D01*
X013632Y023136D01*
X013626Y023143D01*
X013618Y023148D01*
X013609Y023151D01*
X013600Y023152D01*
X013800D01*
X013791Y023151D01*
D02*
G37*
G36*
X012916D02*
X012907Y023148D01*
X012900Y023143D01*
X012893Y023136D01*
X012888Y023127D01*
X012883Y023116D01*
X012880Y023103D01*
X012877Y023088D01*
X012875Y023070D01*
X012875Y023051D01*
X012775D01*
X012774Y023070D01*
X012773Y023088D01*
X012771Y023103D01*
X012767Y023116D01*
X012763Y023127D01*
X012757Y023136D01*
X012751Y023143D01*
X012743Y023148D01*
X012735Y023151D01*
X012725Y023152D01*
X012925D01*
X012916Y023151D01*
D02*
G37*
G36*
X011358Y024241D02*
X011361Y024232D01*
X011366Y024225D01*
X011373Y024218D01*
X011382Y024213D01*
X011393Y024208D01*
X011406Y024204D01*
X011421Y024202D01*
X011438Y024200D01*
X011457Y024200D01*
Y024100D01*
X011438Y024100D01*
X011421Y024098D01*
X011406Y024095D01*
X011393Y024092D01*
X011382Y024088D01*
X011373Y024082D01*
X011366Y024076D01*
X011361Y024068D01*
X011358Y024060D01*
X011357Y024050D01*
Y024250D01*
X011358Y024241D01*
D02*
G37*
G36*
X018727Y023291D02*
X018730Y023282D01*
X018735Y023275D01*
X018742Y023268D01*
X018751Y023263D01*
X018762Y023258D01*
X018775Y023254D01*
X018790Y023252D01*
X018808Y023251D01*
X018827Y023250D01*
Y023150D01*
X018808Y023149D01*
X018790Y023148D01*
X018775Y023145D01*
X018762Y023142D01*
X018751Y023138D01*
X018742Y023132D01*
X018735Y023126D01*
X018730Y023118D01*
X018727Y023110D01*
X018726Y023100D01*
Y023300D01*
X018727Y023291D01*
D02*
G37*
G36*
X029123Y023084D02*
X029120Y023087D01*
X029111Y023090D01*
X029096Y023092D01*
X029075Y023094D01*
X028976Y023099D01*
X028823Y023100D01*
Y023400D01*
X029123Y023416D01*
Y023084D01*
D02*
G37*
G36*
X028452Y023440D02*
X028461Y023431D01*
X028476Y023424D01*
X028497Y023418D01*
X028524Y023412D01*
X028557Y023408D01*
X028641Y023402D01*
X028749Y023400D01*
Y023100D01*
X028692Y023100D01*
X028524Y023088D01*
X028497Y023082D01*
X028476Y023076D01*
X028461Y023069D01*
X028452Y023060D01*
X028449Y023051D01*
Y023449D01*
X028452Y023440D01*
D02*
G37*
G36*
X019271Y023025D02*
X019247Y023049D01*
X019201Y023089D01*
X019178Y023105D01*
X019156Y023119D01*
X019135Y023130D01*
X019114Y023139D01*
X019094Y023145D01*
X019074Y023149D01*
X019055Y023150D01*
Y023250D01*
X019074Y023251D01*
X019094Y023255D01*
X019114Y023261D01*
X019135Y023270D01*
X019156Y023281D01*
X019178Y023295D01*
X019201Y023311D01*
X019224Y023330D01*
X019271Y023375D01*
Y023025D01*
D02*
G37*
G36*
X013751Y023026D02*
X013755Y023006D01*
X013761Y022986D01*
X013770Y022965D01*
X013781Y022944D01*
X013795Y022922D01*
X013811Y022899D01*
X013830Y022876D01*
X013875Y022829D01*
X013525D01*
X013549Y022853D01*
X013589Y022899D01*
X013605Y022922D01*
X013619Y022944D01*
X013630Y022965D01*
X013639Y022986D01*
X013645Y023006D01*
X013649Y023026D01*
X013650Y023045D01*
X013750D01*
X013751Y023026D01*
D02*
G37*
G36*
X034650Y010900D02*
X029985D01*
X029950Y010935D01*
X029950Y016050D01*
X031250Y017350D01*
X034650D01*
Y010900D01*
D02*
G37*
G36*
X011199Y023151D02*
X011190Y023148D01*
X011183Y023143D01*
X011176Y023136D01*
X011171Y023127D01*
X011166Y023116D01*
X011163Y023103D01*
X011160Y023088D01*
X011159Y023070D01*
X011158Y023051D01*
X011058D01*
X011058Y023070D01*
X011056Y023088D01*
X011054Y023103D01*
X011050Y023116D01*
X011046Y023127D01*
X011040Y023136D01*
X011034Y023143D01*
X011026Y023148D01*
X011018Y023151D01*
X011008Y023152D01*
X011208D01*
X011199Y023151D01*
D02*
G37*
G36*
X011719Y024050D02*
X011718Y024060D01*
X011715Y024068D01*
X011710Y024076D01*
X011703Y024082D01*
X011694Y024088D01*
X011683Y024092D01*
X011669Y024095D01*
X011654Y024098D01*
X011637Y024100D01*
X011618Y024100D01*
Y024200D01*
X011637Y024200D01*
X011654Y024202D01*
X011669Y024204D01*
X011683Y024208D01*
X011694Y024213D01*
X011703Y024218D01*
X011710Y024225D01*
X011715Y024232D01*
X011718Y024241D01*
X011719Y024250D01*
Y024050D01*
D02*
G37*
G36*
X014595Y024732D02*
X014585Y024721D01*
X014577Y024709D01*
X014570Y024697D01*
X014564Y024685D01*
X014559Y024672D01*
X014555Y024659D01*
X014552Y024646D01*
X014551Y024632D01*
X014550Y024619D01*
X014450D01*
X014449Y024632D01*
X014448Y024646D01*
X014445Y024659D01*
X014441Y024672D01*
X014436Y024685D01*
X014430Y024697D01*
X014423Y024709D01*
X014415Y024721D01*
X014405Y024732D01*
X014395Y024743D01*
X014605D01*
X014595Y024732D01*
D02*
G37*
G36*
X013435Y023265D02*
X013434Y023272D01*
X013431Y023278D01*
X013427Y023283D01*
X013421Y023288D01*
X013413Y023291D01*
X013404Y023294D01*
X013393Y023297D01*
X013380Y023299D01*
X013366Y023300D01*
X013350Y023300D01*
Y023400D01*
X013366Y023400D01*
X013393Y023403D01*
X013404Y023406D01*
X013413Y023409D01*
X013421Y023412D01*
X013427Y023417D01*
X013431Y023422D01*
X013434Y023428D01*
X013435Y023435D01*
Y023265D01*
D02*
G37*
G36*
X029420Y023765D02*
X029416Y023757D01*
X029412Y023746D01*
X029409Y023732D01*
X029406Y023716D01*
X029402Y023677D01*
X029400Y023628D01*
X029400Y023600D01*
X029100D01*
X029100Y023628D01*
X029094Y023716D01*
X029091Y023732D01*
X029088Y023746D01*
X029084Y023757D01*
X029080Y023765D01*
X029075Y023771D01*
X029425D01*
X029420Y023765D01*
D02*
G37*
G36*
X017050Y022550D02*
X016650D01*
X016450Y022350D01*
Y021507D01*
X016405Y021479D01*
X016400Y021479D01*
X016395Y021480D01*
Y021364D01*
X016390Y021337D01*
Y021209D01*
X016301D01*
Y021337D01*
X016295Y021364D01*
Y021480D01*
X016287Y021478D01*
X016247Y021451D01*
X016207Y021478D01*
X016148Y021490D01*
X016090Y021478D01*
X016050Y021451D01*
X016010Y021478D01*
X015952Y021490D01*
X015900Y021479D01*
X015883Y021485D01*
X015850Y021509D01*
Y022150D01*
X015700Y022300D01*
Y022450D01*
X014550Y022450D01*
X014100Y022800D01*
Y023815D01*
X014135Y023850D01*
X014192Y023850D01*
X014192Y023850D01*
X014192Y023850D01*
X014892D01*
Y023850D01*
X015350D01*
Y025400D01*
X017050D01*
Y022550D01*
D02*
G37*
G36*
X014550Y024430D02*
X014552Y024412D01*
X014555Y024397D01*
X014558Y024384D01*
X014562Y024373D01*
X014568Y024364D01*
X014575Y024357D01*
X014582Y024352D01*
X014591Y024349D01*
X014600Y024348D01*
X014400D01*
X014410Y024349D01*
X014418Y024352D01*
X014425Y024357D01*
X014432Y024364D01*
X014438Y024373D01*
X014442Y024384D01*
X014446Y024397D01*
X014448Y024412D01*
X014449Y024430D01*
X014450Y024449D01*
X014550D01*
X014550Y024430D01*
D02*
G37*
G36*
X013073Y024221D02*
X013076Y024217D01*
X013080Y024213D01*
X013085Y024209D01*
X013092Y024207D01*
X013100Y024204D01*
X013111Y024202D01*
X013122Y024201D01*
X013135Y024200D01*
X013150Y024200D01*
Y024100D01*
X013135Y024100D01*
X013111Y024098D01*
X013100Y024096D01*
X013092Y024093D01*
X013085Y024091D01*
X013080Y024087D01*
X013076Y024083D01*
X013073Y024079D01*
X013073Y024074D01*
Y024226D01*
X013073Y024221D01*
D02*
G37*
G36*
X023305Y011258D02*
X023297Y011254D01*
X023289Y011249D01*
X023283Y011242D01*
X023277Y011233D01*
X023273Y011222D01*
X023269Y011209D01*
X023267Y011194D01*
X023265Y011177D01*
X023265Y011157D01*
X023165D01*
X023164Y011177D01*
X023163Y011194D01*
X023160Y011209D01*
X023157Y011222D01*
X023152Y011233D01*
X023147Y011242D01*
X023140Y011249D01*
X023133Y011254D01*
X023124Y011258D01*
X023115Y011259D01*
X023315D01*
X023305Y011258D01*
D02*
G37*
G36*
X010001Y024050D02*
X010000Y024060D01*
X009997Y024068D01*
X009992Y024076D01*
X009985Y024082D01*
X009976Y024088D01*
X009965Y024092D01*
X009952Y024095D01*
X009937Y024098D01*
X009920Y024100D01*
X009901Y024100D01*
Y024200D01*
X009920Y024200D01*
X009937Y024202D01*
X009952Y024204D01*
X009965Y024208D01*
X009976Y024213D01*
X009985Y024218D01*
X009992Y024225D01*
X009997Y024232D01*
X010000Y024241D01*
X010001Y024250D01*
Y024050D01*
D02*
G37*
G36*
X010861Y023250D02*
X010860Y023259D01*
X010857Y023268D01*
X010852Y023275D01*
X010845Y023282D01*
X010835Y023287D01*
X010824Y023292D01*
X010811Y023296D01*
X010796Y023298D01*
X010779Y023300D01*
X010760Y023300D01*
Y023400D01*
X010779Y023400D01*
X010796Y023402D01*
X010811Y023405D01*
X010824Y023408D01*
X010835Y023412D01*
X010845Y023418D01*
X010852Y023424D01*
X010857Y023432D01*
X010860Y023440D01*
X010861Y023450D01*
Y023250D01*
D02*
G37*
G36*
X010499Y023440D02*
X010502Y023432D01*
X010507Y023424D01*
X010514Y023418D01*
X010523Y023412D01*
X010534Y023408D01*
X010547Y023405D01*
X010562Y023402D01*
X010580Y023400D01*
X010599Y023400D01*
Y023300D01*
X010580Y023300D01*
X010562Y023298D01*
X010547Y023296D01*
X010534Y023292D01*
X010523Y023287D01*
X010514Y023282D01*
X010507Y023275D01*
X010502Y023268D01*
X010499Y023259D01*
X010498Y023250D01*
Y023450D01*
X010499Y023440D01*
D02*
G37*
G36*
X012576Y023250D02*
X012575Y023259D01*
X012572Y023268D01*
X012567Y023275D01*
X012560Y023282D01*
X012551Y023287D01*
X012540Y023292D01*
X012527Y023296D01*
X012512Y023298D01*
X012495Y023300D01*
X012476Y023300D01*
Y023400D01*
X012495Y023400D01*
X012512Y023402D01*
X012527Y023405D01*
X012540Y023408D01*
X012551Y023412D01*
X012560Y023418D01*
X012567Y023424D01*
X012572Y023432D01*
X012575Y023440D01*
X012576Y023450D01*
Y023250D01*
D02*
G37*
G36*
X012216Y023440D02*
X012219Y023432D01*
X012224Y023424D01*
X012231Y023418D01*
X012240Y023412D01*
X012251Y023408D01*
X012264Y023405D01*
X012279Y023402D01*
X012296Y023400D01*
X012315Y023400D01*
Y023300D01*
X012296Y023300D01*
X012279Y023298D01*
X012264Y023296D01*
X012251Y023292D01*
X012240Y023287D01*
X012231Y023282D01*
X012224Y023275D01*
X012219Y023268D01*
X012216Y023259D01*
X012215Y023250D01*
Y023450D01*
X012216Y023440D01*
D02*
G37*
G36*
X039900Y010900D02*
X034800D01*
Y017350D01*
X039900D01*
Y010900D01*
D02*
G37*
G36*
X022679Y010104D02*
X022688Y010093D01*
X022697Y010083D01*
X022709Y010074D01*
X022721Y010067D01*
X022734Y010061D01*
X022749Y010056D01*
X022765Y010053D01*
X022782Y010051D01*
X022800Y010050D01*
Y009950D01*
X022782Y009949D01*
X022765Y009947D01*
X022749Y009944D01*
X022734Y009939D01*
X022721Y009933D01*
X022709Y009926D01*
X022697Y009917D01*
X022688Y009907D01*
X022679Y009896D01*
X022671Y009883D01*
Y010117D01*
X022679Y010104D01*
D02*
G37*
G36*
X034599Y020878D02*
X034590Y020868D01*
X034581Y020857D01*
X034574Y020846D01*
X034567Y020834D01*
X034562Y020822D01*
X034557Y020809D01*
X034554Y020795D01*
X034552Y020781D01*
X034550Y020767D01*
X034550Y020752D01*
X034402Y020900D01*
X034417Y020900D01*
X034431Y020902D01*
X034445Y020904D01*
X034459Y020907D01*
X034472Y020912D01*
X034484Y020917D01*
X034496Y020924D01*
X034507Y020931D01*
X034518Y020940D01*
X034528Y020949D01*
X034599Y020878D01*
D02*
G37*
G36*
X031399Y020840D02*
X031402Y020832D01*
X031407Y020824D01*
X031414Y020818D01*
X031423Y020812D01*
X031434Y020808D01*
X031447Y020805D01*
X031462Y020802D01*
X031480Y020800D01*
X031499Y020800D01*
Y020700D01*
X031480Y020700D01*
X031462Y020698D01*
X031447Y020696D01*
X031434Y020692D01*
X031423Y020687D01*
X031414Y020682D01*
X031407Y020675D01*
X031402Y020668D01*
X031399Y020659D01*
X031398Y020650D01*
Y020850D01*
X031399Y020840D01*
D02*
G37*
G36*
X034293Y020645D02*
X034282Y020655D01*
X034271Y020665D01*
X034259Y020673D01*
X034247Y020680D01*
X034235Y020686D01*
X034222Y020691D01*
X034209Y020695D01*
X034196Y020698D01*
X034182Y020699D01*
X034169Y020700D01*
Y020800D01*
X034182Y020801D01*
X034196Y020802D01*
X034209Y020805D01*
X034222Y020809D01*
X034235Y020814D01*
X034247Y020820D01*
X034259Y020827D01*
X034271Y020835D01*
X034282Y020845D01*
X034293Y020855D01*
Y020645D01*
D02*
G37*
G36*
X017999Y021140D02*
X018002Y021132D01*
X018007Y021124D01*
X018014Y021118D01*
X018023Y021112D01*
X018034Y021108D01*
X018047Y021105D01*
X018062Y021102D01*
X018080Y021100D01*
X018099Y021100D01*
Y021000D01*
X018080Y021000D01*
X018062Y020998D01*
X018047Y020996D01*
X018034Y020992D01*
X018023Y020988D01*
X018014Y020982D01*
X018007Y020975D01*
X018002Y020968D01*
X017999Y020959D01*
X017998Y020950D01*
Y021150D01*
X017999Y021140D01*
D02*
G37*
G36*
X017501Y020950D02*
X017500Y020959D01*
X017497Y020968D01*
X017492Y020975D01*
X017485Y020982D01*
X017476Y020988D01*
X017465Y020992D01*
X017452Y020996D01*
X017437Y020998D01*
X017420Y021000D01*
X017401Y021000D01*
Y021100D01*
X017420Y021100D01*
X017437Y021102D01*
X017452Y021105D01*
X017465Y021108D01*
X017476Y021112D01*
X017485Y021118D01*
X017492Y021124D01*
X017497Y021132D01*
X017500Y021140D01*
X017501Y021150D01*
Y020950D01*
D02*
G37*
G36*
X018460Y020893D02*
X018429Y020913D01*
X018346Y020961D01*
X018321Y020973D01*
X018276Y020990D01*
X018256Y020996D01*
X018238Y020999D01*
X018221Y021000D01*
X018200Y021100D01*
X018220Y021101D01*
X018240Y021105D01*
X018260Y021112D01*
X018280Y021122D01*
X018299Y021134D01*
X018318Y021149D01*
X018336Y021167D01*
X018354Y021187D01*
X018372Y021210D01*
X018390Y021236D01*
X018460Y020893D01*
D02*
G37*
G36*
X031240Y020551D02*
X031232Y020548D01*
X031225Y020543D01*
X031218Y020536D01*
X031212Y020527D01*
X031208Y020516D01*
X031205Y020503D01*
X031202Y020488D01*
X031200Y020470D01*
X031200Y020451D01*
X031100D01*
X031100Y020470D01*
X031098Y020488D01*
X031095Y020503D01*
X031092Y020516D01*
X031088Y020527D01*
X031082Y020536D01*
X031075Y020543D01*
X031068Y020548D01*
X031060Y020551D01*
X031050Y020552D01*
X031250D01*
X031240Y020551D01*
D02*
G37*
G36*
X017501Y020155D02*
X017500Y020164D01*
X017497Y020173D01*
X017492Y020180D01*
X017485Y020187D01*
X017476Y020192D01*
X017465Y020197D01*
X017452Y020200D01*
X017437Y020203D01*
X017420Y020204D01*
X017401Y020205D01*
Y020305D01*
X017420Y020305D01*
X017437Y020307D01*
X017452Y020309D01*
X017465Y020313D01*
X017476Y020317D01*
X017485Y020323D01*
X017492Y020329D01*
X017497Y020337D01*
X017500Y020345D01*
X017501Y020355D01*
Y020155D01*
D02*
G37*
G36*
X014449Y020340D02*
X014452Y020332D01*
X014457Y020324D01*
X014464Y020318D01*
X014473Y020312D01*
X014484Y020308D01*
X014497Y020305D01*
X014512Y020302D01*
X014530Y020301D01*
X014549Y020300D01*
Y020200D01*
X014530Y020199D01*
X014512Y020198D01*
X014497Y020196D01*
X014484Y020192D01*
X014473Y020187D01*
X014464Y020182D01*
X014457Y020175D01*
X014452Y020168D01*
X014449Y020159D01*
X014448Y020150D01*
Y020350D01*
X014449Y020340D01*
D02*
G37*
G36*
X028436Y020856D02*
X028411Y020846D01*
X028388Y020831D01*
X028369Y020810D01*
X028352Y020783D01*
X028339Y020750D01*
X028328Y020711D01*
X028321Y020666D01*
X028316Y020615D01*
X028315Y020557D01*
X028015D01*
X028013Y020615D01*
X028009Y020666D01*
X028001Y020711D01*
X027991Y020750D01*
X027977Y020783D01*
X027961Y020810D01*
X027941Y020831D01*
X027919Y020846D01*
X027893Y020856D01*
X027865Y020859D01*
X028465D01*
X028436Y020856D01*
D02*
G37*
G36*
X026507D02*
X026481Y020846D01*
X026459Y020831D01*
X026439Y020810D01*
X026423Y020783D01*
X026409Y020750D01*
X026399Y020711D01*
X026391Y020666D01*
X026387Y020615D01*
X026385Y020557D01*
X026085D01*
X026084Y020615D01*
X026079Y020666D01*
X026072Y020711D01*
X026061Y020750D01*
X026048Y020783D01*
X026031Y020810D01*
X026012Y020831D01*
X025989Y020846D01*
X025964Y020856D01*
X025935Y020859D01*
X026535D01*
X026507Y020856D01*
D02*
G37*
G36*
X034550Y020733D02*
X034552Y020719D01*
X034554Y020705D01*
X034557Y020691D01*
X034562Y020678D01*
X034567Y020666D01*
X034574Y020654D01*
X034581Y020643D01*
X034590Y020632D01*
X034599Y020622D01*
X034528Y020551D01*
X034518Y020560D01*
X034507Y020569D01*
X034496Y020576D01*
X034484Y020583D01*
X034472Y020588D01*
X034459Y020593D01*
X034445Y020596D01*
X034431Y020598D01*
X034417Y020600D01*
X034402Y020600D01*
X034550Y020749D01*
X034550Y020733D01*
D02*
G37*
G36*
X028859Y022150D02*
X028856Y022178D01*
X028847Y022204D01*
X028832Y022227D01*
X028811Y022246D01*
X028783Y022262D01*
X028750Y022276D01*
X028711Y022287D01*
X028666Y022294D01*
X028642Y022296D01*
X028524Y022288D01*
X028497Y022282D01*
X028476Y022276D01*
X028461Y022269D01*
X028452Y022260D01*
X028449Y022251D01*
Y022649D01*
X028452Y022640D01*
X028461Y022631D01*
X028476Y022624D01*
X028497Y022618D01*
X028524Y022612D01*
X028557Y022608D01*
X028629Y022603D01*
X028666Y022606D01*
X028711Y022613D01*
X028750Y022624D01*
X028783Y022638D01*
X028811Y022654D01*
X028832Y022673D01*
X028847Y022696D01*
X028856Y022722D01*
X028859Y022750D01*
Y022150D01*
D02*
G37*
G36*
X026414Y022162D02*
X026409Y022155D01*
X026404Y022147D01*
X026400Y022136D01*
X026396Y022122D01*
X026393Y022106D01*
X026390Y022088D01*
X026387Y022044D01*
X026386Y022019D01*
X026387Y021985D01*
X026391Y021934D01*
X026399Y021889D01*
X026409Y021850D01*
X026423Y021817D01*
X026439Y021790D01*
X026459Y021769D01*
X026481Y021754D01*
X026507Y021744D01*
X026535Y021741D01*
X025935D01*
X025964Y021744D01*
X025989Y021754D01*
X026012Y021769D01*
X026031Y021790D01*
X026048Y021817D01*
X026061Y021850D01*
X026072Y021889D01*
X026079Y021934D01*
X026084Y021985D01*
X026085Y022036D01*
X026085Y022040D01*
X026078Y022144D01*
X026075Y022157D01*
X026072Y022168D01*
X026069Y022176D01*
X026065Y022182D01*
X026414Y022162D01*
D02*
G37*
G36*
X030901Y021450D02*
X030900Y021460D01*
X030897Y021468D01*
X030892Y021476D01*
X030885Y021482D01*
X030876Y021488D01*
X030865Y021492D01*
X030852Y021495D01*
X030837Y021498D01*
X030820Y021500D01*
X030801Y021500D01*
Y021600D01*
X030820Y021600D01*
X030837Y021602D01*
X030852Y021604D01*
X030865Y021608D01*
X030876Y021613D01*
X030885Y021618D01*
X030892Y021625D01*
X030897Y021632D01*
X030900Y021641D01*
X030901Y021650D01*
Y021450D01*
D02*
G37*
G36*
X014294Y024050D02*
X014293Y024060D01*
X014290Y024068D01*
X014285Y024076D01*
X014278Y024082D01*
X014269Y024088D01*
X014258Y024092D01*
X014244Y024095D01*
X014229Y024098D01*
X014212Y024100D01*
X014193Y024100D01*
Y024200D01*
X014212Y024200D01*
X014229Y024202D01*
X014244Y024204D01*
X014258Y024208D01*
X014269Y024213D01*
X014278Y024218D01*
X014285Y024225D01*
X014290Y024232D01*
X014293Y024241D01*
X014294Y024250D01*
Y024050D01*
D02*
G37*
G36*
X013932Y024241D02*
X013935Y024232D01*
X013940Y024225D01*
X013947Y024218D01*
X013956Y024213D01*
X013967Y024208D01*
X013981Y024204D01*
X013996Y024202D01*
X014013Y024200D01*
X014032Y024200D01*
Y024100D01*
X014013Y024100D01*
X013996Y024098D01*
X013981Y024095D01*
X013967Y024092D01*
X013956Y024088D01*
X013947Y024082D01*
X013940Y024076D01*
X013935Y024068D01*
X013932Y024060D01*
X013931Y024050D01*
Y024250D01*
X013932Y024241D01*
D02*
G37*
G36*
X011158Y022843D02*
X011160Y022824D01*
X011163Y022805D01*
X011169Y022785D01*
X011178Y022764D01*
X011189Y022742D01*
X011202Y022720D01*
X011218Y022696D01*
X011237Y022673D01*
X011281Y022623D01*
X010931Y022634D01*
X010955Y022657D01*
X010996Y022702D01*
X011013Y022724D01*
X011027Y022746D01*
X011038Y022767D01*
X011047Y022787D01*
X011053Y022807D01*
X011057Y022827D01*
X011058Y022847D01*
X011158Y022843D01*
D02*
G37*
G36*
X013951Y021050D02*
X013950Y021060D01*
X013947Y021068D01*
X013942Y021075D01*
X013935Y021082D01*
X013926Y021088D01*
X013915Y021092D01*
X013902Y021095D01*
X013887Y021098D01*
X013870Y021100D01*
X013851Y021100D01*
Y021200D01*
X013870Y021200D01*
X013887Y021202D01*
X013902Y021205D01*
X013915Y021208D01*
X013926Y021212D01*
X013935Y021218D01*
X013942Y021225D01*
X013947Y021232D01*
X013950Y021240D01*
X013951Y021250D01*
Y021050D01*
D02*
G37*
G36*
X014449Y021191D02*
X014452Y021182D01*
X014457Y021174D01*
X014464Y021168D01*
X014473Y021163D01*
X014484Y021158D01*
X014497Y021154D01*
X014512Y021152D01*
X014530Y021151D01*
X014549Y021150D01*
Y021050D01*
X014530Y021049D01*
X014512Y021048D01*
X014497Y021045D01*
X014484Y021042D01*
X014473Y021037D01*
X014464Y021032D01*
X014457Y021026D01*
X014452Y021018D01*
X014449Y021010D01*
X014448Y021000D01*
Y021200D01*
X014449Y021191D01*
D02*
G37*
G36*
X010703Y021301D02*
X010749Y021261D01*
X010772Y021245D01*
X010794Y021231D01*
X010815Y021220D01*
X010836Y021211D01*
X010856Y021205D01*
X010876Y021201D01*
X010895Y021200D01*
Y021100D01*
X010876Y021099D01*
X010856Y021095D01*
X010836Y021089D01*
X010815Y021080D01*
X010794Y021069D01*
X010772Y021055D01*
X010749Y021039D01*
X010726Y021020D01*
X010679Y020975D01*
Y021325D01*
X010703Y021301D01*
D02*
G37*
G36*
X030553Y021701D02*
X030599Y021661D01*
X030622Y021645D01*
X030644Y021631D01*
X030665Y021620D01*
X030686Y021611D01*
X030706Y021605D01*
X030726Y021601D01*
X030745Y021600D01*
Y021500D01*
X030726Y021499D01*
X030706Y021495D01*
X030686Y021489D01*
X030665Y021480D01*
X030644Y021469D01*
X030622Y021455D01*
X030599Y021439D01*
X030576Y021420D01*
X030529Y021375D01*
Y021725D01*
X030553Y021701D01*
D02*
G37*
G36*
X030501Y021347D02*
X030461Y021301D01*
X030445Y021278D01*
X030431Y021256D01*
X030420Y021235D01*
X030411Y021214D01*
X030405Y021194D01*
X030401Y021174D01*
X030400Y021155D01*
X030300D01*
X030299Y021174D01*
X030295Y021194D01*
X030289Y021214D01*
X030280Y021235D01*
X030269Y021256D01*
X030255Y021278D01*
X030239Y021301D01*
X030220Y021324D01*
X030175Y021371D01*
X030525D01*
X030501Y021347D01*
D02*
G37*
%LPC*%
G36*
X021637Y013997D02*
X021335D01*
Y013500D01*
X021852D01*
Y013782D01*
X021836Y013864D01*
X021789Y013934D01*
X021720Y013981D01*
X021637Y013997D01*
D02*
G37*
G36*
X039185Y014097D02*
X038884D01*
X038801Y014081D01*
X038732Y014034D01*
X038685Y013964D01*
X038669Y013882D01*
Y013600D01*
X039185D01*
Y014097D01*
D02*
G37*
G36*
X031589Y016690D02*
X030850D01*
Y014150D01*
X031589D01*
Y016690D01*
D02*
G37*
G36*
X030400Y014345D02*
Y014150D01*
X030595D01*
X030585Y014198D01*
X030530Y014280D01*
X030448Y014336D01*
X030400Y014345D01*
D02*
G37*
G36*
X032428Y016690D02*
X031689D01*
Y014150D01*
X032428D01*
Y016690D01*
D02*
G37*
G36*
X038550D02*
X037811D01*
Y014150D01*
X038550D01*
Y016690D01*
D02*
G37*
G36*
X037711D02*
X036972D01*
Y014150D01*
X037711D01*
Y016690D01*
D02*
G37*
G36*
X021235Y011650D02*
X020719D01*
Y011368D01*
X020735Y011286D01*
X020782Y011216D01*
X020851Y011169D01*
X020934Y011153D01*
X021235D01*
Y011650D01*
D02*
G37*
G36*
X039587Y014097D02*
X039285D01*
Y013600D01*
X039802D01*
Y013882D01*
X039786Y013964D01*
X039739Y014034D01*
X039670Y014081D01*
X039587Y014097D01*
D02*
G37*
G36*
X030300Y014050D02*
X030105D01*
X030115Y014002D01*
X030170Y013920D01*
X030252Y013865D01*
X030300Y013855D01*
Y014050D01*
D02*
G37*
G36*
Y014345D02*
X030252Y014336D01*
X030170Y014280D01*
X030115Y014198D01*
X030105Y014150D01*
X030300D01*
Y014345D01*
D02*
G37*
G36*
X030595Y014050D02*
X030400D01*
Y013855D01*
X030448Y013865D01*
X030530Y013920D01*
X030585Y014002D01*
X030595Y014050D01*
D02*
G37*
G36*
X031589D02*
X030850D01*
Y011510D01*
X031589D01*
Y014050D01*
D02*
G37*
G36*
X032428D02*
X031689D01*
Y011510D01*
X032428D01*
Y014050D01*
D02*
G37*
G36*
X039587Y012347D02*
X039285D01*
Y011850D01*
X039802D01*
Y012132D01*
X039786Y012214D01*
X039739Y012284D01*
X039670Y012331D01*
X039587Y012347D01*
D02*
G37*
G36*
X013578Y014950D02*
X012839D01*
Y012410D01*
X013578D01*
Y014950D01*
D02*
G37*
G36*
X012739D02*
X012000D01*
Y012410D01*
X012739D01*
Y014950D01*
D02*
G37*
G36*
X021637Y012247D02*
X021335D01*
Y011750D01*
X021852D01*
Y012032D01*
X021836Y012114D01*
X021789Y012184D01*
X021720Y012231D01*
X021637Y012247D01*
D02*
G37*
G36*
X021235D02*
X020934D01*
X020851Y012231D01*
X020782Y012184D01*
X020735Y012114D01*
X020719Y012032D01*
Y011750D01*
X021235D01*
Y012247D01*
D02*
G37*
G36*
X039185Y012347D02*
X038884D01*
X038801Y012331D01*
X038732Y012284D01*
X038685Y012214D01*
X038669Y012132D01*
Y011850D01*
X039185D01*
Y012347D01*
D02*
G37*
G36*
X037711Y014050D02*
X036972D01*
Y011510D01*
X037711D01*
Y014050D01*
D02*
G37*
G36*
X038550D02*
X037811D01*
Y011510D01*
X038550D01*
Y014050D01*
D02*
G37*
G36*
X021852Y013400D02*
X021335D01*
Y012903D01*
X021637D01*
X021720Y012919D01*
X021789Y012966D01*
X021836Y013036D01*
X021852Y013118D01*
Y013400D01*
D02*
G37*
G36*
X021235D02*
X020719D01*
Y013118D01*
X020735Y013036D01*
X020782Y012966D01*
X020851Y012919D01*
X020934Y012903D01*
X021235D01*
Y013400D01*
D02*
G37*
G36*
X039185Y013500D02*
X038669D01*
Y013218D01*
X038685Y013136D01*
X038732Y013066D01*
X038801Y013019D01*
X038884Y013003D01*
X039185D01*
Y013500D01*
D02*
G37*
G36*
X021235Y013997D02*
X020934D01*
X020851Y013981D01*
X020782Y013934D01*
X020735Y013864D01*
X020719Y013782D01*
Y013500D01*
X021235D01*
Y013997D01*
D02*
G37*
G36*
X039802Y013500D02*
X039285D01*
Y013003D01*
X039587D01*
X039670Y013019D01*
X039739Y013066D01*
X039786Y013136D01*
X039802Y013218D01*
Y013500D01*
D02*
G37*
G36*
X039185Y011750D02*
X038669D01*
Y011468D01*
X038685Y011386D01*
X038732Y011316D01*
X038801Y011269D01*
X038884Y011253D01*
X039185D01*
Y011750D01*
D02*
G37*
G36*
X039802D02*
X039285D01*
Y011253D01*
X039587D01*
X039670Y011269D01*
X039739Y011316D01*
X039786Y011386D01*
X039802Y011468D01*
Y011750D01*
D02*
G37*
G36*
X018861Y014950D02*
X018122D01*
Y012410D01*
X018861D01*
Y014950D01*
D02*
G37*
G36*
X021852Y011650D02*
X021335D01*
Y011153D01*
X021637D01*
X021720Y011169D01*
X021789Y011216D01*
X021836Y011286D01*
X021852Y011368D01*
Y011650D01*
D02*
G37*
G36*
X019700Y014950D02*
X018961D01*
Y012410D01*
X019700D01*
Y014950D01*
D02*
G37*
G36*
X021450Y014800D02*
X021200D01*
Y014500D01*
X021450D01*
Y014800D01*
D02*
G37*
G36*
X011700Y019650D02*
X011450D01*
Y019350D01*
X011700D01*
Y019650D01*
D02*
G37*
G36*
X012050Y019250D02*
X011800D01*
Y018950D01*
X012050D01*
Y019250D01*
D02*
G37*
G36*
Y019650D02*
X011800D01*
Y019350D01*
X012050D01*
Y019650D01*
D02*
G37*
G36*
X016902Y023150D02*
X016385D01*
Y022653D01*
X016687D01*
X016770Y022669D01*
X016839Y022716D01*
X016886Y022786D01*
X016902Y022868D01*
Y023150D01*
D02*
G37*
G36*
X016285D02*
X015769D01*
Y022868D01*
X015785Y022786D01*
X015832Y022716D01*
X015901Y022669D01*
X015984Y022653D01*
X016285D01*
Y023150D01*
D02*
G37*
G36*
X012050Y018300D02*
X011800D01*
Y018000D01*
X012050D01*
Y018300D01*
D02*
G37*
G36*
X011700D02*
X011450D01*
Y018000D01*
X011700D01*
Y018300D01*
D02*
G37*
G36*
Y018700D02*
X011450D01*
Y018400D01*
X011700D01*
Y018700D01*
D02*
G37*
G36*
Y019250D02*
X011450D01*
Y018950D01*
X011700D01*
Y019250D01*
D02*
G37*
G36*
X012050Y018700D02*
X011800D01*
Y018400D01*
X012050D01*
Y018700D01*
D02*
G37*
G36*
X016400Y024700D02*
X016055D01*
Y024355D01*
X016400D01*
Y024700D01*
D02*
G37*
G36*
X014892Y023650D02*
X014592D01*
Y023400D01*
X014892D01*
Y023650D01*
D02*
G37*
G36*
X016845Y024700D02*
X016500D01*
Y024355D01*
X016845D01*
Y024700D01*
D02*
G37*
G36*
Y025145D02*
X016500D01*
Y024800D01*
X016845D01*
Y025145D01*
D02*
G37*
G36*
X016400D02*
X016055D01*
Y024800D01*
X016400D01*
Y025145D01*
D02*
G37*
G36*
X014892Y023300D02*
X014592D01*
Y023050D01*
X014892D01*
Y023300D01*
D02*
G37*
G36*
X014492D02*
X014192D01*
Y023050D01*
X014492D01*
Y023300D01*
D02*
G37*
G36*
X016285Y023747D02*
X015984D01*
X015901Y023731D01*
X015832Y023684D01*
X015785Y023614D01*
X015769Y023532D01*
Y023250D01*
X016285D01*
Y023747D01*
D02*
G37*
G36*
X014492Y023650D02*
X014192D01*
Y023400D01*
X014492D01*
Y023650D01*
D02*
G37*
G36*
X016687Y023747D02*
X016385D01*
Y023250D01*
X016902D01*
Y023532D01*
X016886Y023614D01*
X016839Y023684D01*
X016770Y023731D01*
X016687Y023747D01*
D02*
G37*
G36*
X013578Y017590D02*
X012839D01*
Y015050D01*
X013578D01*
Y017590D01*
D02*
G37*
G36*
X012739D02*
X012000D01*
Y015050D01*
X012739D01*
Y017590D01*
D02*
G37*
G36*
X018861D02*
X018122D01*
Y015050D01*
X018861D01*
Y017590D01*
D02*
G37*
G36*
X039336Y015492D02*
X039282Y015485D01*
X039186Y015445D01*
X039104Y015382D01*
X039040Y015299D01*
X039001Y015203D01*
X038994Y015150D01*
X039336D01*
Y015492D01*
D02*
G37*
G36*
X019700Y017590D02*
X018961D01*
Y015050D01*
X019700D01*
Y017590D01*
D02*
G37*
G36*
X039336Y015050D02*
X038994D01*
X039001Y014997D01*
X039040Y014901D01*
X039104Y014818D01*
X039186Y014755D01*
X039282Y014715D01*
X039336Y014708D01*
Y015050D01*
D02*
G37*
G36*
X021800Y014800D02*
X021550D01*
Y014500D01*
X021800D01*
Y014800D01*
D02*
G37*
G36*
X039778Y015050D02*
X039436D01*
Y014708D01*
X039489Y014715D01*
X039585Y014755D01*
X039668Y014818D01*
X039731Y014901D01*
X039771Y014997D01*
X039778Y015050D01*
D02*
G37*
G36*
X021800Y015200D02*
X021550D01*
Y014900D01*
X021800D01*
Y015200D01*
D02*
G37*
G36*
X021450D02*
X021200D01*
Y014900D01*
X021450D01*
Y015200D01*
D02*
G37*
G36*
X021200Y017450D02*
X020858D01*
X020865Y017397D01*
X020905Y017301D01*
X020968Y017218D01*
X021051Y017155D01*
X021147Y017115D01*
X021200Y017108D01*
Y017450D01*
D02*
G37*
G36*
X039800Y016600D02*
X039550D01*
Y016300D01*
X039800D01*
Y016600D01*
D02*
G37*
G36*
X021642Y017450D02*
X021300D01*
Y017108D01*
X021353Y017115D01*
X021449Y017155D01*
X021532Y017218D01*
X021595Y017301D01*
X021635Y017397D01*
X021642Y017450D01*
D02*
G37*
G36*
X021300Y017892D02*
Y017550D01*
X021642D01*
X021635Y017603D01*
X021595Y017699D01*
X021532Y017782D01*
X021449Y017845D01*
X021353Y017885D01*
X021300Y017892D01*
D02*
G37*
G36*
X021200D02*
X021147Y017885D01*
X021051Y017845D01*
X020968Y017782D01*
X020905Y017699D01*
X020865Y017603D01*
X020858Y017550D01*
X021200D01*
Y017892D01*
D02*
G37*
G36*
X039450Y016200D02*
X039200D01*
Y015900D01*
X039450D01*
Y016200D01*
D02*
G37*
G36*
X039436Y015492D02*
Y015150D01*
X039778D01*
X039771Y015203D01*
X039731Y015299D01*
X039668Y015382D01*
X039585Y015445D01*
X039489Y015485D01*
X039436Y015492D01*
D02*
G37*
G36*
X039800Y016200D02*
X039550D01*
Y015900D01*
X039800D01*
Y016200D01*
D02*
G37*
G36*
X039450Y016600D02*
X039200D01*
Y016300D01*
X039450D01*
Y016600D01*
D02*
G37*
G36*
X021250Y016899D02*
X021147Y016885D01*
X021051Y016845D01*
X020968Y016782D01*
X020905Y016699D01*
X020865Y016603D01*
X020851Y016500D01*
X020865Y016397D01*
X020905Y016301D01*
X020968Y016218D01*
X021051Y016155D01*
X021147Y016115D01*
X021250Y016101D01*
X021353Y016115D01*
X021449Y016155D01*
X021532Y016218D01*
X021595Y016301D01*
X021635Y016397D01*
X021649Y016500D01*
X021635Y016603D01*
X021595Y016699D01*
X021532Y016782D01*
X021449Y016845D01*
X021353Y016885D01*
X021250Y016899D01*
D02*
G37*
%LPD*%
D10*
X041165Y013550D02*
D03*
X039235D02*
D03*
X041165Y011800D02*
D03*
X039235D02*
D03*
X018265Y023200D02*
D03*
X016335D02*
D03*
X026235Y021300D02*
D03*
X028165D02*
D03*
X026235Y019650D02*
D03*
X028165D02*
D03*
X023215Y013450D02*
D03*
X021285D02*
D03*
X023215Y011700D02*
D03*
X021285D02*
D03*
D11*
X029250Y021900D02*
D03*
D12*
Y023250D02*
D03*
D13*
Y022400D02*
D03*
D14*
X037761Y014100D02*
D03*
X031639D02*
D03*
X018911Y015000D02*
D03*
X012789D02*
D03*
D15*
X031639Y019734D02*
D03*
Y019478D02*
D03*
Y019222D02*
D03*
Y018966D02*
D03*
X033961Y019734D02*
D03*
Y019478D02*
D03*
Y019222D02*
D03*
Y018966D02*
D03*
D16*
X029450Y016600D02*
D03*
X028650D02*
D03*
X036600Y018950D02*
D03*
X035800D02*
D03*
X039500Y016250D02*
D03*
X040300D02*
D03*
X029450Y015750D02*
D03*
X028650D02*
D03*
X035800Y018050D02*
D03*
X036600D02*
D03*
X011750Y018350D02*
D03*
X010950D02*
D03*
X011750Y019300D02*
D03*
X010950D02*
D03*
X021500Y014850D02*
D03*
X022300D02*
D03*
D17*
X025950Y017700D02*
D03*
Y018500D02*
D03*
Y016000D02*
D03*
Y016800D02*
D03*
X031150Y020750D02*
D03*
Y021550D02*
D03*
X014542Y023350D02*
D03*
Y024150D02*
D03*
X014200Y020300D02*
D03*
Y021100D02*
D03*
X011967Y023350D02*
D03*
Y024150D02*
D03*
X010250D02*
D03*
Y023350D02*
D03*
X012825D02*
D03*
Y024150D02*
D03*
X017750Y020250D02*
D03*
Y021050D02*
D03*
X013683Y024150D02*
D03*
Y023350D02*
D03*
X011108Y024150D02*
D03*
Y023350D02*
D03*
X028200Y023250D02*
D03*
Y022450D02*
D03*
D18*
X015194Y020845D02*
D03*
Y020255D02*
D03*
X016906D02*
D03*
Y020845D02*
D03*
D19*
X015361Y019891D02*
D03*
X015558D02*
D03*
X015755D02*
D03*
X015952D02*
D03*
X016148D02*
D03*
X016345D02*
D03*
X016542D02*
D03*
X016739D02*
D03*
Y021209D02*
D03*
X016542D02*
D03*
X016345D02*
D03*
X016148D02*
D03*
X015952D02*
D03*
X015755D02*
D03*
X015558D02*
D03*
X015361D02*
D03*
D20*
X016050Y020550D02*
D03*
D21*
X029241Y018526D02*
D03*
Y017974D02*
D03*
X028159Y018526D02*
D03*
Y017974D02*
D03*
D22*
X040386Y014329D02*
Y015100D01*
Y014329D02*
X041165Y013550D01*
Y011800D02*
Y013550D01*
X018265Y023200D02*
X019450D01*
X024850Y011700D02*
X025950Y012800D01*
X023215Y011700D02*
X024850D01*
X023215Y010415D02*
Y011700D01*
X022800Y010000D02*
X023215Y010415D01*
X022450Y010000D02*
X022800D01*
X023215Y013450D02*
Y014635D01*
Y011700D02*
Y013450D01*
X023000Y014850D02*
X023215Y014635D01*
X022300Y014850D02*
X023000D01*
X014200Y020250D02*
X015189D01*
X015194Y020058D02*
Y020255D01*
Y020058D02*
X015361Y019891D01*
X016906Y020255D02*
X017745D01*
X013350Y023350D02*
X013683D01*
X013200Y023500D02*
X013350Y023350D01*
X013200Y023500D02*
Y024100D01*
X013150Y024150D02*
X013200Y024100D01*
X012825Y024150D02*
X013150D01*
X013683D02*
X014542D01*
X014500Y024192D02*
Y024850D01*
X011108Y022458D02*
Y023350D01*
X010250D02*
X011108D01*
X009550Y022300D02*
X010100Y021750D01*
X009550Y022300D02*
Y024000D01*
X009700Y024150D01*
X010250D01*
X015558Y021209D02*
Y022092D01*
X011108Y024150D02*
X011967D01*
Y023350D02*
X012825D01*
X033961Y018966D02*
X034484D01*
X035400Y018050D01*
X035800D01*
X033961Y019222D02*
X034828D01*
X035100Y018950D01*
X035800D01*
X033961Y019734D02*
X034434D01*
X034650Y019950D01*
X033961Y019478D02*
X034678D01*
X035650Y020450D01*
X036400D01*
X036600Y020250D01*
Y018950D02*
Y020250D01*
X035800Y018950D02*
Y019900D01*
X036650Y018100D02*
X038700D01*
X036600Y018950D02*
X037050D01*
X037450Y019350D01*
Y019950D01*
X033600Y017850D02*
X035200D01*
X035400Y018050D01*
X030350Y021550D02*
X031150D01*
X034650Y019950D02*
Y020500D01*
X034400Y020750D02*
X034650Y020500D01*
X031150Y020750D02*
X034400D01*
X028650Y016600D02*
Y016900D01*
X029241Y017491D01*
Y017974D01*
X028159Y015941D02*
Y017974D01*
Y015941D02*
X028350Y015750D01*
X028650D01*
X025950Y015150D02*
Y016000D01*
X027400Y014950D02*
Y016150D01*
X026750Y016800D02*
X027400Y016150D01*
X025950Y016800D02*
X026750D01*
X025950D02*
Y017700D01*
X029450Y014750D02*
Y015750D01*
X031416Y018966D02*
X031639D01*
X029450Y016600D02*
X029650D01*
X031200Y018150D01*
X031416Y019734D02*
X031639D01*
X031150Y020000D02*
X031416Y019734D01*
X031150Y020000D02*
Y020750D01*
X031272Y019478D02*
X031639D01*
X030350Y020400D02*
Y021550D01*
Y020400D02*
X031272Y019478D01*
X010100Y021750D02*
X015167D01*
X015358Y021559D01*
Y021209D02*
Y021559D01*
X016345Y019595D02*
Y019891D01*
Y019595D02*
X016350Y018850D01*
X040300Y015014D02*
X040386Y015100D01*
X040300Y016250D02*
Y019050D01*
X038050Y021300D02*
X040300Y019050D01*
X034950Y021300D02*
X038050D01*
X034400Y020750D02*
X034950Y021300D01*
X010950Y019300D02*
Y020200D01*
X017300Y018800D02*
Y018903D01*
X016545Y019658D02*
X017300Y018903D01*
X016542Y019658D02*
Y019891D01*
X015558Y019658D02*
Y019891D01*
X015050Y019150D02*
X015558Y019658D01*
X014550Y019150D02*
X015050D01*
X017750Y021050D02*
X018550D01*
X010300Y018350D02*
X010950D01*
X009950Y018700D02*
X010300Y018350D01*
X009950Y018700D02*
Y020100D01*
X010350Y020500D01*
X013200D01*
X014550Y019150D01*
X015450Y022200D02*
X015558Y022092D01*
X012825Y022375D02*
Y023350D01*
Y022375D02*
X013000Y022200D01*
X015450D01*
X013700Y022650D02*
Y023333D01*
X010500Y021150D02*
X014150D01*
X014905Y020845D02*
X015194D01*
X014650Y021100D02*
X014905Y020845D01*
X014200Y021100D02*
X014650D01*
X016906Y020845D02*
X017095D01*
X017300Y021050D01*
X017750D01*
X025950Y012800D02*
Y015150D01*
D23*
X029250Y021900D02*
Y022400D01*
Y018534D02*
Y021900D01*
X026235Y021300D02*
Y022335D01*
Y019650D02*
Y021300D01*
X028165Y019650D02*
Y021300D01*
Y018532D02*
Y019650D01*
X029250Y023250D02*
Y023950D01*
X028200Y023250D02*
X029250D01*
X028200Y022450D02*
X029228D01*
X028200Y022400D02*
Y022450D01*
X021150Y018500D02*
X025950D01*
X028116D01*
D24*
X031178Y019222D02*
X031639D01*
X031000Y018550D02*
X031416Y018966D01*
X029266Y018550D02*
X031000D01*
X030350Y019644D02*
X030752D01*
X031168Y019228D01*
D25*
X014500Y024850D02*
D03*
X016350Y018850D02*
D03*
X035800Y019900D02*
D03*
X030350Y019644D02*
D03*
Y014100D02*
D03*
X037450Y019950D02*
D03*
X029450Y014750D02*
D03*
X031200Y018150D02*
D03*
X033600Y017850D02*
D03*
X027400Y014950D02*
D03*
X034400Y020750D02*
D03*
X017300Y018800D02*
D03*
X010950Y020200D02*
D03*
D26*
X020250Y010000D02*
D03*
X040386Y015100D02*
D03*
X016450Y024750D02*
D03*
D27*
X021250Y010000D02*
D03*
Y017500D02*
D03*
Y016500D02*
D03*
X039386Y015100D02*
D03*
X017450Y024750D02*
D03*
D28*
X021250Y018500D02*
D03*
D29*
X029250Y023950D02*
D03*
X019450Y023200D02*
D03*
X022450Y010000D02*
D03*
X011100Y022450D02*
D03*
X038700Y018100D02*
D03*
X030350Y021550D02*
D03*
X025950Y015150D02*
D03*
X026250Y022350D02*
D03*
X018600Y021100D02*
D03*
X013700Y022650D02*
D03*
X010500Y021150D02*
D03*
D30*
X015617Y020767D02*
D03*
X016050D02*
D03*
X016483D02*
D03*
X015617Y020333D02*
D03*
X016050D02*
D03*
X016483D02*
D03*
M02*
