Added Component: Designator=D3(0805 LED)
Added Component: Designator=RLEDIO(0805R-100)
Added Pin To Net: NetName=5V_VCC Pin=C10-2
Added Pin To Net: NetName=5V_VCC Pin=C11-2
Added Pin To Net: NetName=5V_VCC Pin=RLEDIO-2
Added Pin To Net: NetName=5V_VCC Pin=U2-16
Added Pin To Net: NetName=IO_TEST Pin=D3-2
Added Pin To Net: NetName=IO_TEST Pin=U2-12
Added Net: Name=IO_TEST
Added Pin To Net: NetName=LED_3 Pin=D3-1
Added Pin To Net: NetName=LED_3 Pin=RLEDIO-1
Added Net: Name=LED_3
Added Member To Class: ClassName=control Member=Component D3 LED
Added Member To Class: ClassName=control Member=Component RLEDIO 100R
