Removed Pin From Net: NetName=INVB Pin=H1-2
Removed Pin From Net: NetName=NINVB_ADJ Pin=PRES-1
Removed Pin From Net: NetName=NINVB Pin=PRES-2
Removed Pin From Net: NetName=NINVB_FIXED Pin=PRES-3
Added Pin To Net: NetName=NINVB Pin=H1-2
Added Pin To Net: NetName=INVB Pin=PRES-2
Added Pin To Net: NetName=INVB_ADJ Pin=PRES-1
Added Net: Name=INVB_ADJ
Added Pin To Net: NetName=INVB_FIXED Pin=PRES-3
Added Net: Name=INVB_FIXED
